<?xml version="1.0" encoding="utf-8" standalone="no"?>
<!DOCTYPE svg PUBLIC "-//W3C//DTD SVG 1.1//EN"
  "http://www.w3.org/Graphics/SVG/1.1/DTD/svg11.dtd">
<!-- Created with matplotlib (https://matplotlib.org/) -->
<svg height="288pt" version="1.1" viewBox="0 0 432 288" width="432pt" xmlns="http://www.w3.org/2000/svg" xmlns:xlink="http://www.w3.org/1999/xlink">
 <defs>
  <style type="text/css">
*{stroke-linecap:butt;stroke-linejoin:round;}
  </style>
 </defs>
 <g id="figure_1">
  <g id="patch_1">
   <path d="M 0 288 
L 432 288 
L 432 0 
L 0 0 
z
" style="fill:#ffffff;"/>
  </g>
  <g id="axes_1">
   <g id="patch_2">
    <path d="M 54 133.396364 
L 388.8 133.396364 
L 388.8 34.56 
L 54 34.56 
z
" style="fill:#eaeaf2;"/>
   </g>
   <g id="matplotlib.axis_1">
    <g id="xtick_1">
     <g id="line2d_1">
      <path clip-path="url(#p1a6425e12f)" d="M 54 133.396364 
L 54 34.56 
" style="fill:none;stroke:#ffffff;stroke-linecap:round;"/>
     </g>
    </g>
    <g id="xtick_2">
     <g id="line2d_2">
      <path clip-path="url(#p1a6425e12f)" d="M 101.828571 133.396364 
L 101.828571 34.56 
" style="fill:none;stroke:#ffffff;stroke-linecap:round;"/>
     </g>
    </g>
    <g id="xtick_3">
     <g id="line2d_3">
      <path clip-path="url(#p1a6425e12f)" d="M 149.657143 133.396364 
L 149.657143 34.56 
" style="fill:none;stroke:#ffffff;stroke-linecap:round;"/>
     </g>
    </g>
    <g id="xtick_4">
     <g id="line2d_4">
      <path clip-path="url(#p1a6425e12f)" d="M 197.485714 133.396364 
L 197.485714 34.56 
" style="fill:none;stroke:#ffffff;stroke-linecap:round;"/>
     </g>
    </g>
    <g id="xtick_5">
     <g id="line2d_5">
      <path clip-path="url(#p1a6425e12f)" d="M 245.314286 133.396364 
L 245.314286 34.56 
" style="fill:none;stroke:#ffffff;stroke-linecap:round;"/>
     </g>
    </g>
    <g id="xtick_6">
     <g id="line2d_6">
      <path clip-path="url(#p1a6425e12f)" d="M 293.142857 133.396364 
L 293.142857 34.56 
" style="fill:none;stroke:#ffffff;stroke-linecap:round;"/>
     </g>
    </g>
    <g id="xtick_7">
     <g id="line2d_7">
      <path clip-path="url(#p1a6425e12f)" d="M 340.971429 133.396364 
L 340.971429 34.56 
" style="fill:none;stroke:#ffffff;stroke-linecap:round;"/>
     </g>
    </g>
    <g id="xtick_8">
     <g id="line2d_8">
      <path clip-path="url(#p1a6425e12f)" d="M 388.8 133.396364 
L 388.8 34.56 
" style="fill:none;stroke:#ffffff;stroke-linecap:round;"/>
     </g>
    </g>
   </g>
   <g id="matplotlib.axis_2">
    <g id="ytick_1">
     <g id="line2d_9">
      <path clip-path="url(#p1a6425e12f)" d="M 54 113.629091 
L 388.8 113.629091 
" style="fill:none;stroke:#ffffff;stroke-linecap:round;"/>
     </g>
     <g id="text_1">
      <!-- 0 -->
      <defs>
       <path d="M 31.78125 66.40625 
Q 24.171875 66.40625 20.328125 58.90625 
Q 16.5 51.421875 16.5 36.375 
Q 16.5 21.390625 20.328125 13.890625 
Q 24.171875 6.390625 31.78125 6.390625 
Q 39.453125 6.390625 43.28125 13.890625 
Q 47.125 21.390625 47.125 36.375 
Q 47.125 51.421875 43.28125 58.90625 
Q 39.453125 66.40625 31.78125 66.40625 
z
M 31.78125 74.21875 
Q 44.046875 74.21875 50.515625 64.515625 
Q 56.984375 54.828125 56.984375 36.375 
Q 56.984375 17.96875 50.515625 8.265625 
Q 44.046875 -1.421875 31.78125 -1.421875 
Q 19.53125 -1.421875 13.0625 8.265625 
Q 6.59375 17.96875 6.59375 36.375 
Q 6.59375 54.828125 13.0625 64.515625 
Q 19.53125 74.21875 31.78125 74.21875 
z
" id="DejaVuSans-48"/>
      </defs>
      <g style="fill:#262626;" transform="translate(37.50125 117.808232)scale(0.11 -0.11)">
       <use xlink:href="#DejaVuSans-48"/>
      </g>
     </g>
    </g>
    <g id="ytick_2">
     <g id="line2d_10">
      <path clip-path="url(#p1a6425e12f)" d="M 54 74.094545 
L 388.8 74.094545 
" style="fill:none;stroke:#ffffff;stroke-linecap:round;"/>
     </g>
     <g id="text_2">
      <!-- 2000 -->
      <defs>
       <path d="M 19.1875 8.296875 
L 53.609375 8.296875 
L 53.609375 0 
L 7.328125 0 
L 7.328125 8.296875 
Q 12.9375 14.109375 22.625 23.890625 
Q 32.328125 33.6875 34.8125 36.53125 
Q 39.546875 41.84375 41.421875 45.53125 
Q 43.3125 49.21875 43.3125 52.78125 
Q 43.3125 58.59375 39.234375 62.25 
Q 35.15625 65.921875 28.609375 65.921875 
Q 23.96875 65.921875 18.8125 64.3125 
Q 13.671875 62.703125 7.8125 59.421875 
L 7.8125 69.390625 
Q 13.765625 71.78125 18.9375 73 
Q 24.125 74.21875 28.421875 74.21875 
Q 39.75 74.21875 46.484375 68.546875 
Q 53.21875 62.890625 53.21875 53.421875 
Q 53.21875 48.921875 51.53125 44.890625 
Q 49.859375 40.875 45.40625 35.40625 
Q 44.1875 33.984375 37.640625 27.21875 
Q 31.109375 20.453125 19.1875 8.296875 
z
" id="DejaVuSans-50"/>
      </defs>
      <g style="fill:#262626;" transform="translate(16.505 78.273686)scale(0.11 -0.11)">
       <use xlink:href="#DejaVuSans-50"/>
       <use x="63.623047" xlink:href="#DejaVuSans-48"/>
       <use x="127.246094" xlink:href="#DejaVuSans-48"/>
       <use x="190.869141" xlink:href="#DejaVuSans-48"/>
      </g>
     </g>
    </g>
    <g id="ytick_3">
     <g id="line2d_11">
      <path clip-path="url(#p1a6425e12f)" d="M 54 34.56 
L 388.8 34.56 
" style="fill:none;stroke:#ffffff;stroke-linecap:round;"/>
     </g>
     <g id="text_3">
      <!-- 4000 -->
      <defs>
       <path d="M 37.796875 64.3125 
L 12.890625 25.390625 
L 37.796875 25.390625 
z
M 35.203125 72.90625 
L 47.609375 72.90625 
L 47.609375 25.390625 
L 58.015625 25.390625 
L 58.015625 17.1875 
L 47.609375 17.1875 
L 47.609375 0 
L 37.796875 0 
L 37.796875 17.1875 
L 4.890625 17.1875 
L 4.890625 26.703125 
z
" id="DejaVuSans-52"/>
      </defs>
      <g style="fill:#262626;" transform="translate(16.505 38.739141)scale(0.11 -0.11)">
       <use xlink:href="#DejaVuSans-52"/>
       <use x="63.623047" xlink:href="#DejaVuSans-48"/>
       <use x="127.246094" xlink:href="#DejaVuSans-48"/>
       <use x="190.869141" xlink:href="#DejaVuSans-48"/>
      </g>
     </g>
    </g>
    <g id="text_4">
     <!-- Pressure [Pa] -->
     <defs>
      <path d="M 19.671875 64.796875 
L 19.671875 37.40625 
L 32.078125 37.40625 
Q 38.96875 37.40625 42.71875 40.96875 
Q 46.484375 44.53125 46.484375 51.125 
Q 46.484375 57.671875 42.71875 61.234375 
Q 38.96875 64.796875 32.078125 64.796875 
z
M 9.8125 72.90625 
L 32.078125 72.90625 
Q 44.34375 72.90625 50.609375 67.359375 
Q 56.890625 61.8125 56.890625 51.125 
Q 56.890625 40.328125 50.609375 34.8125 
Q 44.34375 29.296875 32.078125 29.296875 
L 19.671875 29.296875 
L 19.671875 0 
L 9.8125 0 
z
" id="DejaVuSans-80"/>
      <path d="M 41.109375 46.296875 
Q 39.59375 47.171875 37.8125 47.578125 
Q 36.03125 48 33.890625 48 
Q 26.265625 48 22.1875 43.046875 
Q 18.109375 38.09375 18.109375 28.8125 
L 18.109375 0 
L 9.078125 0 
L 9.078125 54.6875 
L 18.109375 54.6875 
L 18.109375 46.1875 
Q 20.953125 51.171875 25.484375 53.578125 
Q 30.03125 56 36.53125 56 
Q 37.453125 56 38.578125 55.875 
Q 39.703125 55.765625 41.0625 55.515625 
z
" id="DejaVuSans-114"/>
      <path d="M 56.203125 29.59375 
L 56.203125 25.203125 
L 14.890625 25.203125 
Q 15.484375 15.921875 20.484375 11.0625 
Q 25.484375 6.203125 34.421875 6.203125 
Q 39.59375 6.203125 44.453125 7.46875 
Q 49.3125 8.734375 54.109375 11.28125 
L 54.109375 2.78125 
Q 49.265625 0.734375 44.1875 -0.34375 
Q 39.109375 -1.421875 33.890625 -1.421875 
Q 20.796875 -1.421875 13.15625 6.1875 
Q 5.515625 13.8125 5.515625 26.8125 
Q 5.515625 40.234375 12.765625 48.109375 
Q 20.015625 56 32.328125 56 
Q 43.359375 56 49.78125 48.890625 
Q 56.203125 41.796875 56.203125 29.59375 
z
M 47.21875 32.234375 
Q 47.125 39.59375 43.09375 43.984375 
Q 39.0625 48.390625 32.421875 48.390625 
Q 24.90625 48.390625 20.390625 44.140625 
Q 15.875 39.890625 15.1875 32.171875 
z
" id="DejaVuSans-101"/>
      <path d="M 44.28125 53.078125 
L 44.28125 44.578125 
Q 40.484375 46.53125 36.375 47.5 
Q 32.28125 48.484375 27.875 48.484375 
Q 21.1875 48.484375 17.84375 46.4375 
Q 14.5 44.390625 14.5 40.28125 
Q 14.5 37.15625 16.890625 35.375 
Q 19.28125 33.59375 26.515625 31.984375 
L 29.59375 31.296875 
Q 39.15625 29.25 43.1875 25.515625 
Q 47.21875 21.78125 47.21875 15.09375 
Q 47.21875 7.46875 41.1875 3.015625 
Q 35.15625 -1.421875 24.609375 -1.421875 
Q 20.21875 -1.421875 15.453125 -0.5625 
Q 10.6875 0.296875 5.421875 2 
L 5.421875 11.28125 
Q 10.40625 8.6875 15.234375 7.390625 
Q 20.0625 6.109375 24.8125 6.109375 
Q 31.15625 6.109375 34.5625 8.28125 
Q 37.984375 10.453125 37.984375 14.40625 
Q 37.984375 18.0625 35.515625 20.015625 
Q 33.0625 21.96875 24.703125 23.78125 
L 21.578125 24.515625 
Q 13.234375 26.265625 9.515625 29.90625 
Q 5.8125 33.546875 5.8125 39.890625 
Q 5.8125 47.609375 11.28125 51.796875 
Q 16.75 56 26.8125 56 
Q 31.78125 56 36.171875 55.265625 
Q 40.578125 54.546875 44.28125 53.078125 
z
" id="DejaVuSans-115"/>
      <path d="M 8.5 21.578125 
L 8.5 54.6875 
L 17.484375 54.6875 
L 17.484375 21.921875 
Q 17.484375 14.15625 20.5 10.265625 
Q 23.53125 6.390625 29.59375 6.390625 
Q 36.859375 6.390625 41.078125 11.03125 
Q 45.3125 15.671875 45.3125 23.6875 
L 45.3125 54.6875 
L 54.296875 54.6875 
L 54.296875 0 
L 45.3125 0 
L 45.3125 8.40625 
Q 42.046875 3.421875 37.71875 1 
Q 33.40625 -1.421875 27.6875 -1.421875 
Q 18.265625 -1.421875 13.375 4.4375 
Q 8.5 10.296875 8.5 21.578125 
z
M 31.109375 56 
z
" id="DejaVuSans-117"/>
      <path id="DejaVuSans-32"/>
      <path d="M 8.59375 75.984375 
L 29.296875 75.984375 
L 29.296875 69 
L 17.578125 69 
L 17.578125 -6.203125 
L 29.296875 -6.203125 
L 29.296875 -13.1875 
L 8.59375 -13.1875 
z
" id="DejaVuSans-91"/>
      <path d="M 34.28125 27.484375 
Q 23.390625 27.484375 19.1875 25 
Q 14.984375 22.515625 14.984375 16.5 
Q 14.984375 11.71875 18.140625 8.90625 
Q 21.296875 6.109375 26.703125 6.109375 
Q 34.1875 6.109375 38.703125 11.40625 
Q 43.21875 16.703125 43.21875 25.484375 
L 43.21875 27.484375 
z
M 52.203125 31.203125 
L 52.203125 0 
L 43.21875 0 
L 43.21875 8.296875 
Q 40.140625 3.328125 35.546875 0.953125 
Q 30.953125 -1.421875 24.3125 -1.421875 
Q 15.921875 -1.421875 10.953125 3.296875 
Q 6 8.015625 6 15.921875 
Q 6 25.140625 12.171875 29.828125 
Q 18.359375 34.515625 30.609375 34.515625 
L 43.21875 34.515625 
L 43.21875 35.40625 
Q 43.21875 41.609375 39.140625 45 
Q 35.0625 48.390625 27.6875 48.390625 
Q 23 48.390625 18.546875 47.265625 
Q 14.109375 46.140625 10.015625 43.890625 
L 10.015625 52.203125 
Q 14.9375 54.109375 19.578125 55.046875 
Q 24.21875 56 28.609375 56 
Q 40.484375 56 46.34375 49.84375 
Q 52.203125 43.703125 52.203125 31.203125 
z
" id="DejaVuSans-97"/>
      <path d="M 30.421875 75.984375 
L 30.421875 -13.1875 
L 9.71875 -13.1875 
L 9.71875 -6.203125 
L 21.390625 -6.203125 
L 21.390625 69 
L 9.71875 69 
L 9.71875 75.984375 
z
" id="DejaVuSans-93"/>
     </defs>
     <g style="fill:#262626;" transform="translate(10.009375 123.841619)rotate(-90)scale(0.12 -0.12)">
      <use xlink:href="#DejaVuSans-80"/>
      <use x="60.287109" xlink:href="#DejaVuSans-114"/>
      <use x="101.369141" xlink:href="#DejaVuSans-101"/>
      <use x="162.892578" xlink:href="#DejaVuSans-115"/>
      <use x="214.992188" xlink:href="#DejaVuSans-115"/>
      <use x="267.091797" xlink:href="#DejaVuSans-117"/>
      <use x="330.470703" xlink:href="#DejaVuSans-114"/>
      <use x="371.552734" xlink:href="#DejaVuSans-101"/>
      <use x="433.076172" xlink:href="#DejaVuSans-32"/>
      <use x="464.863281" xlink:href="#DejaVuSans-91"/>
      <use x="503.876953" xlink:href="#DejaVuSans-80"/>
      <use x="564.117188" xlink:href="#DejaVuSans-97"/>
      <use x="625.396484" xlink:href="#DejaVuSans-93"/>
     </g>
    </g>
   </g>
   <g id="line2d_12">
    <path clip-path="url(#p1a6425e12f)" d="M 54 113.629091 
L 54.956571 50.147621 
L 55.959086 -1 
M 58.717155 -1 
L 58.782857 1.537249 
L 60.696 35.08749 
L 61.652571 57.904596 
L 63.565714 77.337624 
L 64.522286 81.926517 
L 65.478857 94.438493 
L 66.435429 96.185643 
L 67.392 103.331451 
L 68.348571 99.510739 
L 69.305143 108.956497 
L 70.261714 106.891831 
L 71.218286 113.539914 
L 72.174857 115.860075 
L 73.131429 111.712247 
L 74.088 115.105848 
L 75.044571 109.068983 
L 76.001143 110.427194 
L 76.957714 110.243439 
L 77.914286 100.89398 
L 78.870857 101.335672 
L 79.827429 91.468733 
L 80.784 94.573586 
L 81.740571 100.975443 
L 82.697143 104.034231 
L 83.653714 112.039769 
L 84.610286 111.472944 
L 85.566857 117.340329 
L 86.523429 113.135671 
L 87.48 118.967358 
L 88.436571 120.963095 
L 89.393143 119.871582 
L 90.349714 123.879636 
L 91.306286 117.136665 
L 92.262857 119.941012 
L 93.219429 116.217291 
L 94.176 117.443048 
L 95.132571 118.365604 
L 96.089143 114.660858 
L 97.045714 116.427921 
L 98.002286 109.89564 
L 98.958857 112.023965 
L 99.915429 109.243253 
L 100.872 106.806377 
L 101.828571 107.817473 
L 102.785143 104.314782 
L 103.741714 107.718668 
L 104.698286 109.30669 
L 105.654857 112.670965 
L 106.611429 117.20402 
L 107.568 116.136639 
L 108.524571 121.270723 
L 109.481143 118.827401 
L 110.437714 121.887585 
L 111.394286 122.488314 
L 112.350857 122.155121 
L 113.307429 124.631768 
L 114.264 121.382669 
L 115.220571 123.882773 
L 116.177143 119.631742 
L 117.133714 121.846575 
L 118.090286 121.405921 
L 119.046857 118.511773 
L 120.003429 120.214036 
L 120.96 114.078849 
L 121.916571 114.913555 
L 122.873143 111.348367 
L 123.829714 108.678949 
L 124.786286 111.742454 
L 125.742857 107.461053 
L 126.699429 111.521083 
L 127.656 110.967562 
L 128.612571 113.11712 
L 129.569143 115.617485 
L 130.525714 113.489495 
L 131.482286 117.361688 
L 132.438857 113.428875 
L 133.395429 116.912646 
L 134.352 115.76503 
L 135.308571 116.570528 
L 136.265143 118.819631 
L 137.221714 115.115292 
L 138.178286 117.782274 
L 139.134857 113.875383 
L 140.091429 115.901187 
L 141.048 115.056142 
L 142.004571 112.515989 
L 142.961143 113.2272 
L 143.917714 108.211567 
L 144.874286 108.599623 
L 145.830857 105.161657 
L 146.787429 104.625096 
L 147.744 106.696922 
L 148.700571 104.104569 
L 149.657143 106.560229 
L 150.613714 104.904095 
L 151.570286 107.89384 
L 152.526857 109.648557 
L 153.483429 109.584379 
L 154.44 112.561323 
L 155.396571 109.733543 
L 156.353143 111.813739 
L 157.309714 110.739968 
L 158.266286 110.501076 
L 159.222857 112.025853 
L 160.179429 107.869176 
L 161.136 110.267793 
L 162.092571 106.789603 
L 163.049143 108.276835 
L 164.005714 108.072797 
L 164.962286 105.646442 
L 165.918857 107.454509 
L 166.875429 101.965301 
L 167.832 103.832152 
L 168.788571 101.53478 
L 169.745143 102.922859 
L 170.701714 105.796084 
L 171.658286 103.305125 
L 172.614857 108.239032 
L 173.571429 105.97325 
L 174.528 111.012967 
L 176.441143 113.190829 
L 177.397714 115.686668 
L 178.354286 115.294654 
L 179.310857 117.784715 
L 180.267429 117.762011 
L 181.224 119.268893 
L 182.180571 120.495417 
L 183.137143 119.143601 
L 184.093714 121.016239 
L 185.050286 119.646911 
L 186.006857 121.289397 
L 186.963429 121.164524 
L 187.92 119.931538 
L 188.876571 120.001696 
L 189.833143 117.63669 
L 191.746286 119.480623 
L 192.702857 122.159098 
L 193.659429 125.324609 
L 194.616 125.227845 
L 195.572571 127.690333 
L 196.529143 126.871477 
L 197.485714 128.493754 
L 198.442286 129.477249 
L 199.398857 129.334154 
L 200.355429 130.384533 
L 201.312 128.461482 
L 202.268571 129.75999 
L 203.225143 129.1882 
L 204.181714 129.430056 
L 205.138286 130.45193 
L 206.094857 126.894222 
L 207.051429 128.321318 
L 208.008 125.313435 
L 208.964571 126.485565 
L 209.921143 124.453066 
L 210.877714 122.118998 
L 211.834286 122.491734 
L 212.790857 117.272891 
L 213.747429 118.766785 
L 214.704 117.943725 
L 216.617143 122.623971 
L 217.573714 122.748635 
L 218.530286 125.299537 
L 219.486857 123.747404 
L 220.443429 126.303058 
L 221.4 127.425206 
L 222.356571 127.299735 
L 223.313143 129.089403 
L 224.269714 125.964759 
L 225.226286 127.969055 
L 226.182857 126.005333 
L 227.139429 126.622497 
L 228.096 127.689906 
L 229.052571 124.694739 
L 230.009143 126.178767 
L 230.965714 122.140608 
L 231.922286 122.660952 
L 232.878857 121.48963 
L 233.835429 118.996842 
L 234.792 119.506741 
L 235.748571 116.045614 
L 236.705143 119.165556 
L 237.661714 118.829965 
L 239.574857 123.53471 
L 240.531429 122.928405 
L 241.488 126.195273 
L 242.444571 124.163843 
L 243.401143 127.173175 
L 244.357714 126.793187 
L 245.314286 126.707073 
L 246.270857 128.905113 
L 247.227429 124.860335 
L 248.184 127.311665 
L 249.140571 124.837014 
L 250.097143 126.29876 
L 251.053714 126.768482 
L 252.010286 124.544624 
L 252.966857 126.164922 
L 253.923429 122.708852 
L 254.88 123.62969 
L 255.836571 120.539939 
L 256.793143 119.461628 
L 257.749714 121.650116 
L 258.706286 120.311629 
L 259.662857 124.325757 
L 260.619429 124.211044 
L 261.576 127.240212 
L 262.532571 128.404064 
L 263.489143 128.084866 
L 264.445714 130.308575 
L 265.402286 127.900354 
L 266.358857 129.839405 
L 267.315429 130.199027 
L 268.272 130.101529 
L 269.228571 131.474291 
L 270.185143 128.242783 
L 271.141714 130.446747 
L 272.098286 127.607943 
L 273.054857 128.934627 
L 274.011429 128.958164 
L 274.968 126.171959 
L 275.924571 126.38149 
L 276.881143 122.879465 
L 277.837714 123.379077 
L 278.794286 120.304021 
L 279.750857 119.21723 
L 280.707429 121.483022 
L 281.664 119.449165 
L 282.620571 123.185846 
L 283.577143 121.538441 
L 284.533714 125.935266 
L 285.490286 126.666402 
L 286.446857 127.00361 
L 287.403429 129.511571 
L 288.36 126.839634 
L 289.316571 128.751389 
L 290.273143 128.055867 
L 291.229714 127.684191 
L 292.186286 129.280549 
L 293.142857 126.37417 
L 294.099429 128.281708 
L 295.056 125.41374 
L 296.012571 127.47656 
L 296.969143 126.439367 
L 297.925714 124.309263 
L 298.882286 124.932286 
L 299.838857 120.432864 
L 300.795429 120.801462 
L 301.752 116.940789 
L 302.708571 118.31553 
L 303.665143 119.432256 
L 304.621714 118.520858 
L 305.578286 121.361593 
L 306.534857 119.684763 
L 307.491429 123.024669 
L 308.448 125.2537 
L 309.404571 125.746243 
L 310.361143 127.801257 
L 311.317714 126.570946 
L 312.274286 128.264612 
L 314.187429 128.515526 
L 315.144 129.844015 
L 316.100571 126.670128 
L 317.057143 128.312992 
L 318.013714 125.432003 
L 318.970286 126.471 
L 319.926857 125.744205 
L 320.883429 122.980371 
L 321.84 124.289939 
L 322.796571 119.410012 
L 323.753143 119.780627 
L 324.709714 117.898875 
L 325.666286 119.49497 
L 326.622857 121.590002 
L 327.579429 120.000247 
L 328.536 123.485328 
L 329.492571 121.85043 
L 330.449143 124.591568 
L 331.405714 125.112637 
L 332.362286 126.449838 
L 333.318857 128.249598 
L 334.275429 126.834764 
L 335.232 129.074123 
L 336.188571 127.515742 
L 337.145143 128.954938 
L 338.101714 128.923542 
L 339.058286 126.512334 
L 340.014857 127.407143 
L 340.971429 124.581631 
L 341.928 125.490231 
L 342.884571 124.110804 
L 343.841143 121.781033 
L 344.797714 121.137118 
L 345.754286 116.007776 
L 346.710857 117.953455 
L 347.667429 116.908576 
L 349.580571 120.512565 
L 350.537143 119.831956 
L 351.493714 122.651428 
L 352.450286 122.020527 
L 353.406857 124.883497 
L 355.32 125.552771 
L 356.276571 127.472741 
L 357.233143 125.296949 
L 358.189714 127.362698 
L 359.146286 125.502896 
L 360.102857 127.144479 
L 361.059429 127.702812 
L 362.016 125.648994 
L 362.972571 127.601864 
L 363.929143 124.696951 
L 364.885714 125.818508 
L 365.842286 123.585548 
L 366.798857 122.247634 
L 367.755429 121.516504 
L 368.712 118.43491 
L 369.668571 121.392454 
L 370.625143 119.311411 
L 371.581714 122.530588 
L 372.538286 123.229184 
L 373.494857 123.560412 
L 374.451429 125.297176 
L 375.408 123.941398 
L 376.364571 127.009635 
L 377.321143 126.752307 
L 377.321143 126.752307 
" style="fill:none;stroke:#001c7f;stroke-linecap:round;stroke-width:1.5;"/>
   </g>
   <g id="patch_3">
    <path d="M 54 133.396364 
L 54 34.56 
" style="fill:none;stroke:#ffffff;stroke-linecap:square;stroke-linejoin:miter;stroke-width:1.25;"/>
   </g>
   <g id="patch_4">
    <path d="M 388.8 133.396364 
L 388.8 34.56 
" style="fill:none;stroke:#ffffff;stroke-linecap:square;stroke-linejoin:miter;stroke-width:1.25;"/>
   </g>
   <g id="patch_5">
    <path d="M 54 133.396364 
L 388.8 133.396364 
" style="fill:none;stroke:#ffffff;stroke-linecap:square;stroke-linejoin:miter;stroke-width:1.25;"/>
   </g>
   <g id="patch_6">
    <path d="M 54 34.56 
L 388.8 34.56 
" style="fill:none;stroke:#ffffff;stroke-linecap:square;stroke-linejoin:miter;stroke-width:1.25;"/>
   </g>
   <g id="text_5">
    <!-- Pressure vs Time for u=7[m/s] -->
    <defs>
     <path d="M 2.984375 54.6875 
L 12.5 54.6875 
L 29.59375 8.796875 
L 46.6875 54.6875 
L 56.203125 54.6875 
L 35.6875 0 
L 23.484375 0 
z
" id="DejaVuSans-118"/>
     <path d="M -0.296875 72.90625 
L 61.375 72.90625 
L 61.375 64.59375 
L 35.5 64.59375 
L 35.5 0 
L 25.59375 0 
L 25.59375 64.59375 
L -0.296875 64.59375 
z
" id="DejaVuSans-84"/>
     <path d="M 9.421875 54.6875 
L 18.40625 54.6875 
L 18.40625 0 
L 9.421875 0 
z
M 9.421875 75.984375 
L 18.40625 75.984375 
L 18.40625 64.59375 
L 9.421875 64.59375 
z
" id="DejaVuSans-105"/>
     <path d="M 52 44.1875 
Q 55.375 50.25 60.0625 53.125 
Q 64.75 56 71.09375 56 
Q 79.640625 56 84.28125 50.015625 
Q 88.921875 44.046875 88.921875 33.015625 
L 88.921875 0 
L 79.890625 0 
L 79.890625 32.71875 
Q 79.890625 40.578125 77.09375 44.375 
Q 74.3125 48.1875 68.609375 48.1875 
Q 61.625 48.1875 57.5625 43.546875 
Q 53.515625 38.921875 53.515625 30.90625 
L 53.515625 0 
L 44.484375 0 
L 44.484375 32.71875 
Q 44.484375 40.625 41.703125 44.40625 
Q 38.921875 48.1875 33.109375 48.1875 
Q 26.21875 48.1875 22.15625 43.53125 
Q 18.109375 38.875 18.109375 30.90625 
L 18.109375 0 
L 9.078125 0 
L 9.078125 54.6875 
L 18.109375 54.6875 
L 18.109375 46.1875 
Q 21.1875 51.21875 25.484375 53.609375 
Q 29.78125 56 35.6875 56 
Q 41.65625 56 45.828125 52.96875 
Q 50 49.953125 52 44.1875 
z
" id="DejaVuSans-109"/>
     <path d="M 37.109375 75.984375 
L 37.109375 68.5 
L 28.515625 68.5 
Q 23.6875 68.5 21.796875 66.546875 
Q 19.921875 64.59375 19.921875 59.515625 
L 19.921875 54.6875 
L 34.71875 54.6875 
L 34.71875 47.703125 
L 19.921875 47.703125 
L 19.921875 0 
L 10.890625 0 
L 10.890625 47.703125 
L 2.296875 47.703125 
L 2.296875 54.6875 
L 10.890625 54.6875 
L 10.890625 58.5 
Q 10.890625 67.625 15.140625 71.796875 
Q 19.390625 75.984375 28.609375 75.984375 
z
" id="DejaVuSans-102"/>
     <path d="M 30.609375 48.390625 
Q 23.390625 48.390625 19.1875 42.75 
Q 14.984375 37.109375 14.984375 27.296875 
Q 14.984375 17.484375 19.15625 11.84375 
Q 23.34375 6.203125 30.609375 6.203125 
Q 37.796875 6.203125 41.984375 11.859375 
Q 46.1875 17.53125 46.1875 27.296875 
Q 46.1875 37.015625 41.984375 42.703125 
Q 37.796875 48.390625 30.609375 48.390625 
z
M 30.609375 56 
Q 42.328125 56 49.015625 48.375 
Q 55.71875 40.765625 55.71875 27.296875 
Q 55.71875 13.875 49.015625 6.21875 
Q 42.328125 -1.421875 30.609375 -1.421875 
Q 18.84375 -1.421875 12.171875 6.21875 
Q 5.515625 13.875 5.515625 27.296875 
Q 5.515625 40.765625 12.171875 48.375 
Q 18.84375 56 30.609375 56 
z
" id="DejaVuSans-111"/>
     <path d="M 10.59375 45.40625 
L 73.1875 45.40625 
L 73.1875 37.203125 
L 10.59375 37.203125 
z
M 10.59375 25.484375 
L 73.1875 25.484375 
L 73.1875 17.1875 
L 10.59375 17.1875 
z
" id="DejaVuSans-61"/>
     <path d="M 8.203125 72.90625 
L 55.078125 72.90625 
L 55.078125 68.703125 
L 28.609375 0 
L 18.3125 0 
L 43.21875 64.59375 
L 8.203125 64.59375 
z
" id="DejaVuSans-55"/>
     <path d="M 25.390625 72.90625 
L 33.6875 72.90625 
L 8.296875 -9.28125 
L 0 -9.28125 
z
" id="DejaVuSans-47"/>
    </defs>
    <g style="fill:#262626;" transform="translate(129.675938 28.56)scale(0.12 -0.12)">
     <use xlink:href="#DejaVuSans-80"/>
     <use x="60.287109" xlink:href="#DejaVuSans-114"/>
     <use x="101.369141" xlink:href="#DejaVuSans-101"/>
     <use x="162.892578" xlink:href="#DejaVuSans-115"/>
     <use x="214.992188" xlink:href="#DejaVuSans-115"/>
     <use x="267.091797" xlink:href="#DejaVuSans-117"/>
     <use x="330.470703" xlink:href="#DejaVuSans-114"/>
     <use x="371.552734" xlink:href="#DejaVuSans-101"/>
     <use x="433.076172" xlink:href="#DejaVuSans-32"/>
     <use x="464.863281" xlink:href="#DejaVuSans-118"/>
     <use x="524.042969" xlink:href="#DejaVuSans-115"/>
     <use x="576.142578" xlink:href="#DejaVuSans-32"/>
     <use x="607.929688" xlink:href="#DejaVuSans-84"/>
     <use x="668.966797" xlink:href="#DejaVuSans-105"/>
     <use x="696.75" xlink:href="#DejaVuSans-109"/>
     <use x="794.162109" xlink:href="#DejaVuSans-101"/>
     <use x="855.685547" xlink:href="#DejaVuSans-32"/>
     <use x="887.472656" xlink:href="#DejaVuSans-102"/>
     <use x="922.677734" xlink:href="#DejaVuSans-111"/>
     <use x="983.859375" xlink:href="#DejaVuSans-114"/>
     <use x="1024.972656" xlink:href="#DejaVuSans-32"/>
     <use x="1056.759766" xlink:href="#DejaVuSans-117"/>
     <use x="1120.138672" xlink:href="#DejaVuSans-61"/>
     <use x="1203.927734" xlink:href="#DejaVuSans-55"/>
     <use x="1267.550781" xlink:href="#DejaVuSans-91"/>
     <use x="1306.564453" xlink:href="#DejaVuSans-109"/>
     <use x="1403.976562" xlink:href="#DejaVuSans-47"/>
     <use x="1437.667969" xlink:href="#DejaVuSans-115"/>
     <use x="1489.767578" xlink:href="#DejaVuSans-93"/>
    </g>
   </g>
  </g>
  <g id="axes_2">
   <g id="patch_7">
    <path d="M 54 252 
L 388.8 252 
L 388.8 153.163636 
L 54 153.163636 
z
" style="fill:#eaeaf2;"/>
   </g>
   <g id="matplotlib.axis_3">
    <g id="xtick_9">
     <g id="line2d_13">
      <path clip-path="url(#p2a89c4eb0a)" d="M 54 252 
L 54 153.163636 
" style="fill:none;stroke:#ffffff;stroke-linecap:round;"/>
     </g>
     <g id="text_6">
      <!-- 0.000 -->
      <defs>
       <path d="M 10.6875 12.40625 
L 21 12.40625 
L 21 0 
L 10.6875 0 
z
" id="DejaVuSans-46"/>
      </defs>
      <g style="fill:#262626;" transform="translate(38.254531 269.858281)scale(0.11 -0.11)">
       <use xlink:href="#DejaVuSans-48"/>
       <use x="63.623047" xlink:href="#DejaVuSans-46"/>
       <use x="95.410156" xlink:href="#DejaVuSans-48"/>
       <use x="159.033203" xlink:href="#DejaVuSans-48"/>
       <use x="222.65625" xlink:href="#DejaVuSans-48"/>
      </g>
     </g>
    </g>
    <g id="xtick_10">
     <g id="line2d_14">
      <path clip-path="url(#p2a89c4eb0a)" d="M 101.828571 252 
L 101.828571 153.163636 
" style="fill:none;stroke:#ffffff;stroke-linecap:round;"/>
     </g>
     <g id="text_7">
      <!-- 0.005 -->
      <defs>
       <path d="M 10.796875 72.90625 
L 49.515625 72.90625 
L 49.515625 64.59375 
L 19.828125 64.59375 
L 19.828125 46.734375 
Q 21.96875 47.46875 24.109375 47.828125 
Q 26.265625 48.1875 28.421875 48.1875 
Q 40.625 48.1875 47.75 41.5 
Q 54.890625 34.8125 54.890625 23.390625 
Q 54.890625 11.625 47.5625 5.09375 
Q 40.234375 -1.421875 26.90625 -1.421875 
Q 22.3125 -1.421875 17.546875 -0.640625 
Q 12.796875 0.140625 7.71875 1.703125 
L 7.71875 11.625 
Q 12.109375 9.234375 16.796875 8.0625 
Q 21.484375 6.890625 26.703125 6.890625 
Q 35.15625 6.890625 40.078125 11.328125 
Q 45.015625 15.765625 45.015625 23.390625 
Q 45.015625 31 40.078125 35.4375 
Q 35.15625 39.890625 26.703125 39.890625 
Q 22.75 39.890625 18.8125 39.015625 
Q 14.890625 38.140625 10.796875 36.28125 
z
" id="DejaVuSans-53"/>
      </defs>
      <g style="fill:#262626;" transform="translate(86.083103 269.858281)scale(0.11 -0.11)">
       <use xlink:href="#DejaVuSans-48"/>
       <use x="63.623047" xlink:href="#DejaVuSans-46"/>
       <use x="95.410156" xlink:href="#DejaVuSans-48"/>
       <use x="159.033203" xlink:href="#DejaVuSans-48"/>
       <use x="222.65625" xlink:href="#DejaVuSans-53"/>
      </g>
     </g>
    </g>
    <g id="xtick_11">
     <g id="line2d_15">
      <path clip-path="url(#p2a89c4eb0a)" d="M 149.657143 252 
L 149.657143 153.163636 
" style="fill:none;stroke:#ffffff;stroke-linecap:round;"/>
     </g>
     <g id="text_8">
      <!-- 0.010 -->
      <defs>
       <path d="M 12.40625 8.296875 
L 28.515625 8.296875 
L 28.515625 63.921875 
L 10.984375 60.40625 
L 10.984375 69.390625 
L 28.421875 72.90625 
L 38.28125 72.90625 
L 38.28125 8.296875 
L 54.390625 8.296875 
L 54.390625 0 
L 12.40625 0 
z
" id="DejaVuSans-49"/>
      </defs>
      <g style="fill:#262626;" transform="translate(133.911674 269.858281)scale(0.11 -0.11)">
       <use xlink:href="#DejaVuSans-48"/>
       <use x="63.623047" xlink:href="#DejaVuSans-46"/>
       <use x="95.410156" xlink:href="#DejaVuSans-48"/>
       <use x="159.033203" xlink:href="#DejaVuSans-49"/>
       <use x="222.65625" xlink:href="#DejaVuSans-48"/>
      </g>
     </g>
    </g>
    <g id="xtick_12">
     <g id="line2d_16">
      <path clip-path="url(#p2a89c4eb0a)" d="M 197.485714 252 
L 197.485714 153.163636 
" style="fill:none;stroke:#ffffff;stroke-linecap:round;"/>
     </g>
     <g id="text_9">
      <!-- 0.015 -->
      <g style="fill:#262626;" transform="translate(181.740246 269.858281)scale(0.11 -0.11)">
       <use xlink:href="#DejaVuSans-48"/>
       <use x="63.623047" xlink:href="#DejaVuSans-46"/>
       <use x="95.410156" xlink:href="#DejaVuSans-48"/>
       <use x="159.033203" xlink:href="#DejaVuSans-49"/>
       <use x="222.65625" xlink:href="#DejaVuSans-53"/>
      </g>
     </g>
    </g>
    <g id="xtick_13">
     <g id="line2d_17">
      <path clip-path="url(#p2a89c4eb0a)" d="M 245.314286 252 
L 245.314286 153.163636 
" style="fill:none;stroke:#ffffff;stroke-linecap:round;"/>
     </g>
     <g id="text_10">
      <!-- 0.020 -->
      <g style="fill:#262626;" transform="translate(229.568817 269.858281)scale(0.11 -0.11)">
       <use xlink:href="#DejaVuSans-48"/>
       <use x="63.623047" xlink:href="#DejaVuSans-46"/>
       <use x="95.410156" xlink:href="#DejaVuSans-48"/>
       <use x="159.033203" xlink:href="#DejaVuSans-50"/>
       <use x="222.65625" xlink:href="#DejaVuSans-48"/>
      </g>
     </g>
    </g>
    <g id="xtick_14">
     <g id="line2d_18">
      <path clip-path="url(#p2a89c4eb0a)" d="M 293.142857 252 
L 293.142857 153.163636 
" style="fill:none;stroke:#ffffff;stroke-linecap:round;"/>
     </g>
     <g id="text_11">
      <!-- 0.025 -->
      <g style="fill:#262626;" transform="translate(277.397388 269.858281)scale(0.11 -0.11)">
       <use xlink:href="#DejaVuSans-48"/>
       <use x="63.623047" xlink:href="#DejaVuSans-46"/>
       <use x="95.410156" xlink:href="#DejaVuSans-48"/>
       <use x="159.033203" xlink:href="#DejaVuSans-50"/>
       <use x="222.65625" xlink:href="#DejaVuSans-53"/>
      </g>
     </g>
    </g>
    <g id="xtick_15">
     <g id="line2d_19">
      <path clip-path="url(#p2a89c4eb0a)" d="M 340.971429 252 
L 340.971429 153.163636 
" style="fill:none;stroke:#ffffff;stroke-linecap:round;"/>
     </g>
     <g id="text_12">
      <!-- 0.030 -->
      <defs>
       <path d="M 40.578125 39.3125 
Q 47.65625 37.796875 51.625 33 
Q 55.609375 28.21875 55.609375 21.1875 
Q 55.609375 10.40625 48.1875 4.484375 
Q 40.765625 -1.421875 27.09375 -1.421875 
Q 22.515625 -1.421875 17.65625 -0.515625 
Q 12.796875 0.390625 7.625 2.203125 
L 7.625 11.71875 
Q 11.71875 9.328125 16.59375 8.109375 
Q 21.484375 6.890625 26.8125 6.890625 
Q 36.078125 6.890625 40.9375 10.546875 
Q 45.796875 14.203125 45.796875 21.1875 
Q 45.796875 27.640625 41.28125 31.265625 
Q 36.765625 34.90625 28.71875 34.90625 
L 20.21875 34.90625 
L 20.21875 43.015625 
L 29.109375 43.015625 
Q 36.375 43.015625 40.234375 45.921875 
Q 44.09375 48.828125 44.09375 54.296875 
Q 44.09375 59.90625 40.109375 62.90625 
Q 36.140625 65.921875 28.71875 65.921875 
Q 24.65625 65.921875 20.015625 65.03125 
Q 15.375 64.15625 9.8125 62.3125 
L 9.8125 71.09375 
Q 15.4375 72.65625 20.34375 73.4375 
Q 25.25 74.21875 29.59375 74.21875 
Q 40.828125 74.21875 47.359375 69.109375 
Q 53.90625 64.015625 53.90625 55.328125 
Q 53.90625 49.265625 50.4375 45.09375 
Q 46.96875 40.921875 40.578125 39.3125 
z
" id="DejaVuSans-51"/>
      </defs>
      <g style="fill:#262626;" transform="translate(325.22596 269.858281)scale(0.11 -0.11)">
       <use xlink:href="#DejaVuSans-48"/>
       <use x="63.623047" xlink:href="#DejaVuSans-46"/>
       <use x="95.410156" xlink:href="#DejaVuSans-48"/>
       <use x="159.033203" xlink:href="#DejaVuSans-51"/>
       <use x="222.65625" xlink:href="#DejaVuSans-48"/>
      </g>
     </g>
    </g>
    <g id="xtick_16">
     <g id="line2d_20">
      <path clip-path="url(#p2a89c4eb0a)" d="M 388.8 252 
L 388.8 153.163636 
" style="fill:none;stroke:#ffffff;stroke-linecap:round;"/>
     </g>
     <g id="text_13">
      <!-- 0.035 -->
      <g style="fill:#262626;" transform="translate(373.054531 269.858281)scale(0.11 -0.11)">
       <use xlink:href="#DejaVuSans-48"/>
       <use x="63.623047" xlink:href="#DejaVuSans-46"/>
       <use x="95.410156" xlink:href="#DejaVuSans-48"/>
       <use x="159.033203" xlink:href="#DejaVuSans-51"/>
       <use x="222.65625" xlink:href="#DejaVuSans-53"/>
      </g>
     </g>
    </g>
    <g id="text_14">
     <!-- Time [s] -->
     <g style="fill:#262626;" transform="translate(196.820625 285.264062)scale(0.12 -0.12)">
      <use xlink:href="#DejaVuSans-84"/>
      <use x="61.037109" xlink:href="#DejaVuSans-105"/>
      <use x="88.820312" xlink:href="#DejaVuSans-109"/>
      <use x="186.232422" xlink:href="#DejaVuSans-101"/>
      <use x="247.755859" xlink:href="#DejaVuSans-32"/>
      <use x="279.542969" xlink:href="#DejaVuSans-91"/>
      <use x="318.556641" xlink:href="#DejaVuSans-115"/>
      <use x="370.65625" xlink:href="#DejaVuSans-93"/>
     </g>
    </g>
   </g>
   <g id="matplotlib.axis_4">
    <g id="ytick_4">
     <g id="line2d_21">
      <path clip-path="url(#p2a89c4eb0a)" d="M 54 230.036364 
L 388.8 230.036364 
" style="fill:none;stroke:#ffffff;stroke-linecap:round;"/>
     </g>
     <g id="text_15">
      <!-- −0.50 -->
      <defs>
       <path d="M 10.59375 35.5 
L 73.1875 35.5 
L 73.1875 27.203125 
L 10.59375 27.203125 
z
" id="DejaVuSans-8722"/>
      </defs>
      <g style="fill:#262626;" transform="translate(10.790156 234.215504)scale(0.11 -0.11)">
       <use xlink:href="#DejaVuSans-8722"/>
       <use x="83.789062" xlink:href="#DejaVuSans-48"/>
       <use x="147.412109" xlink:href="#DejaVuSans-46"/>
       <use x="179.199219" xlink:href="#DejaVuSans-53"/>
       <use x="242.822266" xlink:href="#DejaVuSans-48"/>
      </g>
     </g>
    </g>
    <g id="ytick_5">
     <g id="line2d_22">
      <path clip-path="url(#p2a89c4eb0a)" d="M 54 202.581818 
L 388.8 202.581818 
" style="fill:none;stroke:#ffffff;stroke-linecap:round;"/>
     </g>
     <g id="text_16">
      <!-- −0.25 -->
      <g style="fill:#262626;" transform="translate(10.790156 206.760959)scale(0.11 -0.11)">
       <use xlink:href="#DejaVuSans-8722"/>
       <use x="83.789062" xlink:href="#DejaVuSans-48"/>
       <use x="147.412109" xlink:href="#DejaVuSans-46"/>
       <use x="179.199219" xlink:href="#DejaVuSans-50"/>
       <use x="242.822266" xlink:href="#DejaVuSans-53"/>
      </g>
     </g>
    </g>
    <g id="ytick_6">
     <g id="line2d_23">
      <path clip-path="url(#p2a89c4eb0a)" d="M 54 175.127273 
L 388.8 175.127273 
" style="fill:none;stroke:#ffffff;stroke-linecap:round;"/>
     </g>
     <g id="text_17">
      <!-- 0.00 -->
      <g style="fill:#262626;" transform="translate(20.007812 179.306413)scale(0.11 -0.11)">
       <use xlink:href="#DejaVuSans-48"/>
       <use x="63.623047" xlink:href="#DejaVuSans-46"/>
       <use x="95.410156" xlink:href="#DejaVuSans-48"/>
       <use x="159.033203" xlink:href="#DejaVuSans-48"/>
      </g>
     </g>
    </g>
    <g id="text_18">
     <!-- Torque [Nm] -->
     <defs>
      <path d="M 14.796875 27.296875 
Q 14.796875 17.390625 18.875 11.75 
Q 22.953125 6.109375 30.078125 6.109375 
Q 37.203125 6.109375 41.296875 11.75 
Q 45.40625 17.390625 45.40625 27.296875 
Q 45.40625 37.203125 41.296875 42.84375 
Q 37.203125 48.484375 30.078125 48.484375 
Q 22.953125 48.484375 18.875 42.84375 
Q 14.796875 37.203125 14.796875 27.296875 
z
M 45.40625 8.203125 
Q 42.578125 3.328125 38.25 0.953125 
Q 33.9375 -1.421875 27.875 -1.421875 
Q 17.96875 -1.421875 11.734375 6.484375 
Q 5.515625 14.40625 5.515625 27.296875 
Q 5.515625 40.1875 11.734375 48.09375 
Q 17.96875 56 27.875 56 
Q 33.9375 56 38.25 53.625 
Q 42.578125 51.265625 45.40625 46.390625 
L 45.40625 54.6875 
L 54.390625 54.6875 
L 54.390625 -20.796875 
L 45.40625 -20.796875 
z
" id="DejaVuSans-113"/>
      <path d="M 9.8125 72.90625 
L 23.09375 72.90625 
L 55.421875 11.921875 
L 55.421875 72.90625 
L 64.984375 72.90625 
L 64.984375 0 
L 51.703125 0 
L 19.390625 60.984375 
L 19.390625 0 
L 9.8125 0 
z
" id="DejaVuSans-78"/>
     </defs>
     <g style="fill:#262626;" transform="translate(4.294531 240.592756)rotate(-90)scale(0.12 -0.12)">
      <use xlink:href="#DejaVuSans-84"/>
      <use x="60.818359" xlink:href="#DejaVuSans-111"/>
      <use x="122" xlink:href="#DejaVuSans-114"/>
      <use x="163.097656" xlink:href="#DejaVuSans-113"/>
      <use x="226.574219" xlink:href="#DejaVuSans-117"/>
      <use x="289.953125" xlink:href="#DejaVuSans-101"/>
      <use x="351.476562" xlink:href="#DejaVuSans-32"/>
      <use x="383.263672" xlink:href="#DejaVuSans-91"/>
      <use x="422.277344" xlink:href="#DejaVuSans-78"/>
      <use x="497.082031" xlink:href="#DejaVuSans-109"/>
      <use x="594.494141" xlink:href="#DejaVuSans-93"/>
     </g>
    </g>
   </g>
   <g id="line2d_24">
    <path clip-path="url(#p2a89c4eb0a)" d="M 54.178016 -1 
L 54.286971 184.098044 
L 54.765257 202.932171 
L 55.434857 223.703588 
L 55.530514 221.302084 
L 55.626171 221.968659 
L 55.817486 227.900049 
L 55.913143 225.654442 
L 56.0088 226.467778 
L 56.200114 230.145786 
L 56.295771 225.988872 
L 56.487086 230.333257 
L 56.582743 229.758644 
L 56.6784 226.858302 
L 56.869714 229.230847 
L 56.965371 228.882844 
L 57.061029 226.800878 
L 57.156686 227.240744 
L 57.252343 228.514185 
L 57.443657 224.691941 
L 57.634971 226.789589 
L 57.826286 222.703881 
L 58.0176 223.566755 
L 58.208914 219.62661 
L 58.400229 220.351663 
L 58.591543 216.57518 
L 58.6872 217.442261 
L 58.782857 216.728596 
L 58.878514 213.797307 
L 58.974171 213.906796 
L 59.069829 214.13558 
L 59.165486 213.575431 
L 59.3568 210.96994 
L 59.452457 211.60448 
L 59.548114 210.928835 
L 59.643771 208.246416 
L 59.835086 209.40816 
L 60.0264 206.449406 
L 60.122057 207.164311 
L 60.217714 206.980344 
L 60.409029 204.61698 
L 60.600343 205.422331 
L 60.791657 202.651432 
L 60.887314 204.099945 
L 60.982971 203.71479 
L 61.174286 201.695113 
L 61.269943 202.786333 
L 61.556914 200.23463 
L 61.652571 201.483636 
L 61.748229 201.044649 
L 61.939543 199.191786 
L 62.0352 200.721246 
L 62.322171 198.587182 
L 62.417829 199.608107 
L 62.609143 198.289564 
L 62.7048 197.510909 
L 62.800457 199.175522 
L 62.991771 197.307536 
L 63.087429 197.233936 
L 63.183086 198.153268 
L 63.278743 196.236106 
L 63.3744 196.703877 
L 63.470057 196.504008 
L 63.565714 197.297521 
L 63.757029 195.747196 
L 63.852686 195.832942 
L 63.948343 196.733879 
L 64.044 194.956659 
L 64.139657 195.212162 
L 64.235314 195.725023 
L 64.330971 195.672695 
L 64.426629 194.474546 
L 64.522286 194.989868 
L 64.617943 194.727984 
L 64.7136 195.031236 
L 64.809257 193.90213 
L 64.904914 193.980562 
L 65.096229 194.622745 
L 65.191886 193.097689 
L 65.3832 194.024127 
L 65.574514 192.806638 
L 65.670171 193.139695 
L 65.765829 193.407926 
L 65.957143 192.450542 
L 66.0528 192.718355 
L 66.148457 193.108023 
L 66.339771 191.943753 
L 66.531086 192.51842 
L 66.626743 191.678553 
L 66.7224 191.725929 
L 66.818057 191.81688 
L 66.913714 192.09763 
L 67.105029 191.204083 
L 67.296343 191.748463 
L 67.392 190.699008 
L 67.583314 191.343344 
L 67.678971 191.192377 
L 67.774629 190.394163 
L 67.965943 190.959244 
L 68.0616 190.871521 
L 68.157257 190.042767 
L 68.348571 190.755059 
L 68.539886 189.875602 
L 68.7312 190.53763 
L 68.922514 189.850684 
L 69.018171 190.012963 
L 69.113829 190.428811 
L 69.305143 189.659106 
L 69.4008 189.72413 
L 69.496457 190.327152 
L 69.592114 189.380695 
L 69.687771 189.444697 
L 69.879086 190.050751 
L 69.974743 189.10089 
L 70.166057 189.606196 
L 70.261714 189.750574 
L 70.357371 189.089238 
L 70.644343 189.761336 
L 70.74 188.825927 
L 70.931314 189.531695 
L 71.026971 189.473415 
L 71.122629 188.651129 
L 71.313943 189.32326 
L 71.4096 189.148715 
L 71.505257 188.706631 
L 71.696571 189.317374 
L 71.887886 188.553446 
L 72.0792 189.21811 
L 72.270514 188.584283 
L 72.461829 188.950461 
L 72.653143 188.457168 
L 72.844457 189.005908 
L 73.035771 188.338927 
L 73.131429 188.943959 
L 73.227086 188.800526 
L 73.322743 188.16816 
L 73.514057 188.675245 
L 73.609714 188.556466 
L 73.705371 188.122322 
L 73.801029 188.182744 
L 73.896686 188.628573 
L 73.992343 188.496846 
L 74.088 187.898622 
L 74.183657 188.097042 
L 74.279314 188.634217 
L 74.470629 187.909154 
L 74.661943 188.409694 
L 74.853257 187.93148 
L 74.948914 187.913382 
L 75.044571 188.46043 
L 75.235886 187.79267 
L 75.4272 188.460199 
L 75.522857 187.650389 
L 75.809829 188.318402 
L 75.905486 187.824418 
L 76.192457 188.594814 
L 76.288114 187.842791 
L 76.575086 188.671402 
L 76.670743 187.936707 
L 76.862057 188.638138 
L 76.957714 188.785733 
L 77.053371 188.355839 
L 77.340343 189.119262 
L 77.436 188.523938 
L 77.627314 189.431684 
L 77.818629 188.88289 
L 78.009943 189.612423 
L 78.1056 189.328663 
L 78.201257 189.386494 
L 78.296914 189.575699 
L 78.392571 190.025493 
L 78.583886 189.504658 
L 78.7752 190.248973 
L 78.870857 189.605065 
L 79.157829 190.200785 
L 79.253486 189.816816 
L 79.4448 190.089407 
L 79.540457 190.578109 
L 79.636114 189.509183 
L 79.827429 190.35554 
L 79.923086 190.137507 
L 80.018743 189.364113 
L 80.1144 189.895633 
L 80.210057 189.864357 
L 80.305714 189.722175 
L 80.401371 189.157435 
L 80.592686 189.595368 
L 80.784 188.773049 
L 80.975314 189.44148 
L 81.166629 188.566273 
L 81.357943 188.966132 
L 81.549257 188.310122 
L 81.740571 188.796463 
L 81.931886 187.964326 
L 82.027543 188.467118 
L 82.1232 188.421477 
L 82.218857 187.604024 
L 82.505829 188.224903 
L 82.601486 187.495326 
L 82.697143 187.535585 
L 82.888457 187.993834 
L 82.984114 187.257921 
L 83.079771 187.421462 
L 83.175429 187.854135 
L 83.366743 187.10691 
L 83.558057 187.521583 
L 83.749371 186.957502 
L 83.845029 187.117024 
L 83.940686 187.3937 
L 84.132 186.673864 
L 84.323314 187.19897 
L 84.514629 186.599122 
L 84.610286 186.976105 
L 84.705943 186.923997 
L 84.897257 186.435855 
L 85.088571 186.924458 
L 85.279886 186.271754 
L 85.375543 186.837262 
L 85.4712 186.660697 
L 85.566857 186.170633 
L 85.662514 186.270644 
L 85.758171 186.64127 
L 86.045143 186.172665 
L 86.1408 186.572051 
L 86.427771 186.122181 
L 86.523429 186.548188 
L 86.714743 186.05656 
L 86.8104 186.12496 
L 86.906057 186.44352 
L 87.097371 186.069409 
L 87.193029 186.007687 
L 87.288686 186.382516 
L 87.384343 185.930049 
L 87.48 185.961792 
L 87.671314 186.312331 
L 87.766971 185.765862 
L 88.053943 186.216987 
L 88.1496 185.737141 
L 88.436571 186.214231 
L 88.532229 185.690266 
L 88.627886 185.794725 
L 88.723543 186.077621 
L 88.8192 186.034981 
L 88.914857 185.675308 
L 89.106171 186.002505 
L 89.201829 185.872423 
L 89.297486 185.672275 
L 89.393143 185.743923 
L 89.4888 185.998771 
L 89.680114 185.63345 
L 89.871429 185.951633 
L 90.062743 185.620395 
L 90.254057 185.902822 
L 90.349714 185.597523 
L 90.445371 185.648954 
L 90.636686 185.957434 
L 90.732343 185.537894 
L 90.828 185.581883 
L 91.019314 185.93158 
L 91.114971 185.465096 
L 91.401943 185.873544 
L 91.4976 185.604717 
L 91.593257 185.639782 
L 91.688914 185.949257 
L 91.975886 185.6765 
L 92.071543 186.08398 
L 92.262857 185.70254 
L 92.358514 185.739149 
L 92.454171 186.094509 
L 92.549829 185.727765 
L 92.741143 185.793549 
L 92.8368 186.251426 
L 92.932457 185.739467 
L 93.219429 186.299834 
L 93.315086 185.810977 
L 93.602057 186.346551 
L 93.697714 185.936815 
L 93.984686 186.557555 
L 94.080343 185.968001 
L 94.367314 186.54116 
L 94.462971 186.110332 
L 94.654286 186.630442 
L 94.749943 186.625818 
L 94.8456 186.365978 
L 95.036914 186.787416 
L 95.132571 186.687701 
L 95.228229 186.467153 
L 95.419543 186.949497 
L 95.610857 186.687965 
L 95.802171 187.014926 
L 95.993486 186.819647 
L 96.1848 187.188812 
L 96.376114 186.902319 
L 96.567429 187.263983 
L 96.663086 186.968484 
L 96.950057 187.366388 
L 97.141371 187.156669 
L 97.237029 187.521265 
L 97.332686 187.479863 
L 97.428343 187.226787 
L 97.524 187.283498 
L 97.619657 187.795701 
L 97.810971 187.449356 
L 97.906629 187.534026 
L 98.002286 187.887443 
L 98.097943 187.563325 
L 98.1936 187.685531 
L 98.289257 187.626328 
L 98.384914 188.065963 
L 98.480571 187.708384 
L 98.671886 187.838815 
L 98.767543 188.2912 
L 98.8632 187.720354 
L 99.150171 188.365338 
L 99.245829 187.882622 
L 99.5328 188.598263 
L 99.628457 188.001126 
L 99.915429 188.720743 
L 100.011086 188.100611 
L 100.2024 188.746034 
L 100.298057 188.803974 
L 100.393714 188.453489 
L 100.585029 188.959784 
L 100.680686 189.001943 
L 100.776343 188.629978 
L 100.967657 189.31207 
L 101.158971 188.748593 
L 101.350286 189.394115 
L 101.445943 188.930781 
L 101.732914 189.410138 
L 101.924229 188.955161 
L 102.115543 189.337976 
L 102.2112 188.770633 
L 102.498171 189.119701 
L 102.593829 188.639521 
L 102.689486 188.702568 
L 102.8808 189.002745 
L 102.976457 188.358969 
L 103.072114 188.477715 
L 103.167771 188.983933 
L 103.359086 188.20485 
L 103.5504 188.729627 
L 103.741714 188.26022 
L 103.837371 188.254378 
L 103.933029 188.600712 
L 104.124343 188.057837 
L 104.22 188.220422 
L 104.315657 188.606181 
L 104.411314 187.944328 
L 104.506971 187.982853 
L 104.698286 188.373048 
L 104.793943 187.890803 
L 104.985257 188.149238 
L 105.080914 188.361627 
L 105.176571 187.803948 
L 105.272229 187.883577 
L 105.463543 188.265228 
L 105.5592 187.616884 
L 105.750514 188.208222 
L 105.846171 188.137411 
L 105.941829 187.799961 
L 106.2288 188.200963 
L 106.324457 187.675362 
L 106.515771 188.419501 
L 106.707086 187.707407 
L 106.8984 188.277198 
L 106.994057 187.909307 
L 107.089714 187.940133 
L 107.185371 188.038003 
L 107.281029 188.352083 
L 107.472343 187.862503 
L 107.663657 188.393935 
L 107.759314 187.87097 
L 108.046286 188.322707 
L 108.2376 188.0789 
L 108.428914 188.521083 
L 108.524571 188.017786 
L 108.620229 188.134819 
L 108.715886 188.718404 
L 108.9072 188.103993 
L 109.098514 188.661002 
L 109.194171 188.305081 
L 109.289829 188.406235 
L 109.385486 188.218314 
L 109.481143 188.825652 
L 109.672457 188.340135 
L 109.768114 188.351479 
L 109.863771 189.001427 
L 109.959429 188.194351 
L 110.2464 188.903689 
L 110.342057 188.3356 
L 110.437714 188.627672 
L 110.533371 188.53481 
L 110.629029 189.011498 
L 110.724686 188.342068 
L 111.011657 188.955908 
L 111.107314 188.300568 
L 111.298629 188.839709 
L 111.394286 188.973204 
L 111.489943 188.47553 
L 111.776914 189.025038 
L 111.872571 188.453808 
L 112.063886 189.113321 
L 112.2552 188.594298 
L 112.446514 189.084955 
L 112.637829 188.771402 
L 112.829143 189.217308 
L 113.020457 188.784064 
L 113.211771 189.322602 
L 113.307429 188.80739 
L 113.5944 189.212476 
L 113.690057 188.908488 
L 113.785714 188.952921 
L 113.977029 189.321108 
L 114.072686 188.826454 
L 114.168343 188.951317 
L 114.264 189.386483 
L 114.359657 189.216847 
L 114.455314 188.797802 
L 114.646629 189.312147 
L 114.9336 188.992203 
L 115.029257 189.411181 
L 115.220571 188.862562 
L 115.411886 189.495115 
L 115.507543 188.92215 
L 115.6032 188.991478 
L 115.794514 189.388712 
L 115.890171 188.941368 
L 116.081486 189.057665 
L 116.177143 189.496477 
L 116.2728 188.903173 
L 116.559771 189.358907 
L 116.655429 188.802755 
L 116.846743 189.196552 
L 116.9424 189.313794 
L 117.038057 188.926982 
L 117.229371 189.28702 
L 117.325029 189.423261 
L 117.420686 188.778068 
L 117.612 189.451001 
L 117.803314 188.904743 
L 117.994629 189.332902 
L 118.185943 188.984724 
L 118.2816 189.114727 
L 118.377257 189.506239 
L 118.568571 188.935591 
L 118.759886 189.504559 
L 118.855543 188.973479 
L 119.142514 189.428785 
L 119.333829 189.153405 
L 119.525143 189.576622 
L 119.6208 189.033406 
L 119.716457 189.172337 
L 119.812114 189.531465 
L 119.907771 189.433507 
L 120.003429 189.078014 
L 120.2904 189.469121 
L 120.481714 189.217945 
L 120.577371 189.721977 
L 120.768686 189.171777 
L 120.96 189.840943 
L 121.055657 189.323206 
L 121.151314 189.409072 
L 121.246971 189.474315 
L 121.342629 189.853638 
L 121.438286 189.428049 
L 121.533943 189.487098 
L 121.6296 189.507239 
L 121.725257 190.06215 
L 121.820914 189.405196 
L 122.107886 190.052398 
L 122.203543 189.425424 
L 122.2992 189.8229 
L 122.394857 189.799048 
L 122.490514 190.06953 
L 122.586171 189.587296 
L 122.873143 190.255496 
L 122.9688 189.535242 
L 123.160114 190.19123 
L 123.255771 190.167565 
L 123.351429 189.680916 
L 123.542743 190.209768 
L 123.6384 190.09548 
L 123.734057 189.778281 
L 123.925371 190.213765 
L 124.021029 190.033707 
L 124.116686 189.588559 
L 124.308 190.141472 
L 124.499314 189.601836 
L 124.594971 189.943481 
L 124.690629 189.899279 
L 124.881943 189.432057 
L 125.073257 189.740526 
L 125.264571 189.245015 
L 125.360229 189.626205 
L 125.6472 189.141149 
L 125.742857 189.396872 
L 125.838514 189.267714 
L 126.029829 188.845321 
L 126.125486 189.217868 
L 126.221143 189.050121 
L 126.3168 188.614483 
L 126.412457 188.716669 
L 126.508114 189.097617 
L 126.699429 188.47587 
L 126.890743 188.840763 
L 127.082057 188.333722 
L 127.177714 188.45137 
L 127.273371 188.766954 
L 127.464686 188.189256 
L 127.656 188.602809 
L 127.751657 188.101061 
L 127.847314 188.18673 
L 128.038629 188.460858 
L 128.229943 188.069104 
L 128.421257 188.411023 
L 128.516914 187.89345 
L 128.612571 188.001061 
L 128.708229 188.31793 
L 128.803886 188.239091 
L 128.899543 187.76829 
L 129.090857 188.167457 
L 129.186514 188.163273 
L 129.282171 187.823506 
L 129.473486 188.244077 
L 129.569143 188.086642 
L 129.6648 187.709998 
L 129.856114 188.261934 
L 130.047429 187.85419 
L 130.238743 188.179537 
L 130.430057 187.824978 
L 130.621371 188.226759 
L 130.812686 187.846019 
L 131.004 188.17487 
L 131.099657 187.777591 
L 131.386629 188.119379 
L 131.577943 187.908681 
L 131.769257 188.227517 
L 131.864914 187.820486 
L 131.960571 187.973002 
L 132.056229 188.344726 
L 132.247543 187.960285 
L 132.438857 188.338532 
L 132.630171 188.088443 
L 132.725829 188.036982 
L 132.821486 188.538478 
L 132.917143 188.059824 
L 133.0128 188.091671 
L 133.108457 188.150227 
L 133.204114 188.582713 
L 133.299771 187.982776 
L 133.395429 188.297339 
L 133.491086 188.206091 
L 133.586743 188.542585 
L 133.6824 188.064426 
L 133.778057 188.345011 
L 133.873714 188.22834 
L 133.969371 188.652897 
L 134.065029 188.07051 
L 134.352 188.58593 
L 134.447657 188.039771 
L 134.543314 188.472488 
L 134.638971 188.440245 
L 134.734629 188.618722 
L 134.830286 188.15027 
L 135.0216 188.564823 
L 135.117257 188.636194 
L 135.212914 188.20161 
L 135.404229 188.690181 
L 135.595543 188.314207 
L 135.786857 188.648966 
L 135.978171 188.394023 
L 136.169486 188.758762 
L 136.3608 188.404884 
L 136.552114 188.747187 
L 136.647771 188.443858 
L 136.934743 188.695122 
L 137.126057 188.537061 
L 137.317371 188.777168 
L 137.413029 188.481987 
L 137.508686 188.572346 
L 137.604343 188.922523 
L 137.795657 188.549405 
L 137.986971 188.911651 
L 138.178286 188.628111 
L 138.273943 188.607356 
L 138.3696 188.98703 
L 138.560914 188.612276 
L 138.656571 188.734723 
L 138.752229 189.040665 
L 138.847886 188.581801 
L 139.134857 188.989556 
L 139.230514 188.630659 
L 139.517486 189.025532 
L 139.613143 188.628067 
L 139.900114 188.989084 
L 139.995771 188.608805 
L 140.187086 188.89386 
L 140.282743 188.985998 
L 140.3784 188.680571 
L 140.665371 188.997529 
L 140.761029 188.655862 
L 140.952343 189.073951 
L 141.143657 188.731253 
L 141.334971 189.071974 
L 141.526286 188.807357 
L 141.7176 189.165199 
L 141.908914 188.826289 
L 142.100229 189.188733 
L 142.195886 188.863759 
L 142.482857 189.149605 
L 142.578514 188.935119 
L 142.674171 188.991478 
L 142.865486 189.201714 
L 142.961143 188.920601 
L 143.248114 189.233177 
L 143.343771 189.003349 
L 143.535086 189.375347 
L 143.7264 189.137997 
L 143.822057 189.17718 
L 143.917714 189.524502 
L 144.109029 189.206008 
L 144.204686 189.287635 
L 144.300343 189.697905 
L 144.396 189.243664 
L 144.682971 189.784892 
L 144.778629 189.31319 
L 145.0656 189.853627 
L 145.161257 189.369812 
L 145.448229 189.905956 
L 145.543886 189.407249 
L 145.7352 189.69919 
L 145.830857 189.927689 
L 145.926514 189.440645 
L 146.213486 190.004847 
L 146.309143 189.316902 
L 146.500457 189.786375 
L 146.596114 189.793886 
L 146.691771 189.326489 
L 146.787429 189.748608 
L 146.978743 189.677215 
L 147.0744 189.253262 
L 147.265714 189.629796 
L 147.457029 189.162553 
L 147.648343 189.531289 
L 147.839657 189.133593 
L 147.935314 189.415958 
L 148.222286 189.028739 
L 148.4136 189.263355 
L 148.604914 188.912826 
L 148.700571 189.207984 
L 148.987543 188.846199 
L 149.0832 189.067823 
L 149.370171 188.679967 
L 149.465829 188.976301 
L 149.561486 188.86612 
L 149.657143 188.581988 
L 149.7528 188.661386 
L 149.848457 188.967801 
L 150.039771 188.599888 
L 150.135429 188.626157 
L 150.231086 188.845903 
L 150.4224 188.559222 
L 150.518057 188.566009 
L 150.613714 188.845573 
L 150.805029 188.484304 
L 150.996343 188.82238 
L 151.092 188.408222 
L 151.378971 188.726838 
L 151.570286 188.494331 
L 151.7616 188.78279 
L 151.857257 188.353412 
L 152.144229 188.724433 
L 152.239886 188.414262 
L 152.4312 188.668964 
L 152.526857 188.672137 
L 152.622514 188.495726 
L 152.909486 188.741444 
L 153.005143 188.482251 
L 153.196457 188.871743 
L 153.387771 188.621325 
L 153.579086 188.862947 
L 153.7704 188.710618 
L 153.961714 188.937348 
L 154.153029 188.685228 
L 154.344343 188.94083 
L 154.44 188.77787 
L 154.726971 188.965407 
L 154.918286 188.784987 
L 155.013943 189.100033 
L 155.1096 189.044674 
L 155.300914 188.888962 
L 155.396571 189.256546 
L 155.587886 188.995739 
L 155.683543 189.016286 
L 155.7792 189.245421 
L 155.874857 189.00985 
L 155.970514 189.082122 
L 156.066171 189.01287 
L 156.161829 189.391304 
L 156.257486 189.064661 
L 156.353143 189.098946 
L 156.4488 189.132847 
L 156.544457 189.470889 
L 156.640114 188.990885 
L 156.735771 189.320416 
L 156.831429 189.183012 
L 156.927086 189.463663 
L 157.022743 189.149539 
L 157.1184 189.34372 
L 157.214057 189.265891 
L 157.309714 189.596378 
L 157.405371 189.168625 
L 157.692343 189.604362 
L 157.788 189.191248 
L 157.883657 189.557733 
L 157.979314 189.453153 
L 158.074971 189.654834 
L 158.170629 189.374831 
L 158.4576 189.743864 
L 158.553257 189.345103 
L 158.744571 189.758821 
L 158.935886 189.535561 
L 159.031543 189.808174 
L 159.318514 189.715169 
L 159.414171 189.767815 
L 159.509829 189.953782 
L 159.701143 189.695467 
L 159.892457 189.97748 
L 159.988114 189.787275 
L 160.275086 190.02747 
L 160.4664 189.877392 
L 160.657714 190.218279 
L 160.849029 189.933663 
L 160.944686 190.322254 
L 161.136 190.063644 
L 161.422971 190.152585 
L 161.614286 190.071386 
L 161.709943 190.390715 
L 161.901257 190.117004 
L 162.092571 190.4524 
L 162.188229 190.10398 
L 162.379543 190.305826 
L 162.4752 190.389584 
L 162.762171 190.261283 
L 162.857829 190.616315 
L 162.953486 190.251246 
L 163.240457 190.474946 
L 163.336114 190.283291 
L 163.431771 190.50654 
L 163.527429 190.426823 
L 163.623086 190.561713 
L 163.8144 190.39502 
L 164.005714 190.683084 
L 164.101371 190.284763 
L 164.292686 190.66581 
L 164.484 190.478504 
L 164.579657 190.662241 
L 164.675314 190.578713 
L 164.770971 190.699118 
L 164.866629 190.515491 
L 165.1536 190.679801 
L 165.249257 190.480634 
L 165.440571 190.793989 
L 165.536229 190.574737 
L 165.727543 190.763153 
L 165.918857 190.817666 
L 166.014514 190.683128 
L 166.205829 191.04387 
L 166.301486 190.687762 
L 166.397143 190.732008 
L 166.4928 191.091267 
L 166.684114 190.850645 
L 167.066743 191.057575 
L 167.1624 190.826221 
L 167.258057 191.272676 
L 167.449371 190.979934 
L 167.545029 191.05349 
L 167.640686 191.319986 
L 167.736343 190.908058 
L 167.832 191.204578 
L 167.927657 191.058541 
L 168.023314 191.229704 
L 168.118971 191.086073 
L 168.214629 191.1753 
L 168.310286 190.91066 
L 168.405943 191.439885 
L 168.5016 190.901106 
L 168.788571 191.218986 
L 168.884229 190.731986 
L 168.979886 191.214417 
L 169.075543 190.785061 
L 169.1712 191.139027 
L 169.266857 190.796889 
L 169.362514 190.837466 
L 169.458171 190.715393 
L 169.553829 191.103336 
L 169.649486 190.367357 
L 169.745143 190.835512 
L 170.032114 190.387805 
L 170.127771 190.726166 
L 170.223429 190.35196 
L 170.319086 190.666227 
L 170.414743 190.247853 
L 170.606057 190.409219 
L 170.701714 190.419729 
L 170.797371 189.968882 
L 170.893029 190.458231 
L 171.084343 190.119827 
L 171.18 190.023439 
L 171.275657 190.169245 
L 171.371314 189.903682 
L 171.466971 190.137222 
L 171.562629 189.713565 
L 171.753943 189.949641 
L 171.945257 189.58801 
L 172.040914 189.935112 
L 172.232229 189.592062 
L 172.614857 189.577599 
L 172.710514 189.249067 
L 172.806171 189.575491 
L 173.093143 189.257315 
L 173.1888 189.41195 
L 173.284457 189.06197 
L 173.380114 189.300177 
L 173.475771 189.079179 
L 173.571429 189.177653 
L 173.8584 188.887063 
L 173.954057 189.219241 
L 174.145371 188.922973 
L 174.336686 188.965099 
L 174.432343 188.746133 
L 174.528 188.991653 
L 174.623657 188.752491 
L 174.719314 188.90638 
L 175.006286 188.709058 
L 175.101943 188.958104 
L 175.1976 188.571467 
L 175.388914 188.765033 
L 175.580229 188.577683 
L 175.675886 188.694947 
L 175.771543 188.559233 
L 175.8672 188.706554 
L 176.058514 188.521214 
L 176.249829 188.573696 
L 176.345486 188.393386 
L 176.441143 188.575047 
L 176.5368 188.524146 
L 176.728114 188.456531 
L 176.823771 188.492288 
L 176.919429 188.377989 
L 177.015086 188.526584 
L 177.2064 188.398284 
L 177.302057 188.445659 
L 177.493371 188.285863 
L 177.589029 188.437116 
L 177.780343 188.265481 
L 177.876 188.367359 
L 178.067314 188.303665 
L 178.162971 188.309452 
L 178.258629 188.183106 
L 178.449943 188.295296 
L 178.641257 188.201643 
L 178.736914 188.356729 
L 178.832571 188.074397 
L 178.928229 188.269522 
L 179.023886 188.155059 
L 179.119543 188.261275 
L 179.406514 188.065919 
L 179.502171 188.251084 
L 179.693486 188.098777 
L 179.8848 188.194846 
L 179.980457 187.993692 
L 180.076114 188.204696 
L 180.171771 187.9939 
L 180.267429 188.167765 
L 180.363086 188.052071 
L 180.458743 188.129658 
L 180.5544 187.976472 
L 180.650057 188.29299 
L 180.745714 187.8939 
L 180.841371 188.120027 
L 180.937029 188.059714 
L 181.032686 188.164481 
L 181.128343 187.923902 
L 181.224 188.179405 
L 181.319657 187.949633 
L 181.415314 188.186181 
L 181.510971 188.003773 
L 181.797943 188.170257 
L 181.8936 187.929514 
L 181.989257 188.121081 
L 182.084914 188.073178 
L 182.467543 187.991089 
L 182.5632 188.178856 
L 182.754514 188.042023 
L 182.945829 188.090453 
L 183.041486 187.956112 
L 183.137143 188.12499 
L 183.328457 188.050303 
L 183.711086 188.183589 
L 183.806743 187.963722 
L 183.998057 188.14881 
L 184.189371 188.007079 
L 184.285029 188.224222 
L 184.380686 188.024155 
L 184.476343 188.180317 
L 184.572 188.087367 
L 184.763314 188.205926 
L 184.858971 188.072453 
L 185.145943 188.260934 
L 185.2416 188.036466 
L 185.337257 188.253917 
L 185.624229 188.160626 
L 185.719886 188.25485 
L 185.815543 188.175144 
L 185.9112 188.339092 
L 186.006857 188.159869 
L 186.293829 188.286478 
L 186.389486 188.200611 
L 186.5808 188.365119 
L 186.772114 188.344111 
L 187.059086 188.44813 
L 187.154743 188.288158 
L 187.346057 188.459431 
L 187.537371 188.419029 
L 187.633029 188.588742 
L 187.728686 188.388861 
L 187.92 188.484875 
L 188.015657 188.629682 
L 188.111314 188.502018 
L 188.206971 188.66881 
L 188.302629 188.488049 
L 188.398286 188.758894 
L 188.5896 188.597176 
L 188.780914 188.855611 
L 188.876571 188.619787 
L 188.972229 188.846858 
L 189.067886 188.680451 
L 189.163543 188.925444 
L 189.2592 188.760991 
L 189.354857 188.89688 
L 189.450514 188.768997 
L 189.546171 189.13769 
L 189.641829 188.773653 
L 189.9288 189.096409 
L 190.024457 188.813649 
L 190.120114 189.09933 
L 190.215771 188.875839 
L 190.311429 189.168428 
L 190.407086 188.884054 
L 190.502743 189.031056 
L 190.5984 188.936986 
L 190.694057 189.137997 
L 190.789714 188.812134 
L 190.981029 189.020645 
L 191.172343 188.850845 
L 191.268 189.029211 
L 191.363657 188.840873 
L 191.459314 189.02752 
L 191.554971 188.786634 
L 191.746286 188.895002 
L 191.841943 188.850241 
L 191.9376 188.67205 
L 192.033257 188.884295 
L 192.415886 188.684536 
L 192.511543 188.782626 
L 192.798514 188.647934 
L 192.894171 188.829452 
L 192.989829 188.529132 
L 193.181143 188.76176 
L 193.372457 188.600382 
L 193.659429 188.666273 
L 193.850743 188.504478 
L 193.9464 188.693486 
L 194.233371 188.599218 
L 194.329029 188.661189 
L 194.424686 188.463307 
L 194.520343 188.573049 
L 194.616 188.49399 
L 194.807314 188.554511 
L 194.998629 188.399283 
L 195.094286 188.731121 
L 195.189943 188.374508 
L 195.476914 188.578561 
L 195.572571 188.367205 
L 195.668229 188.574136 
L 195.763886 188.421401 
L 195.859543 188.596637 
L 196.050857 188.435611 
L 196.242171 188.609508 
L 196.337829 188.321455 
L 196.529143 188.473498 
L 196.720457 188.415426 
L 197.007429 188.482767 
L 197.198743 188.333403 
L 197.390057 188.441091 
L 197.485714 188.227187 
L 197.581371 188.436984 
L 197.772686 188.342661 
L 198.059657 188.2176 
L 198.155314 188.415602 
L 198.250971 188.065754 
L 198.442286 188.293737 
L 198.6336 188.12309 
L 198.729257 188.376507 
L 198.824914 188.076626 
L 198.920571 188.214229 
L 199.016229 188.120971 
L 199.111886 188.188784 
L 199.207543 188.0968 
L 199.3032 188.195878 
L 199.398857 187.9873 
L 199.494514 188.292276 
L 199.685829 188.043362 
L 199.781486 187.999457 
L 199.877143 188.171367 
L 199.9728 187.874572 
L 200.068457 188.13886 
L 200.164114 187.881512 
L 200.259771 188.086181 
L 200.546743 187.777866 
L 200.6424 188.200534 
L 200.738057 187.779338 
L 200.833714 187.97891 
L 200.929371 187.892571 
L 201.025029 188.053048 
L 201.120686 187.783357 
L 201.216343 188.036455 
L 201.312 187.704211 
L 201.407657 187.988991 
L 201.598971 187.7967 
L 201.694629 187.753212 
L 201.790286 187.96638 
L 201.885943 187.620398 
L 201.9816 187.830875 
L 202.268571 187.693932 
L 202.364229 187.82981 
L 202.459886 187.592131 
L 202.555543 187.901247 
L 202.746857 187.662864 
L 202.938171 187.792406 
L 203.033829 187.472308 
L 203.129486 187.784894 
L 203.3208 187.649708 
L 203.607771 187.525109 
L 203.703429 187.746162 
L 203.799086 187.421561 
L 203.9904 187.727833 
L 204.181714 187.428216 
L 204.277371 187.69637 
L 204.373029 187.489033 
L 204.564343 187.525734 
L 204.755657 187.546314 
L 204.851314 187.611788 
L 204.946971 187.338714 
L 205.138286 187.560042 
L 205.3296 187.444996 
L 205.425257 187.55175 
L 205.520914 187.350563 
L 205.616571 187.558394 
L 205.712229 187.35925 
L 205.903543 187.463237 
L 205.9992 187.473296 
L 206.094857 187.237077 
L 206.190514 187.612985 
L 206.286171 187.316081 
L 206.381829 187.347324 
L 206.573143 187.484333 
L 206.6688 187.22402 
L 206.764457 187.474998 
L 206.860114 187.188186 
L 206.955771 187.467015 
L 207.242743 187.235265 
L 207.3384 187.529688 
L 207.434057 187.156603 
L 207.625371 187.315389 
L 207.721029 187.346819 
L 207.816686 187.243666 
L 207.912343 187.393415 
L 208.008 187.176293 
L 208.103657 187.433696 
L 208.294971 187.239845 
L 208.486286 187.39672 
L 208.581943 187.128994 
L 208.6776 187.367069 
L 208.964571 187.260578 
L 209.060229 187.307141 
L 209.155886 187.176831 
L 209.251543 187.417135 
L 209.3472 187.159227 
L 209.634171 187.315641 
L 209.729829 187.177754 
L 209.825486 187.43285 
L 210.0168 187.334958 
L 210.303771 187.361425 
L 210.399429 187.501322 
L 210.495086 187.271648 
L 210.6864 187.479765 
L 210.877714 187.42636 
L 210.973371 187.538133 
L 211.069029 187.467157 
L 211.164686 187.602893 
L 211.356 187.551728 
L 211.547314 187.676504 
L 211.642971 187.491735 
L 211.738629 187.779909 
L 212.0256 187.644843 
L 212.121257 187.892747 
L 212.216914 187.639166 
L 212.312571 187.914743 
L 212.408229 187.69022 
L 212.503886 187.951543 
L 212.790857 187.667488 
L 212.886514 188.064426 
L 212.982171 187.633631 
L 213.173486 187.719212 
L 213.269143 187.85285 
L 213.3648 187.54716 
L 213.460457 187.769322 
L 213.556114 187.49459 
L 213.651771 187.761844 
L 213.747429 187.438934 
L 213.843086 187.511151 
L 213.938743 187.444019 
L 214.0344 187.653442 
L 214.130057 187.182454 
L 214.225714 187.486947 
L 214.321371 187.314664 
L 214.417029 187.376821 
L 214.512686 187.163203 
L 214.608343 187.326338 
L 214.704 187.121669 
L 214.799657 187.272658 
L 214.895314 187.023723 
L 215.086629 187.069198 
L 215.182286 187.101331 
L 215.277943 186.854185 
L 215.3736 187.075469 
L 215.660571 186.830849 
L 215.756229 186.900419 
L 216.0432 186.619548 
L 216.234514 186.762663 
L 216.425829 186.547375 
L 216.521486 186.750824 
L 216.7128 186.577279 
L 216.904114 186.546969 
L 217.095429 186.486865 
L 217.191086 186.368547 
L 217.3824 186.507039 
L 217.478057 186.2933 
L 217.669371 186.445069 
L 217.860686 186.275004 
L 218.147657 186.254325 
L 218.338971 186.125586 
L 218.434629 186.313111 
L 218.625943 185.999601 
L 218.7216 186.194233 
L 219.104229 185.999023 
L 219.295543 186.028882 
L 219.3912 185.892296 
L 219.582514 186.040467 
L 219.773829 185.87019 
L 219.869486 185.955639 
L 220.156457 185.818739 
L 220.443429 185.758437 
L 220.539086 185.669599 
L 220.7304 185.766371 
L 220.826057 185.616396 
L 221.017371 185.766102 
L 221.208686 185.6671 
L 221.304343 185.597066 
L 221.495657 185.681517 
L 221.686971 185.566038 
L 221.782629 185.713391 
L 221.973943 185.520575 
L 222.0696 185.685211 
L 222.260914 185.575442 
L 223.121829 185.566074 
L 223.217486 185.687387 
L 223.313143 185.581295 
L 223.4088 185.702991 
L 223.504457 185.588105 
L 223.695771 185.682973 
L 223.791429 185.714581 
L 223.887086 185.576969 
L 223.982743 185.873987 
L 224.0784 185.680426 
L 224.365371 185.902818 
L 224.461029 185.673055 
L 224.556686 185.933304 
L 224.652343 185.725175 
L 224.748 185.922789 
L 225.034971 185.838608 
L 225.130629 186.106504 
L 225.226286 185.817232 
L 225.4176 186.032172 
L 225.800229 185.978169 
L 225.895886 186.183284 
L 226.0872 186.035556 
L 226.278514 186.257225 
L 226.374171 186.034184 
L 226.565486 186.227607 
L 226.852457 186.228024 
L 227.043771 186.37327 
L 227.139429 186.175278 
L 227.235086 186.249362 
L 227.330743 186.47931 
L 227.522057 186.256434 
L 227.617714 186.430177 
L 227.809029 186.382955 
L 228.191657 186.510729 
L 228.287314 186.329595 
L 228.478629 186.59217 
L 228.669943 186.45918 
L 228.7656 186.585581 
L 228.956914 186.572227 
L 229.148229 186.536251 
L 229.339543 186.587239 
L 229.4352 186.454184 
L 229.530857 186.729717 
L 229.722171 186.561882 
L 229.913486 186.684362 
L 230.009143 186.578838 
L 230.1048 186.720284 
L 230.200457 186.533198 
L 230.391771 186.748101 
L 230.583086 186.647815 
L 230.678743 186.893039 
L 230.7744 186.632825 
L 231.061371 186.802 
L 231.348343 186.731661 
L 231.444 186.963718 
L 231.635314 186.790183 
L 231.826629 186.998827 
L 231.922286 186.820251 
L 232.1136 186.956591 
L 232.496229 187.006207 
L 232.591886 187.1172 
L 232.7832 186.97336 
L 232.878857 187.266981 
L 233.070171 187.069198 
L 233.261486 187.201354 
L 233.548457 187.16988 
L 233.739771 187.368134 
L 233.835429 187.205812 
L 234.026743 187.414884 
L 234.218057 187.337528 
L 234.313714 187.457867 
L 234.409371 187.328841 
L 234.505029 187.442075 
L 234.696343 187.389845 
L 234.887657 187.427348 
L 234.983314 187.231773 
L 235.078971 187.542998 
L 235.270286 187.333146 
L 235.4616 187.374734 
L 235.557257 187.20489 
L 235.652914 187.369331 
L 235.748571 187.066563 
L 235.844229 187.313895 
L 236.1312 186.98399 
L 236.226857 187.256812 
L 236.322514 186.795674 
L 236.418171 187.015849 
L 236.705143 186.770087 
L 236.8008 186.935077 
L 236.896457 186.658522 
L 236.992114 186.928796 
L 237.087771 186.636646 
L 237.183429 186.681749 
L 237.279086 186.657973 
L 237.374743 186.776181 
L 237.4704 186.417032 
L 237.566057 186.686207 
L 237.661714 186.518647 
L 237.757371 186.606875 
L 237.948686 186.482374 
L 238.044343 186.355545 
L 238.14 186.548408 
L 238.235657 186.19431 
L 238.426971 186.405776 
L 238.618286 186.13436 
L 238.713943 186.375224 
L 238.905257 186.177694 
L 239.096571 186.102343 
L 239.287886 186.194475 
L 239.383543 185.940948 
L 239.4792 186.185656 
L 239.574857 186.143804 
L 239.766171 186.019921 
L 239.861829 186.113967 
L 239.957486 185.993851 
L 240.053143 186.060077 
L 240.1488 185.970698 
L 240.340114 186.121643 
L 240.531429 185.934543 
L 240.627086 186.215713 
L 240.8184 186.022835 
L 241.009714 186.183723 
L 241.105371 186.044786 
L 241.201029 186.161881 
L 241.296686 186.002612 
L 241.392343 186.230704 
L 241.679314 186.113736 
L 241.774971 186.411926 
L 241.870629 186.053883 
L 242.061943 186.271051 
L 242.444571 186.259575 
L 242.540229 186.420414 
L 242.731543 186.241323 
L 242.922857 186.418822 
L 243.018514 186.267943 
L 243.209829 186.509795 
L 243.401143 186.477805 
L 243.4968 186.458719 
L 243.688114 186.578882 
L 243.879429 186.508368 
L 243.975086 186.706996 
L 244.1664 186.541324 
L 244.357714 186.673348 
L 244.453371 186.590347 
L 244.740343 186.792753 
L 244.931657 186.644542 
L 245.122971 186.884737 
L 245.218629 186.655173 
L 245.409943 186.924667 
L 245.601257 186.862652 
L 246.079543 186.844642 
L 246.1752 187.112467 
L 246.366514 186.937823 
L 246.557829 187.137923 
L 246.653486 186.966452 
L 246.749143 187.132432 
L 246.8448 187.013224 
L 246.940457 187.192887 
L 247.131771 187.092414 
L 247.227429 187.085276 
L 247.323086 187.360227 
L 247.418743 186.994632 
L 247.610057 187.205076 
L 247.705714 187.262731 
L 247.801371 187.127951 
L 247.897029 187.283981 
L 247.992686 187.150969 
L 248.088343 187.419771 
L 248.184 187.175535 
L 248.279657 187.217892 
L 248.470971 187.384519 
L 248.566629 187.138746 
L 248.662286 187.407943 
L 248.949257 187.319683 
L 249.236229 187.477294 
L 249.427543 187.362512 
L 249.618857 187.474164 
L 249.714514 187.333278 
L 249.905829 187.46249 
L 250.384114 187.582269 
L 250.479771 187.363237 
L 250.671086 187.635091 
L 250.8624 187.524098 
L 250.958057 187.701597 
L 251.053714 187.527338 
L 251.149371 187.657593 
L 251.245029 187.549334 
L 251.532 187.667356 
L 251.627657 187.511107 
L 251.723314 187.825988 
L 251.914629 187.641252 
L 252.105943 187.830678 
L 252.2016 187.638375 
L 252.297257 187.838683 
L 252.392914 187.691088 
L 252.584229 187.797963 
L 252.775543 187.738035 
L 252.8712 188.008199 
L 252.966857 187.749346 
L 253.158171 187.921003 
L 253.445143 187.992714 
L 253.5408 187.889925 
L 253.636457 188.095076 
L 253.827771 187.89647 
L 254.019086 188.110044 
L 254.114743 187.952104 
L 254.306057 188.178022 
L 254.401714 188.066238 
L 254.593029 188.175243 
L 255.932229 188.595649 
L 256.027886 188.525343 
L 256.2192 188.799527 
L 256.314857 188.572686 
L 256.506171 188.837853 
L 256.697486 188.798198 
L 257.175771 188.742179 
L 257.271429 189.010872 
L 257.462743 188.78849 
L 257.654057 188.986525 
L 257.749714 188.791477 
L 257.845371 188.918152 
L 258.132343 188.823148 
L 258.323657 188.7848 
L 258.419314 188.984878 
L 258.514971 188.668623 
L 258.706286 188.840522 
L 258.801943 188.834438 
L 258.8976 188.654083 
L 258.993257 188.851284 
L 259.088914 188.640697 
L 259.184571 188.868602 
L 259.375886 188.646253 
L 259.5672 188.824082 
L 259.662857 188.446791 
L 259.758514 188.765878 
L 259.854171 188.716273 
L 260.045486 188.604204 
L 260.141143 188.730407 
L 260.2368 188.607455 
L 260.332457 188.752195 
L 260.428114 188.51569 
L 260.619429 188.704501 
L 260.715086 188.645166 
L 260.810743 188.448998 
L 260.9064 188.714989 
L 261.097714 188.572148 
L 261.480343 188.660815 
L 261.576 188.429121 
L 261.767314 188.675641 
L 261.958629 188.475552 
L 262.054286 188.735656 
L 262.149943 188.481504 
L 262.2456 188.537764 
L 262.723886 188.378659 
L 262.819543 188.673708 
L 263.010857 188.435238 
L 263.202171 188.619051 
L 263.297829 188.355587 
L 263.393486 188.496022 
L 263.489143 188.39667 
L 263.5848 188.488082 
L 263.871771 188.302995 
L 263.967429 188.548856 
L 264.063086 188.27364 
L 264.158743 188.328264 
L 264.350057 188.386237 
L 264.445714 188.231778 
L 264.541371 188.401436 
L 264.637029 188.258958 
L 264.732686 188.414438 
L 264.924 188.207233 
L 265.115314 188.387478 
L 265.210971 188.071641 
L 265.402286 188.307552 
L 265.5936 188.193034 
L 265.880571 188.208386 
L 266.071886 188.034412 
L 266.167543 188.246526 
L 266.358857 188.007694 
L 266.550171 188.110802 
L 266.645829 187.9364 
L 266.741486 188.06425 
L 266.837143 187.933182 
L 267.028457 187.97197 
L 267.219771 187.887574 
L 267.315429 188.108243 
L 267.411086 187.773484 
L 267.6024 187.975341 
L 267.793714 187.7967 
L 267.889371 187.915457 
L 267.985029 187.785883 
L 268.080686 187.932809 
L 268.272 187.715182 
L 268.463314 187.831962 
L 268.558971 187.622298 
L 268.750286 187.77679 
L 268.845943 187.660405 
L 269.037257 187.676844 
L 269.324229 187.647523 
L 269.419886 187.572539 
L 269.515543 187.76941 
L 269.706857 187.54034 
L 269.898171 187.630787 
L 269.993829 187.536475 
L 270.089486 187.630819 
L 270.185143 187.49526 
L 270.376457 187.593745 
L 270.472114 187.445359 
L 270.567771 187.507296 
L 270.663429 187.715841 
L 270.759086 187.36775 
L 270.9504 187.575877 
L 271.141714 187.472143 
L 271.428686 187.541845 
L 271.62 187.345841 
L 271.715657 187.526349 
L 271.906971 187.304121 
L 272.002629 187.503167 
L 272.193943 187.379072 
L 272.385257 187.403968 
L 272.480914 187.35668 
L 272.576571 187.456263 
L 272.767886 187.33688 
L 272.863543 187.481533 
L 273.054857 187.313939 
L 273.150514 187.460997 
L 273.341829 187.354374 
L 273.437486 187.414994 
L 273.533143 187.311216 
L 273.724457 187.433531 
L 273.820114 187.249652 
L 274.011429 187.455407 
L 274.107086 187.306296 
L 274.2984 187.484575 
L 274.394057 187.321703 
L 274.489714 187.470902 
L 274.681029 187.400146 
L 274.872343 187.41294 
L 274.968 187.334069 
L 275.063657 187.570409 
L 275.254971 187.412743 
L 275.446286 187.557131 
L 275.541943 187.420957 
L 275.6376 187.605353 
L 275.733257 187.455517 
L 275.924571 187.567345 
L 276.115886 187.527678 
L 276.211543 187.788431 
L 276.3072 187.484465 
L 276.498514 187.725033 
L 276.689829 187.646831 
L 276.785486 187.819871 
L 276.881143 187.687266 
L 276.9768 187.846997 
L 277.168114 187.744218 
L 277.359429 187.903838 
L 277.455086 187.762942 
L 277.6464 187.985774 
L 277.742057 187.923397 
L 277.933371 188.023145 
L 278.316 188.063558 
L 278.411657 188.226561 
L 278.602971 188.142528 
L 278.698629 188.297405 
L 278.889943 188.211395 
L 279.081257 188.278483 
L 279.272571 188.336577 
L 279.368229 188.181657 
L 279.559543 188.417667 
L 279.6552 188.122673 
L 279.846514 188.351743 
L 280.037829 188.250007 
L 280.3248 188.260824 
L 280.516114 188.08349 
L 280.611771 188.248272 
L 280.803086 187.971871 
L 280.9944 188.100841 
L 281.090057 187.886322 
L 281.185714 188.037806 
L 281.377029 187.98786 
L 281.664 187.833423 
L 281.759657 188.012262 
L 281.855314 187.689957 
L 282.142286 187.823836 
L 282.237943 187.657516 
L 282.3336 187.777581 
L 282.429257 187.638386 
L 282.524914 187.805969 
L 282.716229 187.575021 
L 282.907543 187.718147 
L 283.0032 187.41719 
L 283.098857 187.665873 
L 283.577143 187.478326 
L 283.6728 187.589802 
L 283.864114 187.422956 
L 283.959771 187.528623 
L 284.151086 187.269704 
L 284.246743 187.506615 
L 284.438057 187.351003 
L 284.820686 187.366048 
L 284.916343 187.123031 
L 285.107657 187.349103 
L 285.298971 187.136286 
L 285.394629 187.327051 
L 285.490286 187.079313 
L 285.585943 187.190174 
L 285.6816 187.092403 
L 285.777257 187.157635 
L 286.064229 186.887746 
L 286.159886 187.185002 
L 286.3512 186.952923 
L 286.446857 186.92135 
L 286.542514 187.079389 
L 286.638171 186.791117 
L 286.733829 187.00479 
L 286.829486 186.815507 
L 286.925143 186.934199 
L 287.212114 186.693609 
L 287.307771 186.987362 
L 287.403429 186.675906 
L 287.6904 186.839206 
L 287.786057 186.634318 
L 287.881714 186.840315 
L 287.977371 186.616989 
L 288.073029 186.805602 
L 288.264343 186.646969 
L 288.455657 186.785516 
L 288.551314 186.499648 
L 288.742629 186.709676 
L 288.933943 186.63803 
L 289.220914 186.719098 
L 289.412229 186.612585 
L 289.507886 186.759489 
L 289.6992 186.584878 
L 289.890514 186.736131 
L 289.986171 186.63848 
L 290.177486 186.695795 
L 290.655771 186.896421 
L 290.751429 186.678377 
L 291.0384 186.821295 
L 291.134057 186.761631 
L 291.229714 186.857798 
L 291.325371 186.785516 
L 291.516686 186.902143 
L 291.612343 186.761828 
L 291.803657 186.946191 
L 291.899314 186.831255 
L 292.090629 186.998915 
L 292.186286 186.868769 
L 292.281943 187.023613 
L 292.473257 186.944126 
L 292.664571 187.011928 
L 292.760229 186.903307 
L 292.855886 187.163016 
L 293.0472 186.99886 
L 293.238514 187.110117 
L 293.334171 186.978774 
L 293.429829 187.141371 
L 293.525486 186.978895 
L 293.621143 187.157448 
L 293.812457 187.021713 
L 294.003771 187.253254 
L 294.099429 186.952758 
L 294.290743 187.152792 
L 294.482057 187.092579 
L 294.577714 187.146181 
L 294.673371 187.068957 
L 294.769029 187.2153 
L 294.960343 187.057503 
L 295.056 187.210425 
L 295.247314 187.03231 
L 295.438629 187.166772 
L 295.629943 187.15299 
L 295.821257 187.150815 
L 295.916914 187.208096 
L 296.108229 187.142733 
L 296.203886 187.252002 
L 296.3952 187.094402 
L 296.490857 187.266717 
L 296.682171 187.201408 
L 297.160457 187.104911 
L 297.256114 187.31563 
L 297.351771 187.268024 
L 297.447429 187.174195 
L 297.638743 187.372582 
L 297.7344 187.189526 
L 297.830057 187.328556 
L 297.925714 187.241701 
L 298.117029 187.296138 
L 298.212686 187.336924 
L 298.308343 187.253309 
L 298.404 187.487035 
L 298.595314 187.357724 
L 298.786629 187.511733 
L 298.882286 187.332257 
L 298.977943 187.532433 
L 299.0736 187.412248 
L 299.169257 187.586102 
L 299.360571 187.518772 
L 299.456229 187.530523 
L 299.551886 187.754123 
L 299.647543 187.471089 
L 299.838857 187.750368 
L 300.030171 187.6948 
L 300.221486 187.786794 
L 300.4128 187.85207 
L 300.508457 187.851005 
L 300.604114 188.037344 
L 300.795429 187.915907 
L 300.986743 188.119686 
L 301.0824 188.027022 
L 301.465029 188.157475 
L 301.656343 188.08886 
L 301.752 188.273377 
L 301.943314 188.12432 
L 302.134629 188.219972 
L 302.230286 188.054191 
L 302.325943 188.177494 
L 302.4216 188.074397 
L 302.517257 188.175144 
L 302.708571 187.955343 
L 302.899886 188.090529 
L 302.995543 187.787684 
L 303.186857 187.959505 
L 303.378171 187.749862 
L 303.473829 187.836707 
L 303.7608 187.624867 
L 304.047771 187.634773 
L 304.143429 187.400168 
L 304.239086 187.611733 
L 304.526057 187.373087 
L 304.621714 187.461315 
L 304.908686 187.223416 
L 305.1 187.380807 
L 305.291314 187.154077 
L 305.386971 187.335705 
L 305.578286 187.097817 
L 305.865257 187.11575 
L 306.056571 186.956624 
L 306.247886 187.09282 
L 306.343543 186.907173 
L 306.534857 187.079422 
L 306.726171 186.94003 
L 307.1088 186.866188 
L 307.204457 186.854921 
L 307.300114 186.989371 
L 307.491429 186.769296 
L 307.682743 186.864552 
L 307.874057 186.781024 
L 308.352343 186.777203 
L 308.448 186.836647 
L 308.639314 186.64351 
L 308.734971 186.812927 
L 308.830629 186.601724 
L 308.926286 186.645728 
L 309.404571 186.488425 
L 309.500229 186.769494 
L 309.691543 186.557072 
L 309.7872 186.579728 
L 309.882857 186.72125 
L 309.978514 186.470656 
L 310.074171 186.666242 
L 310.169829 186.553273 
L 310.265486 186.665002 
L 310.552457 186.557764 
L 310.648114 186.815551 
L 310.743771 186.515605 
L 311.030743 186.729421 
L 311.1264 186.555524 
L 311.222057 186.791106 
L 311.317714 186.619383 
L 311.413371 186.807732 
L 311.604686 186.699089 
L 311.796 186.869604 
L 311.891657 186.643269 
L 312.082971 186.898618 
L 312.274286 186.853043 
L 312.561257 186.968605 
L 312.752571 186.89685 
L 312.848229 187.072658 
L 313.039543 186.90323 
L 313.1352 187.10691 
L 313.230857 187.056723 
L 313.326514 186.943259 
L 313.517829 187.096741 
L 313.900457 187.152979 
L 313.996114 187.293831 
L 314.091771 187.062126 
L 314.283086 187.344139 
L 314.378743 187.175261 
L 314.761371 187.361545 
L 314.857029 187.345962 
L 314.952686 187.21563 
L 315.048343 187.482203 
L 315.239657 187.277161 
L 315.430971 187.480303 
L 315.526629 187.329874 
L 315.622286 187.516729 
L 315.8136 187.470759 
L 316.004914 187.506857 
L 316.100571 187.416586 
L 316.196229 187.688946 
L 316.291886 187.467915 
L 316.387543 187.515412 
L 316.578857 187.610338 
L 316.674514 187.511315 
L 316.770171 187.679118 
L 316.865829 187.511667 
L 316.961486 187.682094 
L 317.057143 187.626482 
L 317.1528 187.510569 
L 317.344114 187.750466 
L 317.439771 187.471913 
L 317.631086 187.708878 
L 317.726743 187.592427 
L 317.918057 187.691714 
L 318.013714 187.62568 
L 318.109371 187.772924 
L 318.300686 187.600707 
L 318.396343 187.803014 
L 318.587657 187.584652 
L 318.778971 187.767818 
L 318.874629 187.639737 
L 319.065943 187.716489 
L 319.544229 187.907364 
L 319.735543 187.702091 
L 319.8312 187.901609 
L 320.022514 187.779634 
L 320.405143 187.881754 
L 320.5008 187.682247 
L 320.596457 187.986004 
L 320.787771 187.779261 
L 320.979086 188.025045 
L 321.074743 187.767993 
L 321.1704 187.983336 
L 321.266057 187.905716 
L 321.553029 188.018456 
L 321.648686 187.888442 
L 321.744343 188.206486 
L 321.84 187.973211 
L 321.935657 188.029866 
L 322.126971 188.195614 
L 322.222629 187.99065 
L 322.318286 188.23863 
L 322.413943 188.065985 
L 322.5096 188.258145 
L 322.700914 188.154938 
L 322.796571 188.194736 
L 322.892229 188.428198 
L 322.987886 188.083139 
L 323.1792 188.375442 
L 323.370514 188.262549 
L 323.466171 188.381152 
L 323.561829 188.317216 
L 323.657486 188.410649 
L 323.8488 188.246032 
L 323.944457 188.415932 
L 324.135771 188.146262 
L 324.231429 188.371203 
L 324.709714 188.145823 
L 324.805371 188.164876 
L 324.996686 188.058364 
L 325.092343 188.157453 
L 325.188 187.880502 
L 325.283657 187.921168 
L 325.379314 188.047349 
L 325.570629 187.778382 
L 325.666286 187.910581 
L 325.761943 187.739605 
L 325.8576 187.86191 
L 326.048914 187.601136 
L 326.240229 187.736487 
L 326.335886 187.440933 
L 326.5272 187.634147 
L 326.622857 187.426558 
L 326.814171 187.457834 
L 327.388114 187.273142 
L 327.483771 187.193787 
L 327.579429 187.347291 
L 327.962057 187.16608 
L 328.153371 187.171406 
L 328.249029 186.969747 
L 328.440343 187.238714 
L 328.536 186.902374 
L 328.727314 187.197367 
L 328.918629 186.980301 
L 329.2056 187.036099 
L 329.396914 186.88108 
L 329.492571 187.125897 
L 329.683886 186.816342 
L 329.8752 186.984968 
L 329.970857 186.83142 
L 330.257829 186.975919 
L 330.5448 186.894049 
L 330.640457 187.055438 
L 330.831771 186.847003 
L 331.023086 186.908743 
L 331.118743 186.791106 
L 331.310057 186.871888 
L 331.405714 186.961533 
L 331.597029 186.787811 
L 331.788343 186.950024 
L 331.884 186.777258 
L 332.075314 187.020406 
L 332.170971 186.828038 
L 332.457943 186.967924 
L 332.744914 186.846223 
L 332.840571 187.0955 
L 332.936229 186.815661 
L 333.2232 187.049804 
L 333.318857 186.783298 
L 333.414514 186.981937 
L 333.510171 186.863487 
L 333.605829 187.030015 
L 333.701486 186.840348 
L 333.988457 187.091272 
L 334.084114 186.7708 
L 334.275429 186.980344 
L 334.371086 186.989635 
L 334.466743 186.80301 
L 334.5624 186.996268 
L 334.658057 186.938537 
L 334.753714 187.019659 
L 334.849371 186.850067 
L 335.136343 186.994994 
L 335.232 186.808677 
L 335.423314 187.008403 
L 335.614629 186.895422 
L 335.805943 186.950079 
L 337.049486 186.96139 
L 337.145143 186.866529 
L 337.336457 187.080224 
L 337.432114 186.838086 
L 337.623429 187.092359 
L 337.814743 186.968484 
L 338.101714 187.069824 
L 338.293029 186.942534 
L 338.388686 187.15948 
L 338.58 186.977665 
L 338.771314 187.163653 
L 338.866971 186.970109 
L 338.962629 187.130444 
L 339.153943 187.128555 
L 339.440914 187.091173 
L 339.536571 187.326524 
L 339.632229 187.082058 
L 339.9192 187.25679 
L 340.014857 187.148871 
L 340.110514 187.320616 
L 340.206171 187.191909 
L 340.301829 187.379907 
L 340.493143 187.243853 
L 340.684457 187.446556 
L 340.780114 187.24169 
L 340.971429 187.490626 
L 341.067086 187.354352 
L 341.2584 187.478249 
L 341.641029 187.473889 
L 341.736686 187.6863 
L 341.928 187.527623 
L 342.119314 187.693196 
L 342.214971 187.589484 
L 342.406286 187.718004 
L 342.5976 187.821442 
L 342.693257 187.749149 
L 342.884571 188.00061 
L 342.980229 187.789452 
L 343.171543 188.097338 
L 343.2672 187.930799 
L 343.745486 188.153708 
L 343.841143 188.068972 
L 343.9368 188.367447 
L 344.128114 188.228856 
L 344.319429 188.48101 
L 344.415086 188.259122 
L 344.510743 188.488807 
L 344.6064 188.432525 
L 344.797714 188.507344 
L 344.893371 188.579121 
L 344.989029 188.499833 
L 345.084686 188.779704 
L 345.180343 188.526178 
L 345.467314 188.80292 
L 345.562971 188.632581 
L 345.658629 188.862683 
L 345.754286 188.75102 
L 345.849943 188.903217 
L 346.041257 188.766537 
L 346.232571 189.010004 
L 346.328229 188.607037 
L 346.423886 188.919305 
L 346.519543 188.867987 
L 346.710857 188.714813 
L 346.806514 188.907697 
L 346.902171 188.726563 
L 346.997829 188.887249 
L 347.093486 188.638698 
L 347.2848 188.790565 
L 347.380457 188.75359 
L 347.476114 188.525684 
L 347.571771 188.795562 
L 347.858743 188.610046 
L 347.9544 188.679451 
L 348.241371 188.471071 
L 348.432686 188.631153 
L 348.624 188.425134 
L 348.719657 188.647571 
L 348.910971 188.396615 
L 349.102286 188.452798 
L 349.2936 188.413087 
L 349.389257 188.259693 
L 349.484914 188.481438 
L 349.676229 188.217622 
L 349.771886 188.334029 
L 349.867543 188.443276 
L 349.9632 188.184018 
L 350.154514 188.27353 
L 350.441486 188.225573 
L 350.537143 188.129141 
L 350.6328 188.341717 
L 350.824114 188.110945 
L 351.015429 188.223322 
L 351.111086 188.026824 
L 351.206743 188.201138 
L 351.398057 188.171916 
L 351.685029 188.112262 
L 351.780686 188.248042 
L 351.876343 187.904915 
L 352.067657 188.188004 
L 352.258971 187.994581 
L 352.545943 188.046196 
L 352.737257 187.909922 
L 352.832914 188.135478 
L 353.024229 187.893647 
L 353.215543 188.045789 
L 353.3112 187.881534 
L 353.502514 187.956288 
L 353.885143 187.875407 
L 353.9808 188.037487 
L 354.172114 187.856748 
L 354.267771 187.996261 
L 354.459086 187.817148 
L 354.554743 187.928866 
L 354.746057 187.870531 
L 354.841714 187.887948 
L 354.937371 187.711613 
L 355.033029 187.922046 
L 355.128686 187.865918 
L 355.224343 187.722551 
L 355.415657 187.939925 
L 355.511314 187.687552 
L 355.606971 187.851115 
L 355.798286 187.822024 
L 356.085257 187.652717 
L 356.180914 187.897579 
L 356.372229 187.695909 
L 356.563543 187.806045 
L 356.6592 187.562436 
L 356.754857 187.816423 
L 356.850514 187.602146 
L 356.946171 187.748105 
L 357.233143 187.609669 
L 357.3288 187.857561 
L 357.424457 187.477217 
L 357.615771 187.716851 
L 357.807086 187.509042 
L 357.902743 187.696623 
L 357.9984 187.485508 
L 358.094057 187.679469 
L 358.285371 187.511271 
L 358.476686 187.639462 
L 358.572343 187.374295 
L 358.668 187.642372 
L 358.954971 187.526657 
L 359.050629 187.554474 
L 359.146286 187.451168 
L 359.241943 187.571298 
L 359.433257 187.453024 
L 359.528914 187.570507 
L 359.720229 187.35231 
L 359.815886 187.558054 
L 360.0072 187.374965 
L 360.102857 187.454342 
L 360.294171 187.411853 
L 360.389829 187.461623 
L 360.485486 187.229928 
L 360.6768 187.472769 
L 360.772457 187.259601 
L 360.963771 187.509844 
L 361.059429 187.254813 
L 361.250743 187.352079 
L 361.537714 187.361139 
L 361.633371 187.211226 
L 361.729029 187.465785 
L 361.920343 187.227216 
L 362.111657 187.393711 
L 362.207314 187.203715 
L 362.302971 187.389132 
L 362.494286 187.333651 
L 362.781257 187.257998 
L 362.876914 187.459262 
L 362.972571 187.177611 
L 363.259543 187.3229 
L 363.3552 187.245731 
L 363.450857 187.365598 
L 363.546514 187.247829 
L 363.642171 187.374767 
L 363.833486 187.223043 
L 364.0248 187.369782 
L 364.120457 187.170517 
L 364.311771 187.411886 
L 364.407429 187.256197 
L 364.598743 187.37591 
L 366.129257 187.674198 
L 366.224914 187.771376 
L 366.320571 187.556462 
L 366.511886 187.856628 
L 366.607543 187.701158 
L 366.894514 187.855518 
L 367.085829 187.900456 
L 367.181486 187.827647 
L 367.277143 188.098326 
L 367.468457 187.934456 
L 367.659771 188.149875 
L 367.755429 187.986477 
L 367.946743 188.090848 
L 368.0424 188.19892 
L 368.233714 188.157749 
L 368.329371 188.08539 
L 368.425029 188.365042 
L 368.520686 188.031118 
L 368.712 188.211681 
L 368.807657 188.266645 
L 368.903314 188.02533 
L 368.998971 188.264965 
L 369.094629 188.031315 
L 369.190286 188.271301 
L 369.285943 188.010582 
L 369.3816 188.063393 
L 369.477257 188.083325 
L 369.572914 188.22252 
L 369.668571 187.82243 
L 369.764229 188.133567 
L 370.0512 187.915842 
L 370.146857 188.069521 
L 370.242514 187.93931 
L 370.338171 188.081975 
L 370.433829 187.857484 
L 370.625143 188.024331 
L 370.7208 187.970641 
L 370.816457 187.754277 
L 370.912114 188.05396 
L 371.103429 187.857199 
L 371.677371 187.902729 
L 371.773029 187.935422 
L 371.964343 187.738595 
L 372.06 187.970092 
L 372.251314 187.778053 
L 372.633943 187.757769 
L 372.7296 187.623846 
L 372.825257 187.907913 
L 373.016571 187.656308 
L 373.207886 187.827207 
L 373.303543 187.598182 
L 373.3992 187.746842 
L 373.590514 187.735707 
L 373.877486 187.622078 
L 373.973143 187.857934 
L 374.0688 187.572264 
L 374.164457 187.626581 
L 374.355771 187.715885 
L 374.451429 187.535508 
L 374.547086 187.713128 
L 374.642743 187.581764 
L 374.7384 187.731687 
L 374.929714 187.590231 
L 375.121029 187.780447 
L 375.216686 187.478183 
L 375.408 187.704354 
L 375.599314 187.563095 
L 375.790629 187.627228 
L 376.268914 187.59067 
L 376.364571 187.493547 
L 376.555886 187.675461 
L 376.651543 187.512216 
L 376.842857 187.607242 
L 377.321143 187.693679 
L 377.512457 187.54917 
L 377.608114 187.677679 
L 377.799429 187.503211 
L 377.990743 187.576339 
L 377.990743 187.576339 
" style="fill:none;stroke:#001c7f;stroke-linecap:round;stroke-width:1.5;"/>
   </g>
   <g id="patch_8">
    <path d="M 54 252 
L 54 153.163636 
" style="fill:none;stroke:#ffffff;stroke-linecap:square;stroke-linejoin:miter;stroke-width:1.25;"/>
   </g>
   <g id="patch_9">
    <path d="M 388.8 252 
L 388.8 153.163636 
" style="fill:none;stroke:#ffffff;stroke-linecap:square;stroke-linejoin:miter;stroke-width:1.25;"/>
   </g>
   <g id="patch_10">
    <path d="M 54 252 
L 388.8 252 
" style="fill:none;stroke:#ffffff;stroke-linecap:square;stroke-linejoin:miter;stroke-width:1.25;"/>
   </g>
   <g id="patch_11">
    <path d="M 54 153.163636 
L 388.8 153.163636 
" style="fill:none;stroke:#ffffff;stroke-linecap:square;stroke-linejoin:miter;stroke-width:1.25;"/>
   </g>
   <g id="text_19">
    <!-- Torque vs Time for u=7[m/s] -->
    <g style="fill:#262626;" transform="translate(134.570625 147.163636)scale(0.12 -0.12)">
     <use xlink:href="#DejaVuSans-84"/>
     <use x="60.818359" xlink:href="#DejaVuSans-111"/>
     <use x="122" xlink:href="#DejaVuSans-114"/>
     <use x="163.097656" xlink:href="#DejaVuSans-113"/>
     <use x="226.574219" xlink:href="#DejaVuSans-117"/>
     <use x="289.953125" xlink:href="#DejaVuSans-101"/>
     <use x="351.476562" xlink:href="#DejaVuSans-32"/>
     <use x="383.263672" xlink:href="#DejaVuSans-118"/>
     <use x="442.443359" xlink:href="#DejaVuSans-115"/>
     <use x="494.542969" xlink:href="#DejaVuSans-32"/>
     <use x="526.330078" xlink:href="#DejaVuSans-84"/>
     <use x="587.367188" xlink:href="#DejaVuSans-105"/>
     <use x="615.150391" xlink:href="#DejaVuSans-109"/>
     <use x="712.5625" xlink:href="#DejaVuSans-101"/>
     <use x="774.085938" xlink:href="#DejaVuSans-32"/>
     <use x="805.873047" xlink:href="#DejaVuSans-102"/>
     <use x="841.078125" xlink:href="#DejaVuSans-111"/>
     <use x="902.259766" xlink:href="#DejaVuSans-114"/>
     <use x="943.373047" xlink:href="#DejaVuSans-32"/>
     <use x="975.160156" xlink:href="#DejaVuSans-117"/>
     <use x="1038.539062" xlink:href="#DejaVuSans-61"/>
     <use x="1122.328125" xlink:href="#DejaVuSans-55"/>
     <use x="1185.951172" xlink:href="#DejaVuSans-91"/>
     <use x="1224.964844" xlink:href="#DejaVuSans-109"/>
     <use x="1322.376953" xlink:href="#DejaVuSans-47"/>
     <use x="1356.068359" xlink:href="#DejaVuSans-115"/>
     <use x="1408.167969" xlink:href="#DejaVuSans-93"/>
    </g>
   </g>
  </g>
 </g>
 <defs>
  <clipPath id="p1a6425e12f">
   <rect height="98.836364" width="334.8" x="54" y="34.56"/>
  </clipPath>
  <clipPath id="p2a89c4eb0a">
   <rect height="98.836364" width="334.8" x="54" y="153.163636"/>
  </clipPath>
 </defs>
</svg>
