<?xml version="1.0" encoding="utf-8" standalone="no"?>
<!DOCTYPE svg PUBLIC "-//W3C//DTD SVG 1.1//EN"
  "http://www.w3.org/Graphics/SVG/1.1/DTD/svg11.dtd">
<!-- Created with matplotlib (https://matplotlib.org/) -->
<svg height="288pt" version="1.1" viewBox="0 0 432 288" width="432pt" xmlns="http://www.w3.org/2000/svg" xmlns:xlink="http://www.w3.org/1999/xlink">
 <defs>
  <style type="text/css">
*{stroke-linecap:butt;stroke-linejoin:round;}
  </style>
 </defs>
 <g id="figure_1">
  <g id="patch_1">
   <path d="M 0 288 
L 432 288 
L 432 0 
L 0 0 
z
" style="fill:#ffffff;"/>
  </g>
  <g id="axes_1">
   <g id="patch_2">
    <path d="M 54 133.396364 
L 388.8 133.396364 
L 388.8 34.56 
L 54 34.56 
z
" style="fill:#eaeaf2;"/>
   </g>
   <g id="matplotlib.axis_1">
    <g id="xtick_1">
     <g id="line2d_1">
      <path clip-path="url(#pf6d2123a19)" d="M 54 133.396364 
L 54 34.56 
" style="fill:none;stroke:#ffffff;stroke-linecap:round;"/>
     </g>
    </g>
    <g id="xtick_2">
     <g id="line2d_2">
      <path clip-path="url(#pf6d2123a19)" d="M 101.828571 133.396364 
L 101.828571 34.56 
" style="fill:none;stroke:#ffffff;stroke-linecap:round;"/>
     </g>
    </g>
    <g id="xtick_3">
     <g id="line2d_3">
      <path clip-path="url(#pf6d2123a19)" d="M 149.657143 133.396364 
L 149.657143 34.56 
" style="fill:none;stroke:#ffffff;stroke-linecap:round;"/>
     </g>
    </g>
    <g id="xtick_4">
     <g id="line2d_4">
      <path clip-path="url(#pf6d2123a19)" d="M 197.485714 133.396364 
L 197.485714 34.56 
" style="fill:none;stroke:#ffffff;stroke-linecap:round;"/>
     </g>
    </g>
    <g id="xtick_5">
     <g id="line2d_5">
      <path clip-path="url(#pf6d2123a19)" d="M 245.314286 133.396364 
L 245.314286 34.56 
" style="fill:none;stroke:#ffffff;stroke-linecap:round;"/>
     </g>
    </g>
    <g id="xtick_6">
     <g id="line2d_6">
      <path clip-path="url(#pf6d2123a19)" d="M 293.142857 133.396364 
L 293.142857 34.56 
" style="fill:none;stroke:#ffffff;stroke-linecap:round;"/>
     </g>
    </g>
    <g id="xtick_7">
     <g id="line2d_7">
      <path clip-path="url(#pf6d2123a19)" d="M 340.971429 133.396364 
L 340.971429 34.56 
" style="fill:none;stroke:#ffffff;stroke-linecap:round;"/>
     </g>
    </g>
    <g id="xtick_8">
     <g id="line2d_8">
      <path clip-path="url(#pf6d2123a19)" d="M 388.8 133.396364 
L 388.8 34.56 
" style="fill:none;stroke:#ffffff;stroke-linecap:round;"/>
     </g>
    </g>
   </g>
   <g id="matplotlib.axis_2">
    <g id="ytick_1">
     <g id="line2d_9">
      <path clip-path="url(#pf6d2123a19)" d="M 54 113.629091 
L 388.8 113.629091 
" style="fill:none;stroke:#ffffff;stroke-linecap:round;"/>
     </g>
     <g id="text_1">
      <!-- 0 -->
      <defs>
       <path d="M 31.78125 66.40625 
Q 24.171875 66.40625 20.328125 58.90625 
Q 16.5 51.421875 16.5 36.375 
Q 16.5 21.390625 20.328125 13.890625 
Q 24.171875 6.390625 31.78125 6.390625 
Q 39.453125 6.390625 43.28125 13.890625 
Q 47.125 21.390625 47.125 36.375 
Q 47.125 51.421875 43.28125 58.90625 
Q 39.453125 66.40625 31.78125 66.40625 
z
M 31.78125 74.21875 
Q 44.046875 74.21875 50.515625 64.515625 
Q 56.984375 54.828125 56.984375 36.375 
Q 56.984375 17.96875 50.515625 8.265625 
Q 44.046875 -1.421875 31.78125 -1.421875 
Q 19.53125 -1.421875 13.0625 8.265625 
Q 6.59375 17.96875 6.59375 36.375 
Q 6.59375 54.828125 13.0625 64.515625 
Q 19.53125 74.21875 31.78125 74.21875 
z
" id="DejaVuSans-48"/>
      </defs>
      <g style="fill:#262626;" transform="translate(37.50125 117.808232)scale(0.11 -0.11)">
       <use xlink:href="#DejaVuSans-48"/>
      </g>
     </g>
    </g>
    <g id="ytick_2">
     <g id="line2d_10">
      <path clip-path="url(#pf6d2123a19)" d="M 54 74.094545 
L 388.8 74.094545 
" style="fill:none;stroke:#ffffff;stroke-linecap:round;"/>
     </g>
     <g id="text_2">
      <!-- 2000 -->
      <defs>
       <path d="M 19.1875 8.296875 
L 53.609375 8.296875 
L 53.609375 0 
L 7.328125 0 
L 7.328125 8.296875 
Q 12.9375 14.109375 22.625 23.890625 
Q 32.328125 33.6875 34.8125 36.53125 
Q 39.546875 41.84375 41.421875 45.53125 
Q 43.3125 49.21875 43.3125 52.78125 
Q 43.3125 58.59375 39.234375 62.25 
Q 35.15625 65.921875 28.609375 65.921875 
Q 23.96875 65.921875 18.8125 64.3125 
Q 13.671875 62.703125 7.8125 59.421875 
L 7.8125 69.390625 
Q 13.765625 71.78125 18.9375 73 
Q 24.125 74.21875 28.421875 74.21875 
Q 39.75 74.21875 46.484375 68.546875 
Q 53.21875 62.890625 53.21875 53.421875 
Q 53.21875 48.921875 51.53125 44.890625 
Q 49.859375 40.875 45.40625 35.40625 
Q 44.1875 33.984375 37.640625 27.21875 
Q 31.109375 20.453125 19.1875 8.296875 
z
" id="DejaVuSans-50"/>
      </defs>
      <g style="fill:#262626;" transform="translate(16.505 78.273686)scale(0.11 -0.11)">
       <use xlink:href="#DejaVuSans-50"/>
       <use x="63.623047" xlink:href="#DejaVuSans-48"/>
       <use x="127.246094" xlink:href="#DejaVuSans-48"/>
       <use x="190.869141" xlink:href="#DejaVuSans-48"/>
      </g>
     </g>
    </g>
    <g id="ytick_3">
     <g id="line2d_11">
      <path clip-path="url(#pf6d2123a19)" d="M 54 34.56 
L 388.8 34.56 
" style="fill:none;stroke:#ffffff;stroke-linecap:round;"/>
     </g>
     <g id="text_3">
      <!-- 4000 -->
      <defs>
       <path d="M 37.796875 64.3125 
L 12.890625 25.390625 
L 37.796875 25.390625 
z
M 35.203125 72.90625 
L 47.609375 72.90625 
L 47.609375 25.390625 
L 58.015625 25.390625 
L 58.015625 17.1875 
L 47.609375 17.1875 
L 47.609375 0 
L 37.796875 0 
L 37.796875 17.1875 
L 4.890625 17.1875 
L 4.890625 26.703125 
z
" id="DejaVuSans-52"/>
      </defs>
      <g style="fill:#262626;" transform="translate(16.505 38.739141)scale(0.11 -0.11)">
       <use xlink:href="#DejaVuSans-52"/>
       <use x="63.623047" xlink:href="#DejaVuSans-48"/>
       <use x="127.246094" xlink:href="#DejaVuSans-48"/>
       <use x="190.869141" xlink:href="#DejaVuSans-48"/>
      </g>
     </g>
    </g>
    <g id="text_4">
     <!-- Pressure [Pa] -->
     <defs>
      <path d="M 19.671875 64.796875 
L 19.671875 37.40625 
L 32.078125 37.40625 
Q 38.96875 37.40625 42.71875 40.96875 
Q 46.484375 44.53125 46.484375 51.125 
Q 46.484375 57.671875 42.71875 61.234375 
Q 38.96875 64.796875 32.078125 64.796875 
z
M 9.8125 72.90625 
L 32.078125 72.90625 
Q 44.34375 72.90625 50.609375 67.359375 
Q 56.890625 61.8125 56.890625 51.125 
Q 56.890625 40.328125 50.609375 34.8125 
Q 44.34375 29.296875 32.078125 29.296875 
L 19.671875 29.296875 
L 19.671875 0 
L 9.8125 0 
z
" id="DejaVuSans-80"/>
      <path d="M 41.109375 46.296875 
Q 39.59375 47.171875 37.8125 47.578125 
Q 36.03125 48 33.890625 48 
Q 26.265625 48 22.1875 43.046875 
Q 18.109375 38.09375 18.109375 28.8125 
L 18.109375 0 
L 9.078125 0 
L 9.078125 54.6875 
L 18.109375 54.6875 
L 18.109375 46.1875 
Q 20.953125 51.171875 25.484375 53.578125 
Q 30.03125 56 36.53125 56 
Q 37.453125 56 38.578125 55.875 
Q 39.703125 55.765625 41.0625 55.515625 
z
" id="DejaVuSans-114"/>
      <path d="M 56.203125 29.59375 
L 56.203125 25.203125 
L 14.890625 25.203125 
Q 15.484375 15.921875 20.484375 11.0625 
Q 25.484375 6.203125 34.421875 6.203125 
Q 39.59375 6.203125 44.453125 7.46875 
Q 49.3125 8.734375 54.109375 11.28125 
L 54.109375 2.78125 
Q 49.265625 0.734375 44.1875 -0.34375 
Q 39.109375 -1.421875 33.890625 -1.421875 
Q 20.796875 -1.421875 13.15625 6.1875 
Q 5.515625 13.8125 5.515625 26.8125 
Q 5.515625 40.234375 12.765625 48.109375 
Q 20.015625 56 32.328125 56 
Q 43.359375 56 49.78125 48.890625 
Q 56.203125 41.796875 56.203125 29.59375 
z
M 47.21875 32.234375 
Q 47.125 39.59375 43.09375 43.984375 
Q 39.0625 48.390625 32.421875 48.390625 
Q 24.90625 48.390625 20.390625 44.140625 
Q 15.875 39.890625 15.1875 32.171875 
z
" id="DejaVuSans-101"/>
      <path d="M 44.28125 53.078125 
L 44.28125 44.578125 
Q 40.484375 46.53125 36.375 47.5 
Q 32.28125 48.484375 27.875 48.484375 
Q 21.1875 48.484375 17.84375 46.4375 
Q 14.5 44.390625 14.5 40.28125 
Q 14.5 37.15625 16.890625 35.375 
Q 19.28125 33.59375 26.515625 31.984375 
L 29.59375 31.296875 
Q 39.15625 29.25 43.1875 25.515625 
Q 47.21875 21.78125 47.21875 15.09375 
Q 47.21875 7.46875 41.1875 3.015625 
Q 35.15625 -1.421875 24.609375 -1.421875 
Q 20.21875 -1.421875 15.453125 -0.5625 
Q 10.6875 0.296875 5.421875 2 
L 5.421875 11.28125 
Q 10.40625 8.6875 15.234375 7.390625 
Q 20.0625 6.109375 24.8125 6.109375 
Q 31.15625 6.109375 34.5625 8.28125 
Q 37.984375 10.453125 37.984375 14.40625 
Q 37.984375 18.0625 35.515625 20.015625 
Q 33.0625 21.96875 24.703125 23.78125 
L 21.578125 24.515625 
Q 13.234375 26.265625 9.515625 29.90625 
Q 5.8125 33.546875 5.8125 39.890625 
Q 5.8125 47.609375 11.28125 51.796875 
Q 16.75 56 26.8125 56 
Q 31.78125 56 36.171875 55.265625 
Q 40.578125 54.546875 44.28125 53.078125 
z
" id="DejaVuSans-115"/>
      <path d="M 8.5 21.578125 
L 8.5 54.6875 
L 17.484375 54.6875 
L 17.484375 21.921875 
Q 17.484375 14.15625 20.5 10.265625 
Q 23.53125 6.390625 29.59375 6.390625 
Q 36.859375 6.390625 41.078125 11.03125 
Q 45.3125 15.671875 45.3125 23.6875 
L 45.3125 54.6875 
L 54.296875 54.6875 
L 54.296875 0 
L 45.3125 0 
L 45.3125 8.40625 
Q 42.046875 3.421875 37.71875 1 
Q 33.40625 -1.421875 27.6875 -1.421875 
Q 18.265625 -1.421875 13.375 4.4375 
Q 8.5 10.296875 8.5 21.578125 
z
M 31.109375 56 
z
" id="DejaVuSans-117"/>
      <path id="DejaVuSans-32"/>
      <path d="M 8.59375 75.984375 
L 29.296875 75.984375 
L 29.296875 69 
L 17.578125 69 
L 17.578125 -6.203125 
L 29.296875 -6.203125 
L 29.296875 -13.1875 
L 8.59375 -13.1875 
z
" id="DejaVuSans-91"/>
      <path d="M 34.28125 27.484375 
Q 23.390625 27.484375 19.1875 25 
Q 14.984375 22.515625 14.984375 16.5 
Q 14.984375 11.71875 18.140625 8.90625 
Q 21.296875 6.109375 26.703125 6.109375 
Q 34.1875 6.109375 38.703125 11.40625 
Q 43.21875 16.703125 43.21875 25.484375 
L 43.21875 27.484375 
z
M 52.203125 31.203125 
L 52.203125 0 
L 43.21875 0 
L 43.21875 8.296875 
Q 40.140625 3.328125 35.546875 0.953125 
Q 30.953125 -1.421875 24.3125 -1.421875 
Q 15.921875 -1.421875 10.953125 3.296875 
Q 6 8.015625 6 15.921875 
Q 6 25.140625 12.171875 29.828125 
Q 18.359375 34.515625 30.609375 34.515625 
L 43.21875 34.515625 
L 43.21875 35.40625 
Q 43.21875 41.609375 39.140625 45 
Q 35.0625 48.390625 27.6875 48.390625 
Q 23 48.390625 18.546875 47.265625 
Q 14.109375 46.140625 10.015625 43.890625 
L 10.015625 52.203125 
Q 14.9375 54.109375 19.578125 55.046875 
Q 24.21875 56 28.609375 56 
Q 40.484375 56 46.34375 49.84375 
Q 52.203125 43.703125 52.203125 31.203125 
z
" id="DejaVuSans-97"/>
      <path d="M 30.421875 75.984375 
L 30.421875 -13.1875 
L 9.71875 -13.1875 
L 9.71875 -6.203125 
L 21.390625 -6.203125 
L 21.390625 69 
L 9.71875 69 
L 9.71875 75.984375 
z
" id="DejaVuSans-93"/>
     </defs>
     <g style="fill:#262626;" transform="translate(10.009375 123.841619)rotate(-90)scale(0.12 -0.12)">
      <use xlink:href="#DejaVuSans-80"/>
      <use x="60.287109" xlink:href="#DejaVuSans-114"/>
      <use x="101.369141" xlink:href="#DejaVuSans-101"/>
      <use x="162.892578" xlink:href="#DejaVuSans-115"/>
      <use x="214.992188" xlink:href="#DejaVuSans-115"/>
      <use x="267.091797" xlink:href="#DejaVuSans-117"/>
      <use x="330.470703" xlink:href="#DejaVuSans-114"/>
      <use x="371.552734" xlink:href="#DejaVuSans-101"/>
      <use x="433.076172" xlink:href="#DejaVuSans-32"/>
      <use x="464.863281" xlink:href="#DejaVuSans-91"/>
      <use x="503.876953" xlink:href="#DejaVuSans-80"/>
      <use x="564.117188" xlink:href="#DejaVuSans-97"/>
      <use x="625.396484" xlink:href="#DejaVuSans-93"/>
     </g>
    </g>
   </g>
   <g id="line2d_12">
    <path clip-path="url(#pf6d2123a19)" d="M 54 113.629091 
L 55.019083 -1 
M 60.326496 -1 
L 60.696 10.697956 
L 62.609143 47.959957 
L 63.565714 60.797595 
L 64.522286 70.674451 
L 65.478857 83.320782 
L 66.435429 88.179162 
L 67.392 93.817836 
L 68.348571 89.607348 
L 69.305143 102.276865 
L 70.261714 99.267438 
L 71.218286 104.121323 
L 72.174857 105.995915 
L 73.131429 101.625784 
L 74.088 104.621307 
L 75.044571 94.816026 
L 76.001143 97.142938 
L 76.957714 97.010535 
L 77.914286 89.139417 
L 78.870857 87.60769 
L 79.827429 74.818008 
L 80.784 81.952491 
L 81.740571 90.093998 
L 82.697143 91.92168 
L 83.653714 105.555846 
L 84.610286 101.879019 
L 85.566857 108.601848 
L 86.523429 103.079843 
L 87.48 108.571114 
L 88.436571 110.583488 
L 89.393143 108.118734 
L 90.349714 113.778802 
L 91.306286 106.06908 
L 92.262857 112.551609 
L 93.219429 110.129001 
L 94.176 111.004276 
L 95.132571 114.183125 
L 96.089143 108.90529 
L 97.045714 114.145645 
L 98.002286 103.378728 
L 98.958857 106.750887 
L 99.915429 102.405158 
L 100.872 99.867719 
L 101.828571 97.812663 
L 102.785143 92.686614 
L 103.741714 98.065698 
L 104.698286 98.590652 
L 105.654857 103.94018 
L 106.611429 110.230646 
L 107.568 108.276849 
L 108.524571 114.868609 
L 109.481143 109.755298 
L 110.437714 116.807133 
L 111.394286 117.36196 
L 112.350857 117.302835 
L 113.307429 122.543202 
L 114.264 115.456478 
L 115.220571 119.07657 
L 116.177143 112.903732 
L 117.133714 114.473643 
L 118.090286 113.422482 
L 119.046857 108.288181 
L 120.003429 109.708171 
L 120.96 100.350491 
L 121.916571 99.449364 
L 123.829714 89.252486 
L 124.786286 93.007615 
L 125.742857 85.810391 
L 126.699429 91.222907 
L 127.656 89.001125 
L 128.612571 91.530189 
L 129.569143 94.635108 
L 130.525714 91.302174 
L 131.482286 94.659181 
L 132.438857 88.398085 
L 133.395429 92.225464 
L 135.308571 88.780107 
L 136.265143 91.866589 
L 137.221714 83.995201 
L 138.178286 86.847224 
L 139.134857 80.185198 
L 140.091429 81.530559 
L 141.048 80.167743 
L 142.004571 75.73003 
L 142.961143 77.147462 
L 143.917714 68.52308 
L 144.874286 69.47438 
L 145.830857 64.681014 
L 146.787429 63.795421 
L 147.744 69.723033 
L 148.700571 66.294538 
L 149.657143 73.315972 
L 150.613714 71.79662 
L 151.570286 77.78812 
L 152.526857 81.902934 
L 153.483429 81.357259 
L 154.44 87.242964 
L 155.396571 84.058081 
L 156.353143 89.96049 
L 157.309714 90.290307 
L 158.266286 93.238536 
L 159.222857 97.773178 
L 160.179429 93.052684 
L 161.136 98.726279 
L 162.092571 94.767812 
L 163.049143 98.387602 
L 164.005714 99.981208 
L 164.962286 97.083421 
L 165.918857 100.38703 
L 166.875429 93.43866 
L 167.832 96.01894 
L 168.788571 93.181587 
L 169.745143 94.924469 
L 170.701714 101.762327 
L 171.658286 98.324452 
L 172.614857 104.902666 
L 173.571429 101.777678 
L 174.528 107.268829 
L 175.484571 109.691405 
L 176.441143 108.388564 
L 177.397714 112.821569 
L 178.354286 108.675078 
L 179.310857 113.742359 
L 180.267429 111.617609 
L 181.224 113.42656 
L 182.180571 116.379778 
L 183.137143 112.312955 
L 184.093714 115.844559 
L 185.050286 111.117983 
L 186.006857 114.007938 
L 186.963429 113.370118 
L 187.92 110.577532 
L 188.876571 111.844081 
L 189.833143 104.699476 
L 190.789714 105.979896 
L 191.746286 104.964334 
L 192.702857 108.158834 
L 193.659429 114.929867 
L 194.616 112.705706 
L 195.572571 117.4155 
L 196.529143 113.96575 
L 197.485714 118.163156 
L 198.442286 119.404102 
L 199.398857 118.453519 
L 200.355429 121.053333 
L 201.312 116.62205 
L 202.268571 120.832412 
L 203.225143 118.846243 
L 205.138286 121.193961 
L 206.094857 117.373953 
L 207.051429 120.025148 
L 208.008 114.198477 
L 208.964571 116.381259 
L 209.921143 114.611461 
L 210.877714 111.409454 
L 211.834286 111.397892 
L 212.790857 103.570526 
L 213.747429 107.198548 
L 214.704 106.240845 
L 215.660571 111.505766 
L 216.617143 115.811926 
L 217.573714 114.762756 
L 218.530286 119.5468 
L 219.486857 116.514646 
L 220.443429 120.990601 
L 221.4 121.179317 
L 222.356571 121.145221 
L 223.313143 123.542477 
L 224.269714 118.539971 
L 225.226286 122.680017 
L 226.182857 120.348872 
L 227.139429 122.045154 
L 228.096 122.805215 
L 229.052571 118.929329 
L 230.009143 121.467633 
L 230.965714 115.434978 
L 231.922286 116.333521 
L 232.878857 113.6528 
L 233.835429 109.783607 
L 234.792 110.502102 
L 235.748571 103.021245 
L 236.705143 107.504866 
L 237.661714 106.183813 
L 238.618286 111.651314 
L 239.574857 116.013506 
L 240.531429 115.605608 
L 241.488 121.171274 
L 242.444571 118.084039 
L 243.401143 122.145949 
L 244.357714 121.48371 
L 245.314286 120.956908 
L 246.270857 122.985263 
L 247.227429 117.784255 
L 248.184 120.629378 
L 249.140571 117.091465 
L 250.097143 119.226135 
L 251.053714 118.920274 
L 252.010286 114.97224 
L 252.966857 117.202245 
L 253.923429 111.113549 
L 254.88 111.917245 
L 255.836571 107.277584 
L 256.793143 103.849895 
L 257.749714 105.752742 
L 258.706286 98.876441 
L 259.662857 104.933839 
L 260.619429 103.684304 
L 261.576 109.531737 
L 262.532571 113.23308 
L 263.489143 113.272906 
L 264.445714 118.208423 
L 265.402286 114.595882 
L 266.358857 119.588692 
L 267.315429 118.390541 
L 268.272 119.110131 
L 269.228571 120.69157 
L 270.185143 116.487696 
L 271.141714 119.534194 
L 272.098286 115.374394 
L 273.054857 117.982803 
L 274.011429 117.627397 
L 274.968 114.266042 
L 275.924571 115.38103 
L 276.881143 108.860776 
L 277.837714 109.990669 
L 278.794286 104.628008 
L 279.750857 101.23527 
L 280.707429 105.304701 
L 281.664 102.220834 
L 282.620571 108.572541 
L 283.577143 107.775092 
L 284.533714 113.665969 
L 285.490286 117.293524 
L 286.446857 117.078585 
L 287.403429 121.523458 
L 288.36 116.737402 
L 289.316571 120.742026 
L 290.273143 119.913133 
L 291.229714 121.118881 
L 292.186286 122.050097 
L 293.142857 117.260121 
L 294.099429 120.929416 
L 295.056 116.068422 
L 296.012571 118.491037 
L 296.969143 117.05688 
L 297.925714 114.107029 
L 298.882286 114.48328 
L 299.838857 108.009492 
L 300.795429 107.610445 
L 301.752 102.128335 
L 302.708571 102.448152 
L 303.665143 106.818222 
L 304.621714 107.498125 
L 305.578286 113.363147 
L 306.534857 110.173851 
L 307.491429 116.744008 
L 308.448 119.057502 
L 309.404571 119.213423 
L 310.361143 122.947083 
L 311.317714 118.556872 
L 312.274286 123.090621 
L 313.230857 121.127316 
L 314.187429 122.139119 
L 315.144 123.880262 
L 316.100571 119.238387 
L 317.057143 122.371914 
L 318.013714 117.094482 
L 318.970286 118.907417 
L 319.926857 117.221838 
L 320.883429 114.173615 
L 321.84 114.561439 
L 322.796571 105.626265 
L 323.753143 106.349158 
L 324.709714 101.012779 
L 325.666286 102.88387 
L 326.622857 109.539916 
L 327.579429 109.878146 
L 328.536 114.668592 
L 329.492571 111.803517 
L 330.449143 117.174958 
L 331.405714 118.807057 
L 332.362286 118.191698 
L 333.318857 121.725282 
L 334.275429 117.057954 
L 335.232 121.792107 
L 336.188571 119.425454 
L 336.188571 119.425454 
" style="fill:none;stroke:#001c7f;stroke-linecap:round;stroke-width:1.5;"/>
   </g>
   <g id="patch_3">
    <path d="M 54 133.396364 
L 54 34.56 
" style="fill:none;stroke:#ffffff;stroke-linecap:square;stroke-linejoin:miter;stroke-width:1.25;"/>
   </g>
   <g id="patch_4">
    <path d="M 388.8 133.396364 
L 388.8 34.56 
" style="fill:none;stroke:#ffffff;stroke-linecap:square;stroke-linejoin:miter;stroke-width:1.25;"/>
   </g>
   <g id="patch_5">
    <path d="M 54 133.396364 
L 388.8 133.396364 
" style="fill:none;stroke:#ffffff;stroke-linecap:square;stroke-linejoin:miter;stroke-width:1.25;"/>
   </g>
   <g id="patch_6">
    <path d="M 54 34.56 
L 388.8 34.56 
" style="fill:none;stroke:#ffffff;stroke-linecap:square;stroke-linejoin:miter;stroke-width:1.25;"/>
   </g>
   <g id="text_5">
    <!-- Pressure vs Time for u=9[m/s] -->
    <defs>
     <path d="M 2.984375 54.6875 
L 12.5 54.6875 
L 29.59375 8.796875 
L 46.6875 54.6875 
L 56.203125 54.6875 
L 35.6875 0 
L 23.484375 0 
z
" id="DejaVuSans-118"/>
     <path d="M -0.296875 72.90625 
L 61.375 72.90625 
L 61.375 64.59375 
L 35.5 64.59375 
L 35.5 0 
L 25.59375 0 
L 25.59375 64.59375 
L -0.296875 64.59375 
z
" id="DejaVuSans-84"/>
     <path d="M 9.421875 54.6875 
L 18.40625 54.6875 
L 18.40625 0 
L 9.421875 0 
z
M 9.421875 75.984375 
L 18.40625 75.984375 
L 18.40625 64.59375 
L 9.421875 64.59375 
z
" id="DejaVuSans-105"/>
     <path d="M 52 44.1875 
Q 55.375 50.25 60.0625 53.125 
Q 64.75 56 71.09375 56 
Q 79.640625 56 84.28125 50.015625 
Q 88.921875 44.046875 88.921875 33.015625 
L 88.921875 0 
L 79.890625 0 
L 79.890625 32.71875 
Q 79.890625 40.578125 77.09375 44.375 
Q 74.3125 48.1875 68.609375 48.1875 
Q 61.625 48.1875 57.5625 43.546875 
Q 53.515625 38.921875 53.515625 30.90625 
L 53.515625 0 
L 44.484375 0 
L 44.484375 32.71875 
Q 44.484375 40.625 41.703125 44.40625 
Q 38.921875 48.1875 33.109375 48.1875 
Q 26.21875 48.1875 22.15625 43.53125 
Q 18.109375 38.875 18.109375 30.90625 
L 18.109375 0 
L 9.078125 0 
L 9.078125 54.6875 
L 18.109375 54.6875 
L 18.109375 46.1875 
Q 21.1875 51.21875 25.484375 53.609375 
Q 29.78125 56 35.6875 56 
Q 41.65625 56 45.828125 52.96875 
Q 50 49.953125 52 44.1875 
z
" id="DejaVuSans-109"/>
     <path d="M 37.109375 75.984375 
L 37.109375 68.5 
L 28.515625 68.5 
Q 23.6875 68.5 21.796875 66.546875 
Q 19.921875 64.59375 19.921875 59.515625 
L 19.921875 54.6875 
L 34.71875 54.6875 
L 34.71875 47.703125 
L 19.921875 47.703125 
L 19.921875 0 
L 10.890625 0 
L 10.890625 47.703125 
L 2.296875 47.703125 
L 2.296875 54.6875 
L 10.890625 54.6875 
L 10.890625 58.5 
Q 10.890625 67.625 15.140625 71.796875 
Q 19.390625 75.984375 28.609375 75.984375 
z
" id="DejaVuSans-102"/>
     <path d="M 30.609375 48.390625 
Q 23.390625 48.390625 19.1875 42.75 
Q 14.984375 37.109375 14.984375 27.296875 
Q 14.984375 17.484375 19.15625 11.84375 
Q 23.34375 6.203125 30.609375 6.203125 
Q 37.796875 6.203125 41.984375 11.859375 
Q 46.1875 17.53125 46.1875 27.296875 
Q 46.1875 37.015625 41.984375 42.703125 
Q 37.796875 48.390625 30.609375 48.390625 
z
M 30.609375 56 
Q 42.328125 56 49.015625 48.375 
Q 55.71875 40.765625 55.71875 27.296875 
Q 55.71875 13.875 49.015625 6.21875 
Q 42.328125 -1.421875 30.609375 -1.421875 
Q 18.84375 -1.421875 12.171875 6.21875 
Q 5.515625 13.875 5.515625 27.296875 
Q 5.515625 40.765625 12.171875 48.375 
Q 18.84375 56 30.609375 56 
z
" id="DejaVuSans-111"/>
     <path d="M 10.59375 45.40625 
L 73.1875 45.40625 
L 73.1875 37.203125 
L 10.59375 37.203125 
z
M 10.59375 25.484375 
L 73.1875 25.484375 
L 73.1875 17.1875 
L 10.59375 17.1875 
z
" id="DejaVuSans-61"/>
     <path d="M 10.984375 1.515625 
L 10.984375 10.5 
Q 14.703125 8.734375 18.5 7.8125 
Q 22.3125 6.890625 25.984375 6.890625 
Q 35.75 6.890625 40.890625 13.453125 
Q 46.046875 20.015625 46.78125 33.40625 
Q 43.953125 29.203125 39.59375 26.953125 
Q 35.25 24.703125 29.984375 24.703125 
Q 19.046875 24.703125 12.671875 31.3125 
Q 6.296875 37.9375 6.296875 49.421875 
Q 6.296875 60.640625 12.9375 67.421875 
Q 19.578125 74.21875 30.609375 74.21875 
Q 43.265625 74.21875 49.921875 64.515625 
Q 56.59375 54.828125 56.59375 36.375 
Q 56.59375 19.140625 48.40625 8.859375 
Q 40.234375 -1.421875 26.421875 -1.421875 
Q 22.703125 -1.421875 18.890625 -0.6875 
Q 15.09375 0.046875 10.984375 1.515625 
z
M 30.609375 32.421875 
Q 37.25 32.421875 41.125 36.953125 
Q 45.015625 41.5 45.015625 49.421875 
Q 45.015625 57.28125 41.125 61.84375 
Q 37.25 66.40625 30.609375 66.40625 
Q 23.96875 66.40625 20.09375 61.84375 
Q 16.21875 57.28125 16.21875 49.421875 
Q 16.21875 41.5 20.09375 36.953125 
Q 23.96875 32.421875 30.609375 32.421875 
z
" id="DejaVuSans-57"/>
     <path d="M 25.390625 72.90625 
L 33.6875 72.90625 
L 8.296875 -9.28125 
L 0 -9.28125 
z
" id="DejaVuSans-47"/>
    </defs>
    <g style="fill:#262626;" transform="translate(129.675938 28.56)scale(0.12 -0.12)">
     <use xlink:href="#DejaVuSans-80"/>
     <use x="60.287109" xlink:href="#DejaVuSans-114"/>
     <use x="101.369141" xlink:href="#DejaVuSans-101"/>
     <use x="162.892578" xlink:href="#DejaVuSans-115"/>
     <use x="214.992188" xlink:href="#DejaVuSans-115"/>
     <use x="267.091797" xlink:href="#DejaVuSans-117"/>
     <use x="330.470703" xlink:href="#DejaVuSans-114"/>
     <use x="371.552734" xlink:href="#DejaVuSans-101"/>
     <use x="433.076172" xlink:href="#DejaVuSans-32"/>
     <use x="464.863281" xlink:href="#DejaVuSans-118"/>
     <use x="524.042969" xlink:href="#DejaVuSans-115"/>
     <use x="576.142578" xlink:href="#DejaVuSans-32"/>
     <use x="607.929688" xlink:href="#DejaVuSans-84"/>
     <use x="668.966797" xlink:href="#DejaVuSans-105"/>
     <use x="696.75" xlink:href="#DejaVuSans-109"/>
     <use x="794.162109" xlink:href="#DejaVuSans-101"/>
     <use x="855.685547" xlink:href="#DejaVuSans-32"/>
     <use x="887.472656" xlink:href="#DejaVuSans-102"/>
     <use x="922.677734" xlink:href="#DejaVuSans-111"/>
     <use x="983.859375" xlink:href="#DejaVuSans-114"/>
     <use x="1024.972656" xlink:href="#DejaVuSans-32"/>
     <use x="1056.759766" xlink:href="#DejaVuSans-117"/>
     <use x="1120.138672" xlink:href="#DejaVuSans-61"/>
     <use x="1203.927734" xlink:href="#DejaVuSans-57"/>
     <use x="1267.550781" xlink:href="#DejaVuSans-91"/>
     <use x="1306.564453" xlink:href="#DejaVuSans-109"/>
     <use x="1403.976562" xlink:href="#DejaVuSans-47"/>
     <use x="1437.667969" xlink:href="#DejaVuSans-115"/>
     <use x="1489.767578" xlink:href="#DejaVuSans-93"/>
    </g>
   </g>
  </g>
  <g id="axes_2">
   <g id="patch_7">
    <path d="M 54 252 
L 388.8 252 
L 388.8 153.163636 
L 54 153.163636 
z
" style="fill:#eaeaf2;"/>
   </g>
   <g id="matplotlib.axis_3">
    <g id="xtick_9">
     <g id="line2d_13">
      <path clip-path="url(#p0a48c601d8)" d="M 54 252 
L 54 153.163636 
" style="fill:none;stroke:#ffffff;stroke-linecap:round;"/>
     </g>
     <g id="text_6">
      <!-- 0.000 -->
      <defs>
       <path d="M 10.6875 12.40625 
L 21 12.40625 
L 21 0 
L 10.6875 0 
z
" id="DejaVuSans-46"/>
      </defs>
      <g style="fill:#262626;" transform="translate(38.254531 269.858281)scale(0.11 -0.11)">
       <use xlink:href="#DejaVuSans-48"/>
       <use x="63.623047" xlink:href="#DejaVuSans-46"/>
       <use x="95.410156" xlink:href="#DejaVuSans-48"/>
       <use x="159.033203" xlink:href="#DejaVuSans-48"/>
       <use x="222.65625" xlink:href="#DejaVuSans-48"/>
      </g>
     </g>
    </g>
    <g id="xtick_10">
     <g id="line2d_14">
      <path clip-path="url(#p0a48c601d8)" d="M 101.828571 252 
L 101.828571 153.163636 
" style="fill:none;stroke:#ffffff;stroke-linecap:round;"/>
     </g>
     <g id="text_7">
      <!-- 0.005 -->
      <defs>
       <path d="M 10.796875 72.90625 
L 49.515625 72.90625 
L 49.515625 64.59375 
L 19.828125 64.59375 
L 19.828125 46.734375 
Q 21.96875 47.46875 24.109375 47.828125 
Q 26.265625 48.1875 28.421875 48.1875 
Q 40.625 48.1875 47.75 41.5 
Q 54.890625 34.8125 54.890625 23.390625 
Q 54.890625 11.625 47.5625 5.09375 
Q 40.234375 -1.421875 26.90625 -1.421875 
Q 22.3125 -1.421875 17.546875 -0.640625 
Q 12.796875 0.140625 7.71875 1.703125 
L 7.71875 11.625 
Q 12.109375 9.234375 16.796875 8.0625 
Q 21.484375 6.890625 26.703125 6.890625 
Q 35.15625 6.890625 40.078125 11.328125 
Q 45.015625 15.765625 45.015625 23.390625 
Q 45.015625 31 40.078125 35.4375 
Q 35.15625 39.890625 26.703125 39.890625 
Q 22.75 39.890625 18.8125 39.015625 
Q 14.890625 38.140625 10.796875 36.28125 
z
" id="DejaVuSans-53"/>
      </defs>
      <g style="fill:#262626;" transform="translate(86.083103 269.858281)scale(0.11 -0.11)">
       <use xlink:href="#DejaVuSans-48"/>
       <use x="63.623047" xlink:href="#DejaVuSans-46"/>
       <use x="95.410156" xlink:href="#DejaVuSans-48"/>
       <use x="159.033203" xlink:href="#DejaVuSans-48"/>
       <use x="222.65625" xlink:href="#DejaVuSans-53"/>
      </g>
     </g>
    </g>
    <g id="xtick_11">
     <g id="line2d_15">
      <path clip-path="url(#p0a48c601d8)" d="M 149.657143 252 
L 149.657143 153.163636 
" style="fill:none;stroke:#ffffff;stroke-linecap:round;"/>
     </g>
     <g id="text_8">
      <!-- 0.010 -->
      <defs>
       <path d="M 12.40625 8.296875 
L 28.515625 8.296875 
L 28.515625 63.921875 
L 10.984375 60.40625 
L 10.984375 69.390625 
L 28.421875 72.90625 
L 38.28125 72.90625 
L 38.28125 8.296875 
L 54.390625 8.296875 
L 54.390625 0 
L 12.40625 0 
z
" id="DejaVuSans-49"/>
      </defs>
      <g style="fill:#262626;" transform="translate(133.911674 269.858281)scale(0.11 -0.11)">
       <use xlink:href="#DejaVuSans-48"/>
       <use x="63.623047" xlink:href="#DejaVuSans-46"/>
       <use x="95.410156" xlink:href="#DejaVuSans-48"/>
       <use x="159.033203" xlink:href="#DejaVuSans-49"/>
       <use x="222.65625" xlink:href="#DejaVuSans-48"/>
      </g>
     </g>
    </g>
    <g id="xtick_12">
     <g id="line2d_16">
      <path clip-path="url(#p0a48c601d8)" d="M 197.485714 252 
L 197.485714 153.163636 
" style="fill:none;stroke:#ffffff;stroke-linecap:round;"/>
     </g>
     <g id="text_9">
      <!-- 0.015 -->
      <g style="fill:#262626;" transform="translate(181.740246 269.858281)scale(0.11 -0.11)">
       <use xlink:href="#DejaVuSans-48"/>
       <use x="63.623047" xlink:href="#DejaVuSans-46"/>
       <use x="95.410156" xlink:href="#DejaVuSans-48"/>
       <use x="159.033203" xlink:href="#DejaVuSans-49"/>
       <use x="222.65625" xlink:href="#DejaVuSans-53"/>
      </g>
     </g>
    </g>
    <g id="xtick_13">
     <g id="line2d_17">
      <path clip-path="url(#p0a48c601d8)" d="M 245.314286 252 
L 245.314286 153.163636 
" style="fill:none;stroke:#ffffff;stroke-linecap:round;"/>
     </g>
     <g id="text_10">
      <!-- 0.020 -->
      <g style="fill:#262626;" transform="translate(229.568817 269.858281)scale(0.11 -0.11)">
       <use xlink:href="#DejaVuSans-48"/>
       <use x="63.623047" xlink:href="#DejaVuSans-46"/>
       <use x="95.410156" xlink:href="#DejaVuSans-48"/>
       <use x="159.033203" xlink:href="#DejaVuSans-50"/>
       <use x="222.65625" xlink:href="#DejaVuSans-48"/>
      </g>
     </g>
    </g>
    <g id="xtick_14">
     <g id="line2d_18">
      <path clip-path="url(#p0a48c601d8)" d="M 293.142857 252 
L 293.142857 153.163636 
" style="fill:none;stroke:#ffffff;stroke-linecap:round;"/>
     </g>
     <g id="text_11">
      <!-- 0.025 -->
      <g style="fill:#262626;" transform="translate(277.397388 269.858281)scale(0.11 -0.11)">
       <use xlink:href="#DejaVuSans-48"/>
       <use x="63.623047" xlink:href="#DejaVuSans-46"/>
       <use x="95.410156" xlink:href="#DejaVuSans-48"/>
       <use x="159.033203" xlink:href="#DejaVuSans-50"/>
       <use x="222.65625" xlink:href="#DejaVuSans-53"/>
      </g>
     </g>
    </g>
    <g id="xtick_15">
     <g id="line2d_19">
      <path clip-path="url(#p0a48c601d8)" d="M 340.971429 252 
L 340.971429 153.163636 
" style="fill:none;stroke:#ffffff;stroke-linecap:round;"/>
     </g>
     <g id="text_12">
      <!-- 0.030 -->
      <defs>
       <path d="M 40.578125 39.3125 
Q 47.65625 37.796875 51.625 33 
Q 55.609375 28.21875 55.609375 21.1875 
Q 55.609375 10.40625 48.1875 4.484375 
Q 40.765625 -1.421875 27.09375 -1.421875 
Q 22.515625 -1.421875 17.65625 -0.515625 
Q 12.796875 0.390625 7.625 2.203125 
L 7.625 11.71875 
Q 11.71875 9.328125 16.59375 8.109375 
Q 21.484375 6.890625 26.8125 6.890625 
Q 36.078125 6.890625 40.9375 10.546875 
Q 45.796875 14.203125 45.796875 21.1875 
Q 45.796875 27.640625 41.28125 31.265625 
Q 36.765625 34.90625 28.71875 34.90625 
L 20.21875 34.90625 
L 20.21875 43.015625 
L 29.109375 43.015625 
Q 36.375 43.015625 40.234375 45.921875 
Q 44.09375 48.828125 44.09375 54.296875 
Q 44.09375 59.90625 40.109375 62.90625 
Q 36.140625 65.921875 28.71875 65.921875 
Q 24.65625 65.921875 20.015625 65.03125 
Q 15.375 64.15625 9.8125 62.3125 
L 9.8125 71.09375 
Q 15.4375 72.65625 20.34375 73.4375 
Q 25.25 74.21875 29.59375 74.21875 
Q 40.828125 74.21875 47.359375 69.109375 
Q 53.90625 64.015625 53.90625 55.328125 
Q 53.90625 49.265625 50.4375 45.09375 
Q 46.96875 40.921875 40.578125 39.3125 
z
" id="DejaVuSans-51"/>
      </defs>
      <g style="fill:#262626;" transform="translate(325.22596 269.858281)scale(0.11 -0.11)">
       <use xlink:href="#DejaVuSans-48"/>
       <use x="63.623047" xlink:href="#DejaVuSans-46"/>
       <use x="95.410156" xlink:href="#DejaVuSans-48"/>
       <use x="159.033203" xlink:href="#DejaVuSans-51"/>
       <use x="222.65625" xlink:href="#DejaVuSans-48"/>
      </g>
     </g>
    </g>
    <g id="xtick_16">
     <g id="line2d_20">
      <path clip-path="url(#p0a48c601d8)" d="M 388.8 252 
L 388.8 153.163636 
" style="fill:none;stroke:#ffffff;stroke-linecap:round;"/>
     </g>
     <g id="text_13">
      <!-- 0.035 -->
      <g style="fill:#262626;" transform="translate(373.054531 269.858281)scale(0.11 -0.11)">
       <use xlink:href="#DejaVuSans-48"/>
       <use x="63.623047" xlink:href="#DejaVuSans-46"/>
       <use x="95.410156" xlink:href="#DejaVuSans-48"/>
       <use x="159.033203" xlink:href="#DejaVuSans-51"/>
       <use x="222.65625" xlink:href="#DejaVuSans-53"/>
      </g>
     </g>
    </g>
    <g id="text_14">
     <!-- Time [s] -->
     <g style="fill:#262626;" transform="translate(196.820625 285.264062)scale(0.12 -0.12)">
      <use xlink:href="#DejaVuSans-84"/>
      <use x="61.037109" xlink:href="#DejaVuSans-105"/>
      <use x="88.820312" xlink:href="#DejaVuSans-109"/>
      <use x="186.232422" xlink:href="#DejaVuSans-101"/>
      <use x="247.755859" xlink:href="#DejaVuSans-32"/>
      <use x="279.542969" xlink:href="#DejaVuSans-91"/>
      <use x="318.556641" xlink:href="#DejaVuSans-115"/>
      <use x="370.65625" xlink:href="#DejaVuSans-93"/>
     </g>
    </g>
   </g>
   <g id="matplotlib.axis_4">
    <g id="ytick_4">
     <g id="line2d_21">
      <path clip-path="url(#p0a48c601d8)" d="M 54 230.036364 
L 388.8 230.036364 
" style="fill:none;stroke:#ffffff;stroke-linecap:round;"/>
     </g>
     <g id="text_15">
      <!-- −0.50 -->
      <defs>
       <path d="M 10.59375 35.5 
L 73.1875 35.5 
L 73.1875 27.203125 
L 10.59375 27.203125 
z
" id="DejaVuSans-8722"/>
      </defs>
      <g style="fill:#262626;" transform="translate(10.790156 234.215504)scale(0.11 -0.11)">
       <use xlink:href="#DejaVuSans-8722"/>
       <use x="83.789062" xlink:href="#DejaVuSans-48"/>
       <use x="147.412109" xlink:href="#DejaVuSans-46"/>
       <use x="179.199219" xlink:href="#DejaVuSans-53"/>
       <use x="242.822266" xlink:href="#DejaVuSans-48"/>
      </g>
     </g>
    </g>
    <g id="ytick_5">
     <g id="line2d_22">
      <path clip-path="url(#p0a48c601d8)" d="M 54 202.581818 
L 388.8 202.581818 
" style="fill:none;stroke:#ffffff;stroke-linecap:round;"/>
     </g>
     <g id="text_16">
      <!-- −0.25 -->
      <g style="fill:#262626;" transform="translate(10.790156 206.760959)scale(0.11 -0.11)">
       <use xlink:href="#DejaVuSans-8722"/>
       <use x="83.789062" xlink:href="#DejaVuSans-48"/>
       <use x="147.412109" xlink:href="#DejaVuSans-46"/>
       <use x="179.199219" xlink:href="#DejaVuSans-50"/>
       <use x="242.822266" xlink:href="#DejaVuSans-53"/>
      </g>
     </g>
    </g>
    <g id="ytick_6">
     <g id="line2d_23">
      <path clip-path="url(#p0a48c601d8)" d="M 54 175.127273 
L 388.8 175.127273 
" style="fill:none;stroke:#ffffff;stroke-linecap:round;"/>
     </g>
     <g id="text_17">
      <!-- 0.00 -->
      <g style="fill:#262626;" transform="translate(20.007812 179.306413)scale(0.11 -0.11)">
       <use xlink:href="#DejaVuSans-48"/>
       <use x="63.623047" xlink:href="#DejaVuSans-46"/>
       <use x="95.410156" xlink:href="#DejaVuSans-48"/>
       <use x="159.033203" xlink:href="#DejaVuSans-48"/>
      </g>
     </g>
    </g>
    <g id="text_18">
     <!-- Torque [Nm] -->
     <defs>
      <path d="M 14.796875 27.296875 
Q 14.796875 17.390625 18.875 11.75 
Q 22.953125 6.109375 30.078125 6.109375 
Q 37.203125 6.109375 41.296875 11.75 
Q 45.40625 17.390625 45.40625 27.296875 
Q 45.40625 37.203125 41.296875 42.84375 
Q 37.203125 48.484375 30.078125 48.484375 
Q 22.953125 48.484375 18.875 42.84375 
Q 14.796875 37.203125 14.796875 27.296875 
z
M 45.40625 8.203125 
Q 42.578125 3.328125 38.25 0.953125 
Q 33.9375 -1.421875 27.875 -1.421875 
Q 17.96875 -1.421875 11.734375 6.484375 
Q 5.515625 14.40625 5.515625 27.296875 
Q 5.515625 40.1875 11.734375 48.09375 
Q 17.96875 56 27.875 56 
Q 33.9375 56 38.25 53.625 
Q 42.578125 51.265625 45.40625 46.390625 
L 45.40625 54.6875 
L 54.390625 54.6875 
L 54.390625 -20.796875 
L 45.40625 -20.796875 
z
" id="DejaVuSans-113"/>
      <path d="M 9.8125 72.90625 
L 23.09375 72.90625 
L 55.421875 11.921875 
L 55.421875 72.90625 
L 64.984375 72.90625 
L 64.984375 0 
L 51.703125 0 
L 19.390625 60.984375 
L 19.390625 0 
L 9.8125 0 
z
" id="DejaVuSans-78"/>
     </defs>
     <g style="fill:#262626;" transform="translate(4.294531 240.592756)rotate(-90)scale(0.12 -0.12)">
      <use xlink:href="#DejaVuSans-84"/>
      <use x="60.818359" xlink:href="#DejaVuSans-111"/>
      <use x="122" xlink:href="#DejaVuSans-114"/>
      <use x="163.097656" xlink:href="#DejaVuSans-113"/>
      <use x="226.574219" xlink:href="#DejaVuSans-117"/>
      <use x="289.953125" xlink:href="#DejaVuSans-101"/>
      <use x="351.476562" xlink:href="#DejaVuSans-32"/>
      <use x="383.263672" xlink:href="#DejaVuSans-91"/>
      <use x="422.277344" xlink:href="#DejaVuSans-78"/>
      <use x="497.082031" xlink:href="#DejaVuSans-109"/>
      <use x="594.494141" xlink:href="#DejaVuSans-93"/>
     </g>
    </g>
   </g>
   <g id="line2d_24">
    <path clip-path="url(#p0a48c601d8)" d="M 54.166868 -1 
L 54.286971 185.375076 
L 54.956571 218.738939 
L 55.434857 230.776417 
L 55.626171 228.92675 
L 55.817486 234.260937 
L 55.913143 231.185831 
L 56.200114 236.308695 
L 56.295771 232.919311 
L 56.391429 233.839345 
L 56.582743 237.040501 
L 56.6784 233.923202 
L 56.869714 236.28146 
L 56.965371 236.047536 
L 57.061029 233.453565 
L 57.156686 233.59221 
L 57.252343 235.113675 
L 57.443657 230.861592 
L 57.539314 231.843576 
L 57.634971 232.346708 
L 57.826286 227.901136 
L 57.921943 228.510682 
L 58.0176 228.100972 
L 58.208914 224.201515 
L 58.304571 224.72862 
L 58.400229 224.556184 
L 58.591543 220.293207 
L 58.6872 221.302985 
L 58.782857 220.250487 
L 58.974171 217.199057 
L 59.069829 217.403275 
L 59.165486 216.684724 
L 59.3568 213.752458 
L 59.452457 214.190885 
L 59.548114 213.704368 
L 59.643771 210.986764 
L 59.835086 211.692895 
L 60.0264 208.833592 
L 60.122057 209.703099 
L 60.313371 208.149194 
L 60.409029 206.760642 
L 60.600343 207.396072 
L 60.791657 204.711961 
L 60.887314 206.140213 
L 61.174286 203.590004 
L 61.269943 204.663059 
L 61.556914 201.890546 
L 61.652571 203.620072 
L 61.939543 201.01323 
L 62.0352 202.758153 
L 62.226514 200.711186 
L 62.322171 200.244404 
L 62.417829 201.301031 
L 62.609143 199.903023 
L 62.7048 199.078904 
L 62.800457 200.440913 
L 62.991771 198.739522 
L 63.087429 198.8565 
L 63.183086 199.400726 
L 63.278743 197.841857 
L 63.3744 198.043472 
L 63.470057 198.043692 
L 63.565714 198.391541 
L 63.757029 197.047179 
L 63.852686 197.169781 
L 63.948343 197.754266 
L 64.044 196.125223 
L 64.139657 196.294387 
L 64.235314 196.977621 
L 64.426629 195.535653 
L 64.522286 196.100239 
L 64.617943 195.940553 
L 64.7136 196.106312 
L 64.809257 195.029479 
L 65.096229 195.602741 
L 65.191886 194.192302 
L 65.3832 195.043437 
L 65.574514 193.875158 
L 65.765829 194.56519 
L 65.957143 193.42978 
L 66.148457 194.287756 
L 66.244114 193.181832 
L 66.339771 193.243572 
L 66.531086 193.690411 
L 66.626743 192.694898 
L 66.913714 193.220664 
L 67.009371 192.504891 
L 67.105029 192.532774 
L 67.296343 192.948985 
L 67.392 192.074327 
L 67.583314 192.754486 
L 67.678971 192.583257 
L 67.774629 191.727543 
L 67.965943 192.413368 
L 68.0616 192.34046 
L 68.157257 191.464473 
L 68.348571 192.132201 
L 68.539886 191.379233 
L 68.7312 191.990491 
L 68.922514 191.374917 
L 69.018171 191.520601 
L 69.113829 191.904888 
L 69.305143 191.224158 
L 69.4008 191.357752 
L 69.496457 191.723666 
L 69.592114 190.867238 
L 69.879086 191.501614 
L 69.974743 190.682864 
L 70.166057 191.247956 
L 70.261714 191.272325 
L 70.357371 190.604103 
L 70.548686 190.94824 
L 70.644343 191.188281 
L 70.74 190.355628 
L 70.931314 190.953237 
L 71.026971 190.964285 
L 71.122629 190.14022 
L 71.313943 190.780163 
L 71.505257 190.105364 
L 71.696571 190.563448 
L 71.887886 189.855571 
L 72.0792 190.449962 
L 72.270514 189.724602 
L 72.366171 190.216269 
L 72.653143 189.676622 
L 72.844457 190.018102 
L 73.035771 189.568935 
L 73.131429 190.065005 
L 73.227086 190.028535 
L 73.322743 189.422822 
L 73.514057 190.170705 
L 73.705371 189.593183 
L 73.896686 190.200741 
L 73.992343 190.134334 
L 74.088 189.684749 
L 74.183657 189.901618 
L 74.279314 190.486586 
L 74.470629 189.973582 
L 74.661943 190.499809 
L 74.853257 190.221211 
L 74.948914 190.249467 
L 75.044571 190.820862 
L 75.140229 190.227811 
L 75.235886 190.329107 
L 75.4272 191.086995 
L 75.522857 190.284093 
L 75.809829 191.209509 
L 75.905486 190.630525 
L 76.192457 191.570206 
L 76.288114 190.841014 
L 76.575086 191.916046 
L 76.670743 191.04958 
L 76.862057 191.973645 
L 76.957714 192.156405 
L 77.053371 191.6245 
L 77.340343 192.61561 
L 77.436 192.110819 
L 77.627314 193.115722 
L 77.818629 192.781292 
L 78.009943 193.594792 
L 78.1056 193.404082 
L 78.201257 193.519073 
L 78.392571 194.298903 
L 78.488229 193.964605 
L 78.583886 194.018152 
L 78.7752 194.8673 
L 78.870857 194.225083 
L 79.157829 195.153804 
L 79.253486 194.568539 
L 79.540457 195.540463 
L 79.636114 194.483276 
L 79.827429 195.422573 
L 79.923086 195.150147 
L 80.018743 194.322437 
L 80.210057 194.891723 
L 80.401371 194.10101 
L 80.497029 194.384451 
L 80.592686 194.474414 
L 80.784 193.506015 
L 80.975314 194.24977 
L 81.166629 193.104696 
L 81.262286 193.707587 
L 81.357943 193.535436 
L 81.4536 192.781753 
L 81.549257 192.825274 
L 81.740571 193.055376 
L 81.931886 192.233354 
L 82.1232 192.70443 
L 82.218857 191.696365 
L 82.410171 192.255856 
L 82.505829 192.126172 
L 82.601486 191.4084 
L 82.888457 191.803702 
L 82.984114 190.979275 
L 83.175429 191.581693 
L 83.366743 190.759529 
L 83.558057 191.227211 
L 83.749371 190.588959 
L 83.940686 190.944572 
L 84.132 190.291725 
L 84.323314 190.692682 
L 84.514629 190.130819 
L 84.610286 190.551698 
L 84.897257 189.928688 
L 85.088571 190.292043 
L 85.279886 189.712193 
L 85.375543 190.184334 
L 85.4712 190.044898 
L 85.662514 189.639921 
L 85.758171 190.039143 
L 85.949486 189.542282 
L 86.045143 189.475633 
L 86.1408 189.862578 
L 86.332114 189.481025 
L 86.427771 189.465124 
L 86.523429 189.841756 
L 86.619086 189.415123 
L 86.714743 189.444214 
L 86.8104 189.42236 
L 86.906057 189.799498 
L 87.001714 189.318868 
L 87.288686 189.782498 
L 87.384343 189.288185 
L 87.671314 189.7937 
L 87.766971 189.186943 
L 87.958286 189.537307 
L 88.053943 189.778303 
L 88.1496 189.301516 
L 88.436571 189.875536 
L 88.532229 189.316265 
L 88.8192 189.821538 
L 88.914857 189.440799 
L 89.106171 189.749267 
L 89.201829 189.787099 
L 89.297486 189.586912 
L 89.4888 189.847972 
L 89.584457 189.820298 
L 89.680114 189.577775 
L 89.871429 189.947346 
L 90.062743 189.687978 
L 90.254057 189.88587 
L 90.445371 189.722032 
L 90.636686 190.066708 
L 90.828 189.660545 
L 91.019314 190.091219 
L 91.114971 189.607635 
L 91.306286 189.969387 
L 91.401943 189.961458 
L 91.593257 189.740987 
L 91.784571 189.93866 
L 91.880229 189.674272 
L 91.975886 189.726908 
L 92.071543 190.05029 
L 92.262857 189.703111 
L 92.454171 190.049027 
L 92.549829 189.783179 
L 92.645486 189.875931 
L 92.741143 189.77212 
L 92.8368 190.055286 
L 93.028114 189.761193 
L 93.123771 189.824602 
L 93.219429 190.115192 
L 93.315086 189.692304 
L 93.602057 190.034871 
L 93.697714 189.716882 
L 93.984686 190.196842 
L 94.080343 189.636012 
L 94.367314 190.054035 
L 94.462971 189.627984 
L 94.654286 189.970353 
L 94.749943 189.968223 
L 94.8456 189.808119 
L 95.132571 190.088715 
L 95.228229 189.74415 
L 95.419543 190.186464 
L 95.610857 189.832795 
L 95.802171 190.219596 
L 95.993486 189.97882 
L 96.1848 190.284499 
L 96.376114 190.032708 
L 96.567429 190.396228 
L 96.663086 190.010645 
L 96.950057 190.444779 
L 97.045714 190.150697 
L 97.141371 190.199708 
L 97.332686 190.595647 
L 97.428343 190.279052 
L 97.524 190.340462 
L 97.619657 190.887511 
L 97.810971 190.468236 
L 98.002286 190.99343 
L 98.097943 190.605498 
L 98.1936 190.917315 
L 98.289257 190.836742 
L 98.384914 191.220666 
L 98.480571 190.892584 
L 98.671886 191.110529 
L 98.767543 191.613299 
L 98.8632 191.024586 
L 99.150171 191.863476 
L 99.245829 191.356566 
L 99.5328 192.293392 
L 99.628457 191.681727 
L 99.915429 192.680929 
L 100.011086 191.998772 
L 100.2024 192.898106 
L 100.298057 192.951104 
L 100.393714 192.665379 
L 100.585029 193.298206 
L 100.680686 193.421851 
L 100.776343 193.09669 
L 100.967657 193.962024 
L 101.158971 193.477474 
L 101.350286 194.293796 
L 101.445943 193.804864 
L 101.732914 194.414135 
L 101.924229 194.014748 
L 102.115543 194.511719 
L 102.2112 193.8433 
L 102.498171 194.297376 
L 102.593829 193.664099 
L 102.8808 194.216759 
L 102.976457 193.325233 
L 103.167771 193.994629 
L 103.359086 193.07365 
L 103.5504 193.655412 
L 103.741714 193.100468 
L 103.837371 193.146053 
L 103.933029 193.424662 
L 104.124343 192.748555 
L 104.315657 193.404434 
L 104.411314 192.54962 
L 104.506971 192.67132 
L 104.698286 192.989354 
L 104.793943 192.43934 
L 105.080914 192.936883 
L 105.176571 192.212983 
L 105.272229 192.301178 
L 105.367886 192.736058 
L 105.463543 192.68116 
L 105.5592 191.894796 
L 105.750514 192.513292 
L 105.846171 192.442734 
L 105.941829 191.932606 
L 106.133143 192.385595 
L 106.2288 192.263214 
L 106.324457 191.74876 
L 106.515771 192.465301 
L 106.707086 191.72125 
L 106.8984 192.207745 
L 107.089714 191.756754 
L 107.281029 192.167398 
L 107.472343 191.583044 
L 107.663657 192.075271 
L 107.759314 191.531276 
L 108.046286 191.902494 
L 108.2376 191.571162 
L 108.333257 191.979773 
L 108.428914 191.955108 
L 108.524571 191.436931 
L 108.620229 191.532418 
L 108.715886 192.141887 
L 108.9072 191.499352 
L 109.002857 191.636471 
L 109.098514 191.990986 
L 109.194171 191.570129 
L 109.289829 191.633769 
L 109.385486 191.463485 
L 109.481143 192.059358 
L 109.672457 191.510355 
L 109.768114 191.582495 
L 109.863771 192.091876 
L 109.959429 191.29353 
L 110.2464 191.915793 
L 110.342057 191.363232 
L 110.437714 191.607303 
L 110.533371 191.495903 
L 110.629029 192.027522 
L 110.724686 191.27373 
L 111.011657 191.875644 
L 111.107314 191.20572 
L 111.202971 191.725248 
L 111.298629 191.638678 
L 111.394286 191.824194 
L 111.489943 191.260903 
L 111.776914 191.78657 
L 111.872571 191.149614 
L 112.063886 191.787449 
L 112.2552 191.280605 
L 112.446514 191.635834 
L 112.637829 191.343739 
L 112.829143 191.786021 
L 113.020457 191.258454 
L 113.211771 191.704668 
L 113.307429 191.195825 
L 113.498743 191.520195 
L 113.5944 191.569811 
L 113.785714 191.297264 
L 113.977029 191.669493 
L 114.072686 191.049679 
L 114.264 191.63277 
L 114.359657 191.434262 
L 114.455314 191.052106 
L 114.646629 191.493147 
L 114.9336 191.180758 
L 115.029257 191.603646 
L 115.220571 191.050646 
L 115.411886 191.608884 
L 115.507543 191.078111 
L 115.794514 191.462925 
L 115.890171 191.058245 
L 116.081486 191.174301 
L 116.177143 191.559444 
L 116.2728 190.964372 
L 116.559771 191.441642 
L 116.655429 190.896889 
L 116.846743 191.224279 
L 116.9424 191.387985 
L 117.038057 190.959639 
L 117.325029 191.437623 
L 117.420686 190.822663 
L 117.612 191.469942 
L 117.803314 190.991585 
L 117.994629 191.388897 
L 118.185943 191.078935 
L 118.2816 191.162968 
L 118.377257 191.551625 
L 118.568571 191.033975 
L 118.759886 191.559246 
L 118.855543 191.053457 
L 119.142514 191.518098 
L 119.238171 191.164143 
L 119.429486 191.395233 
L 119.525143 191.67125 
L 119.6208 191.132493 
L 119.907771 191.611838 
L 120.003429 191.188775 
L 120.194743 191.663519 
L 120.2904 191.681716 
L 120.386057 191.383318 
L 120.481714 191.47551 
L 120.577371 191.920032 
L 120.768686 191.467186 
L 120.96 192.125711 
L 121.055657 191.663727 
L 121.246971 191.864376 
L 121.342629 192.26798 
L 121.438286 191.830431 
L 121.6296 192.01396 
L 121.725257 192.559701 
L 121.820914 191.9605 
L 122.107886 192.745481 
L 122.203543 192.099706 
L 122.490514 192.909955 
L 122.586171 192.40075 
L 122.873143 193.223772 
L 122.9688 192.490395 
L 123.160114 193.243704 
L 123.255771 193.240497 
L 123.351429 192.691439 
L 123.542743 193.306344 
L 123.6384 193.22834 
L 123.734057 192.918971 
L 123.925371 193.316941 
L 124.021029 193.199052 
L 124.116686 192.706462 
L 124.308 193.299272 
L 124.499314 192.700257 
L 124.594971 193.051818 
L 124.690629 192.979163 
L 124.881943 192.477876 
L 125.073257 192.829711 
L 125.264571 192.207042 
L 125.360229 192.663084 
L 125.455886 192.547379 
L 125.551543 191.995587 
L 125.6472 192.08454 
L 125.742857 192.377535 
L 125.838514 192.326546 
L 126.029829 191.802593 
L 126.125486 192.229478 
L 126.221143 192.128357 
L 126.3168 191.53557 
L 126.508114 192.142765 
L 126.699429 191.498671 
L 126.890743 191.896432 
L 127.082057 191.417735 
L 127.177714 191.53322 
L 127.273371 191.864146 
L 127.464686 191.281275 
L 127.656 191.75145 
L 127.751657 191.216416 
L 127.847314 191.306357 
L 128.038629 191.598572 
L 128.229943 191.163747 
L 128.421257 191.559104 
L 128.516914 190.992343 
L 128.612571 191.079813 
L 128.708229 191.492697 
L 128.803886 191.355413 
L 128.899543 190.919468 
L 129.090857 191.355116 
L 129.186514 191.235898 
L 129.377829 190.975354 
L 129.473486 191.390357 
L 129.6648 190.88762 
L 129.856114 191.344431 
L 129.951771 190.927814 
L 130.047429 190.957432 
L 130.143086 191.026826 
L 130.238743 191.26098 
L 130.3344 190.896252 
L 130.430057 190.927572 
L 130.525714 190.995297 
L 130.621371 191.292487 
L 130.717029 190.825815 
L 130.812686 190.893155 
L 131.004 191.226827 
L 131.099657 190.773058 
L 131.386629 191.168513 
L 131.482286 190.833502 
L 131.577943 190.871477 
L 131.769257 191.187204 
L 131.864914 190.77856 
L 131.960571 190.903039 
L 132.056229 191.239269 
L 132.247543 190.86278 
L 132.3432 190.932229 
L 132.438857 191.244167 
L 132.630171 190.949009 
L 132.725829 190.915295 
L 132.821486 191.326959 
L 132.917143 190.913351 
L 133.0128 190.942222 
L 133.108457 190.983634 
L 133.204114 191.315198 
L 133.299771 190.813306 
L 133.586743 191.314692 
L 133.6824 190.812022 
L 133.778057 191.081164 
L 133.873714 190.957597 
L 133.969371 191.376608 
L 134.065029 190.750545 
L 134.352 191.339994 
L 134.447657 190.743363 
L 134.543314 191.201195 
L 134.638971 191.08671 
L 134.734629 191.313342 
L 134.830286 190.841299 
L 135.0216 191.180286 
L 135.117257 191.254545 
L 135.212914 190.876485 
L 135.404229 191.265593 
L 135.595543 190.944363 
L 135.786857 191.231692 
L 135.978171 190.999273 
L 136.169486 191.305501 
L 136.3608 190.977704 
L 136.552114 191.33648 
L 136.647771 191.019139 
L 136.934743 191.293882 
L 137.126057 191.099427 
L 137.317371 191.371886 
L 137.413029 191.018535 
L 137.508686 191.091135 
L 137.604343 191.447649 
L 137.795657 191.010836 
L 137.986971 191.397506 
L 138.273943 191.166668 
L 138.3696 191.464287 
L 138.560914 191.117086 
L 138.752229 191.543784 
L 138.847886 191.118546 
L 139.134857 191.496606 
L 139.230514 191.164648 
L 139.517486 191.570909 
L 139.613143 191.139994 
L 139.900114 191.544168 
L 139.995771 191.12306 
L 140.187086 191.504502 
L 140.282743 191.516 
L 140.3784 191.187775 
L 140.665371 191.56421 
L 140.761029 191.152172 
L 140.952343 191.677927 
L 141.143657 191.312024 
L 141.334971 191.709785 
L 141.526286 191.399439 
L 141.621943 191.514067 
L 141.7176 191.833616 
L 141.908914 191.414879 
L 142.100229 191.882485 
L 142.195886 191.376795 
L 142.482857 191.896388 
L 142.578514 191.529475 
L 142.865486 192.001682 
L 142.961143 191.539655 
L 143.152457 192.084661 
L 143.248114 192.031443 
L 143.343771 191.608138 
L 143.535086 192.169967 
L 143.7264 191.831255 
L 143.822057 191.915288 
L 143.917714 192.398872 
L 144.109029 191.986966 
L 144.204686 192.121999 
L 144.300343 192.638627 
L 144.396 192.078126 
L 144.682971 192.756989 
L 144.778629 192.187769 
L 145.0656 192.980854 
L 145.161257 192.30187 
L 145.448229 193.049435 
L 145.543886 192.342591 
L 145.7352 192.851697 
L 145.830857 193.093286 
L 145.926514 192.452639 
L 146.213486 193.233721 
L 146.309143 192.245896 
L 146.500457 192.929239 
L 146.596114 192.915655 
L 146.691771 192.233563 
L 146.787429 192.794009 
L 146.978743 192.680523 
L 147.0744 192.094962 
L 147.265714 192.519672 
L 147.361371 192.35053 
L 147.457029 191.821646 
L 147.552686 192.390779 
L 147.648343 192.293139 
L 147.839657 191.742906 
L 147.935314 192.163839 
L 148.222286 191.577355 
L 148.317943 191.935418 
L 148.4136 191.90278 
L 148.604914 191.392004 
L 148.700571 191.916738 
L 148.891886 191.338215 
L 148.987543 191.385942 
L 149.0832 191.745685 
L 149.370171 191.209322 
L 149.465829 191.706106 
L 149.657143 191.166482 
L 149.7528 191.291433 
L 149.848457 191.714485 
L 150.039771 191.230945 
L 150.135429 191.316219 
L 150.231086 191.634318 
L 150.4224 191.243091 
L 150.518057 191.258773 
L 150.613714 191.702724 
L 150.805029 191.171226 
L 150.996343 191.5953 
L 151.092 191.133163 
L 151.378971 191.567153 
L 151.474629 191.216932 
L 151.570286 191.287414 
L 151.7616 191.688437 
L 151.857257 191.117316 
L 152.048571 191.636778 
L 152.144229 191.50191 
L 152.239886 191.192058 
L 152.4312 191.604008 
L 152.718171 191.362584 
L 152.813829 191.689348 
L 153.005143 191.273554 
L 153.196457 191.755733 
L 153.292114 191.336052 
L 153.387771 191.406929 
L 153.483429 191.498319 
L 153.579086 191.74764 
L 153.674743 191.358675 
L 153.961714 191.816122 
L 154.057371 191.350812 
L 154.344343 191.737888 
L 154.44 191.329177 
L 154.726971 191.751439 
L 154.822629 191.387348 
L 155.1096 191.787569 
L 155.205257 191.368339 
L 155.396571 191.875731 
L 155.587886 191.517076 
L 155.7792 191.892764 
L 155.970514 191.617296 
L 156.066171 191.589611 
L 156.161829 191.993039 
L 156.353143 191.60145 
L 156.4488 191.689941 
L 156.544457 192.053264 
L 156.640114 191.462145 
L 156.735771 191.783649 
L 156.831429 191.69787 
L 156.927086 192.007678 
L 157.022743 191.538787 
L 157.1184 191.794115 
L 157.214057 191.694059 
L 157.309714 192.11027 
L 157.405371 191.480781 
L 157.596686 191.874249 
L 157.692343 192.069297 
L 157.788 191.483725 
L 157.883657 191.99953 
L 157.979314 191.837921 
L 158.074971 192.010841 
L 158.170629 191.633901 
L 158.361943 191.953812 
L 158.4576 192.013378 
L 158.553257 191.60414 
L 158.744571 192.088911 
L 158.935886 191.775478 
L 159.1272 192.053264 
L 159.318514 191.880563 
L 159.414171 191.912323 
L 159.509829 192.170055 
L 159.701143 191.788338 
L 159.892457 192.169956 
L 159.988114 191.844532 
L 160.179429 192.109425 
L 160.4664 191.928752 
L 160.657714 192.245116 
L 160.753371 191.866254 
L 160.849029 191.948508 
L 160.944686 192.340471 
L 161.136 191.957996 
L 161.327314 192.249146 
L 161.422971 192.03633 
L 161.518629 192.119176 
L 161.614286 191.969088 
L 161.709943 192.40008 
L 161.901257 192.011961 
L 161.996914 192.100562 
L 162.092571 192.488451 
L 162.188229 191.898563 
L 162.379543 192.188296 
L 162.4752 192.296028 
L 162.570857 192.097246 
L 162.666514 192.229192 
L 162.762171 192.108063 
L 162.857829 192.538836 
L 162.953486 192.039481 
L 163.240457 192.457362 
L 163.336114 192.007129 
L 163.431771 192.445347 
L 163.527429 192.314422 
L 163.623086 192.47916 
L 163.8144 192.254516 
L 164.005714 192.567366 
L 164.101371 192.155987 
L 164.292686 192.741835 
L 164.388343 192.36518 
L 164.484 192.422571 
L 164.675314 192.636618 
L 164.866629 192.491328 
L 164.962286 192.508152 
L 165.057943 192.906463 
L 165.249257 192.461886 
L 165.440571 193.005717 
L 165.536229 192.471583 
L 165.727543 192.850598 
L 165.8232 192.960988 
L 166.014514 192.809318 
L 166.205829 193.307826 
L 166.301486 192.713051 
L 166.4928 193.417085 
L 166.588457 193.181799 
L 166.684114 192.913667 
L 166.875429 193.346724 
L 167.066743 193.258211 
L 167.1624 193.215447 
L 167.258057 193.710442 
L 167.449371 193.254982 
L 167.640686 193.972358 
L 167.736343 193.222289 
L 167.832 193.651019 
L 167.927657 193.574092 
L 168.023314 193.874851 
L 168.118971 193.42755 
L 168.214629 193.690521 
L 168.310286 193.429933 
L 168.405943 194.105447 
L 168.5016 193.288433 
L 168.788571 193.848077 
L 168.884229 193.015326 
L 168.979886 193.690719 
L 169.075543 193.320379 
L 169.1712 193.62564 
L 169.266857 193.056409 
L 169.553829 193.557344 
L 169.649486 192.561162 
L 169.8408 193.184061 
L 170.032114 192.511875 
L 170.127771 192.960296 
L 170.223429 192.690747 
L 170.319086 192.762063 
L 170.414743 192.33654 
L 170.606057 192.690022 
L 170.701714 192.483399 
L 170.797371 191.949837 
L 170.893029 192.59951 
L 171.18 192.102978 
L 171.275657 192.281268 
L 171.371314 192.084584 
L 171.466971 192.146697 
L 171.562629 191.837218 
L 171.753943 192.270934 
L 171.945257 191.68959 
L 172.040914 192.19326 
L 172.232229 191.62852 
L 172.423543 191.888998 
L 172.614857 191.739524 
L 172.710514 191.49027 
L 172.806171 191.989657 
L 172.997486 191.504865 
L 173.093143 191.614419 
L 173.1888 192.025831 
L 173.284457 191.395255 
L 173.380114 191.725731 
L 173.475771 191.566044 
L 173.571429 191.822656 
L 173.667086 191.508489 
L 173.762743 191.656699 
L 173.8584 191.435119 
L 173.954057 192.007634 
L 174.049714 191.426323 
L 174.145371 191.474632 
L 174.336686 191.793906 
L 174.432343 191.266065 
L 174.528 191.676565 
L 174.623657 191.488908 
L 174.719314 191.710192 
L 174.910629 191.459905 
L 175.006286 191.49229 
L 175.101943 191.846783 
L 175.1976 191.184843 
L 175.388914 191.715661 
L 175.580229 191.325652 
L 175.771543 191.546804 
L 175.8672 191.551746 
L 176.058514 191.347429 
L 176.154171 191.734374 
L 176.345486 191.330956 
L 176.5368 191.722315 
L 176.632457 191.207817 
L 176.728114 191.495717 
L 176.823771 191.387337 
L 176.919429 191.563551 
L 177.015086 191.354249 
L 177.110743 191.439709 
L 177.2064 191.271314 
L 177.302057 191.725918 
L 177.397714 191.192926 
L 177.684686 191.503195 
L 177.780343 191.144826 
L 177.876 191.443893 
L 177.971657 191.335404 
L 178.067314 191.514012 
L 178.258629 191.224389 
L 178.449943 191.520448 
L 178.5456 191.094068 
L 178.736914 191.470316 
L 178.928229 191.212254 
L 179.119543 191.358686 
L 179.406514 191.129978 
L 179.502171 191.493817 
L 179.693486 191.133569 
L 179.8848 191.410619 
L 179.980457 191.029066 
L 180.076114 191.298824 
L 180.171771 191.110793 
L 180.267429 191.319689 
L 180.458743 191.167887 
L 180.5544 191.120633 
L 180.650057 191.493465 
L 180.745714 190.934095 
L 180.937029 191.283603 
L 181.032686 191.249438 
L 181.128343 190.950601 
L 181.224 191.274697 
L 181.319657 191.099548 
L 181.415314 191.278375 
L 181.510971 191.026727 
L 181.606629 191.079769 
L 181.797943 191.250767 
L 181.8936 190.896549 
L 182.084914 191.210069 
L 182.276229 191.029747 
L 182.371886 191.184953 
L 182.467543 191.090916 
L 182.5632 191.187479 
L 182.754514 191.043233 
L 182.850171 191.269909 
L 183.041486 190.938587 
L 183.137143 191.244947 
L 183.328457 191.022181 
L 183.711086 191.117733 
L 183.806743 190.929231 
L 183.998057 191.270128 
L 184.189371 190.971576 
L 184.285029 191.288292 
L 184.380686 191.028012 
L 184.476343 191.085985 
L 184.572 191.081603 
L 184.763314 191.146561 
L 184.954629 191.001425 
L 185.050286 191.286634 
L 185.2416 191.032482 
L 185.432914 191.302184 
L 185.528571 191.051744 
L 185.815543 191.271226 
L 186.102514 191.144057 
L 186.198171 191.406566 
L 186.293829 191.09611 
L 186.389486 191.150251 
L 186.485143 191.420085 
L 186.5808 191.367361 
L 186.676457 191.183042 
L 186.963429 191.43513 
L 187.154743 191.263089 
L 187.2504 191.554491 
L 187.346057 191.511212 
L 187.441714 191.340653 
L 187.537371 191.432593 
L 187.633029 191.729871 
L 187.728686 191.435525 
L 188.015657 191.75726 
L 188.111314 191.608105 
L 188.206971 191.685395 
L 188.302629 191.597496 
L 188.398286 192.027511 
L 188.493943 191.665364 
L 188.780914 192.157481 
L 188.876571 191.768143 
L 189.163543 192.276842 
L 189.2592 191.979751 
L 189.546171 192.569695 
L 189.641829 191.981135 
L 189.833143 192.44045 
L 189.9288 192.524351 
L 190.024457 192.150716 
L 190.215771 192.465642 
L 190.311429 192.537858 
L 190.407086 192.278215 
L 190.694057 192.510481 
L 190.789714 192.103088 
L 190.981029 192.467476 
L 191.172343 192.041612 
L 191.268 192.289274 
L 191.554971 191.838305 
L 191.746286 191.974502 
L 191.9376 191.530112 
L 192.033257 191.791534 
L 192.128914 191.710982 
L 192.224571 191.325191 
L 192.320229 191.381231 
L 192.511543 191.447254 
L 192.702857 191.058596 
L 192.894171 191.280605 
L 192.989829 190.811385 
L 193.181143 191.138841 
L 193.372457 190.756201 
L 193.563771 190.92028 
L 193.755086 190.625748 
L 193.850743 190.650303 
L 193.9464 190.906191 
L 194.137714 190.460065 
L 194.329029 190.735983 
L 194.424686 190.362382 
L 194.616 190.528713 
L 194.711657 190.625353 
L 194.902971 190.373759 
L 194.998629 190.466786 
L 195.094286 190.726133 
L 195.189943 190.346524 
L 195.2856 190.383577 
L 195.381257 190.653905 
L 195.476914 190.554718 
L 195.572571 190.29256 
L 195.763886 190.535401 
L 195.859543 190.570378 
L 196.050857 190.408286 
L 196.146514 190.678966 
L 196.242171 190.629943 
L 196.337829 190.390561 
L 196.529143 190.742825 
L 196.6248 190.482886 
L 196.720457 190.54367 
L 196.911771 190.734929 
L 197.198743 190.572409 
L 197.2944 190.87788 
L 197.485714 190.611911 
L 197.677029 190.875354 
L 197.772686 190.628724 
L 197.964 190.784358 
L 198.059657 190.885171 
L 198.250971 190.6666 
L 198.442286 191.009156 
L 198.6336 190.745571 
L 198.729257 191.088203 
L 198.920571 190.870039 
L 199.016229 190.869764 
L 199.111886 191.016393 
L 199.207543 190.899009 
L 199.3032 190.963285 
L 199.398857 190.752885 
L 199.494514 191.16579 
L 199.685829 190.895253 
L 199.781486 190.905784 
L 199.877143 191.227112 
L 199.9728 190.774947 
L 200.068457 191.079209 
L 200.164114 190.905916 
L 200.259771 191.159684 
L 200.355429 190.913109 
L 200.451086 191.06591 
L 200.546743 190.814624 
L 200.6424 191.327893 
L 200.738057 190.785479 
L 201.025029 191.237435 
L 201.120686 190.776375 
L 201.216343 191.188555 
L 201.312 190.892771 
L 201.407657 191.233141 
L 201.503314 190.944056 
L 201.790286 191.263638 
L 201.885943 190.80238 
L 202.077257 191.146462 
L 202.268571 190.942749 
L 202.364229 191.13939 
L 202.459886 190.998767 
L 202.555543 191.155577 
L 202.746857 190.961221 
L 202.842514 191.162693 
L 202.938171 191.087753 
L 203.033829 190.831558 
L 203.225143 191.109201 
L 203.416457 191.042684 
L 203.703429 191.11769 
L 203.799086 190.881602 
L 203.9904 191.239555 
L 204.181714 190.888598 
L 204.277371 191.178814 
L 204.468686 190.944353 
L 204.66 191.0026 
L 204.851314 191.057257 
L 204.946971 190.854982 
L 205.042629 191.120435 
L 205.138286 191.077847 
L 205.233943 190.873377 
L 205.425257 191.176827 
L 205.520914 190.915657 
L 205.616571 191.088214 
L 205.807886 191.045879 
L 205.9992 191.069776 
L 206.094857 190.891859 
L 206.190514 191.275268 
L 206.381829 190.960891 
L 206.573143 191.192959 
L 206.6688 190.912582 
L 206.764457 191.187106 
L 206.860114 191.00931 
L 206.955771 191.224092 
L 207.147086 191.017085 
L 207.3384 191.353711 
L 207.434057 190.989378 
L 207.625371 191.328189 
L 207.816686 191.159838 
L 208.103657 191.317833 
L 208.294971 191.163154 
L 208.390629 191.466395 
L 208.581943 191.178584 
L 208.773257 191.492224 
L 208.868914 191.248252 
L 208.964571 191.477739 
L 209.060229 191.421765 
L 209.251543 191.549571 
L 209.3472 191.425202 
L 209.442857 191.487766 
L 209.538514 191.795191 
L 209.634171 191.466802 
L 209.729829 191.533714 
L 209.825486 191.830827 
L 210.0168 191.632385 
L 210.208114 191.797222 
L 210.399429 191.902681 
L 210.495086 191.784099 
L 210.590743 192.128236 
L 210.6864 192.087384 
L 210.782057 191.960445 
L 210.877714 192.08633 
L 210.973371 192.410941 
L 211.069029 192.102253 
L 211.260343 192.293403 
L 211.451657 192.445754 
L 211.642971 192.433202 
L 211.738629 192.847798 
L 211.834286 192.557362 
L 211.929943 192.592284 
L 212.121257 192.934126 
L 212.216914 192.593426 
L 212.312571 192.951917 
L 212.408229 192.767664 
L 212.503886 193.065963 
L 212.6952 192.858791 
L 212.790857 192.844811 
L 212.886514 193.256047 
L 212.982171 192.540055 
L 213.173486 192.901302 
L 213.269143 192.947974 
L 213.3648 192.559877 
L 213.460457 192.879558 
L 213.556114 192.550509 
L 213.651771 192.87075 
L 213.747429 192.357921 
L 213.938743 192.484388 
L 214.0344 192.495886 
L 214.130057 192.024337 
L 214.225714 192.401354 
L 214.512686 191.954383 
L 214.608343 192.053461 
L 214.704 191.884528 
L 214.799657 191.964805 
L 214.895314 191.58703 
L 215.086629 191.799529 
L 215.277943 191.385558 
L 215.3736 191.689194 
L 215.564914 191.290247 
L 215.756229 191.29621 
L 215.851886 191.316438 
L 216.0432 190.979516 
L 216.138857 191.276596 
L 216.234514 191.226937 
L 216.425829 190.974245 
L 216.521486 191.172236 
L 216.617143 190.870621 
L 216.808457 190.951908 
L 216.999771 190.94153 
L 217.191086 190.724606 
L 217.286743 191.032427 
L 217.478057 190.753719 
L 217.669371 190.953643 
L 217.765029 190.655476 
L 217.860686 190.902709 
L 217.956343 190.739113 
L 218.147657 190.840981 
L 218.243314 190.722882 
L 218.434629 191.127881 
L 218.530286 190.687444 
L 218.7216 191.025805 
L 218.817257 190.953391 
L 218.912914 190.861659 
L 219.008571 191.01535 
L 219.104229 190.954225 
L 219.295543 191.037709 
L 219.3912 190.918359 
L 219.486857 191.178694 
L 219.582514 191.141575 
L 219.678171 190.973103 
L 219.869486 191.265626 
L 219.965143 191.101019 
L 220.156457 191.256664 
L 220.539086 191.243838 
L 220.634743 191.482418 
L 220.826057 191.270853 
L 221.017371 191.452448 
L 221.113029 191.337853 
L 221.208686 191.510597 
L 221.304343 191.394311 
L 221.495657 191.538216 
L 221.591314 191.391291 
L 221.782629 191.649034 
L 221.878286 191.421436 
L 222.260914 191.579717 
L 222.643543 191.645267 
L 222.7392 191.477882 
L 222.834857 191.840326 
L 223.026171 191.62998 
L 223.121829 191.633473 
L 223.217486 191.83366 
L 223.313143 191.500757 
L 223.4088 191.812729 
L 223.504457 191.580255 
L 223.600114 191.785527 
L 223.695771 191.679673 
L 223.791429 191.745904 
L 223.887086 191.592554 
L 223.982743 192.003769 
L 224.0784 191.561794 
L 224.269714 191.757886 
L 224.365371 191.852725 
L 224.461029 191.561641 
L 224.556686 191.861093 
L 224.652343 191.609357 
L 224.748 191.884802 
L 224.939314 191.700308 
L 225.034971 191.742445 
L 225.130629 191.939327 
L 225.226286 191.567615 
L 225.321943 191.858128 
L 225.4176 191.805733 
L 225.800229 191.628487 
L 225.895886 191.878389 
L 226.0872 191.65145 
L 226.278514 191.776181 
L 226.374171 191.58826 
L 226.565486 191.803779 
L 226.661143 191.67617 
L 227.043771 191.784517 
L 227.139429 191.537272 
L 227.330743 191.891897 
L 227.522057 191.582528 
L 227.617714 191.815617 
L 227.713371 191.644026 
L 227.809029 191.700374 
L 228.000343 191.636877 
L 228.191657 191.695432 
L 228.287314 191.50403 
L 228.382971 191.782298 
L 228.669943 191.663563 
L 228.7656 191.729981 
L 228.861257 191.59609 
L 228.956914 191.721832 
L 229.148229 191.660005 
L 229.339543 191.650176 
L 229.4352 191.542477 
L 229.530857 191.868429 
L 229.722171 191.624138 
L 229.913486 191.771031 
L 230.009143 191.598199 
L 230.1048 191.781551 
L 230.200457 191.561069 
L 230.296114 191.839986 
L 230.487429 191.597123 
L 230.678743 191.88243 
L 230.7744 191.646563 
L 230.965714 191.843434 
L 231.157029 191.833979 
L 231.348343 191.800067 
L 231.444 191.95278 
L 231.635314 191.80357 
L 231.730971 192.062466 
L 231.922286 191.901846 
L 232.1136 192.109205 
L 232.209257 192.011247 
L 232.304914 192.17067 
L 232.400571 192.084869 
L 232.591886 192.25433 
L 232.7832 192.216838 
L 232.878857 192.556582 
L 232.974514 192.225634 
L 233.261486 192.517267 
L 233.357143 192.487056 
L 233.644114 192.777734 
L 233.835429 192.68608 
L 234.026743 192.942055 
L 234.1224 192.861789 
L 234.313714 193.159945 
L 234.409371 192.976626 
L 234.600686 193.125869 
L 234.792 193.219368 
L 234.887657 193.257881 
L 234.983314 193.126418 
L 235.078971 193.485128 
L 235.174629 193.137246 
L 235.270286 193.206684 
L 235.4616 193.331646 
L 235.557257 192.985203 
L 235.652914 193.240574 
L 235.748571 192.946448 
L 235.844229 193.201588 
L 236.035543 192.866983 
L 236.1312 192.798292 
L 236.226857 193.030459 
L 236.322514 192.481104 
L 236.418171 192.702135 
L 236.896457 192.193622 
L 236.992114 192.362687 
L 237.087771 191.962312 
L 237.279086 192.044247 
L 237.374743 191.98108 
L 237.4704 191.661542 
L 237.566057 191.914486 
L 237.853029 191.552965 
L 237.948686 191.673194 
L 238.235657 191.238391 
L 238.426971 191.457676 
L 238.618286 191.083042 
L 238.713943 191.325257 
L 238.905257 190.985589 
L 239.000914 191.085985 
L 239.383543 190.733996 
L 239.4792 190.949404 
L 239.766171 190.749173 
L 239.861829 190.877451 
L 239.957486 190.605904 
L 240.053143 190.707628 
L 240.1488 190.607925 
L 240.340114 190.671279 
L 240.531429 190.556002 
L 240.627086 190.812615 
L 240.8184 190.522222 
L 241.009714 190.675309 
L 241.105371 190.478921 
L 241.201029 190.676495 
L 241.296686 190.501906 
L 241.392343 190.729889 
L 241.583657 190.526319 
L 241.679314 190.555805 
L 241.774971 190.808376 
L 241.870629 190.443263 
L 242.061943 190.659407 
L 242.922857 190.746328 
L 243.018514 190.59658 
L 243.209829 190.804807 
L 243.305486 190.703137 
L 243.401143 190.82252 
L 243.4968 190.760846 
L 243.688114 190.871488 
L 243.879429 190.77174 
L 243.975086 191.024333 
L 244.070743 190.78001 
L 244.357714 190.952095 
L 244.453371 190.841343 
L 244.549029 190.962462 
L 244.644686 190.877825 
L 244.836 190.993628 
L 244.931657 190.878022 
L 245.122971 191.085535 
L 245.218629 190.911165 
L 245.409943 191.109717 
L 245.5056 190.947559 
L 245.601257 191.054983 
L 245.696914 190.985699 
L 245.983886 191.062627 
L 246.079543 190.940915 
L 246.1752 191.215625 
L 246.366514 191.057883 
L 246.8448 190.983041 
L 246.940457 191.152645 
L 247.227429 190.966316 
L 247.323086 191.306258 
L 247.418743 190.873454 
L 247.610057 191.052282 
L 247.705714 191.137995 
L 247.801371 190.895286 
L 247.897029 191.112451 
L 247.992686 190.888697 
L 248.088343 191.140685 
L 248.184 190.943068 
L 248.279657 190.990059 
L 248.470971 191.138895 
L 248.566629 190.850436 
L 248.662286 191.061979 
L 248.8536 191.025519 
L 249.140571 190.890333 
L 249.236229 191.072609 
L 249.331886 190.865218 
L 249.427543 190.911967 
L 249.618857 190.95752 
L 249.714514 190.805751 
L 249.810171 190.982383 
L 250.001486 190.92509 
L 250.288457 190.943672 
L 250.384114 190.978813 
L 250.479771 190.722443 
L 250.671086 190.972466 
L 250.8624 190.775386 
L 250.958057 190.958783 
L 251.053714 190.821532 
L 251.149371 190.920171 
L 251.340686 190.85786 
L 251.532 190.895648 
L 251.627657 190.711977 
L 251.723314 190.973531 
L 251.914629 190.833118 
L 252.775543 190.831679 
L 252.8712 191.101491 
L 252.966857 190.837324 
L 253.062514 190.885852 
L 253.253829 191.030889 
L 253.349486 190.896351 
L 253.445143 191.014241 
L 253.5408 190.945275 
L 253.636457 191.124476 
L 253.827771 190.980461 
L 254.019086 191.201053 
L 254.114743 191.069249 
L 254.401714 191.232351 
L 254.784343 191.435822 
L 254.975657 191.388754 
L 255.071314 191.615407 
L 255.166971 191.467614 
L 255.836571 191.987087 
L 256.027886 191.924974 
L 256.2192 192.325931 
L 256.314857 192.01833 
L 256.601829 192.402782 
L 256.697486 192.338714 
L 256.984457 192.584882 
L 257.175771 192.508888 
L 257.271429 192.741955 
L 257.462743 192.498774 
L 257.654057 192.723352 
L 257.749714 192.478633 
L 257.941029 192.507153 
L 258.036686 192.555034 
L 258.323657 192.249454 
L 258.419314 192.415631 
L 258.514971 192.008062 
L 258.610629 192.056459 
L 258.801943 192.100529 
L 258.8976 191.71319 
L 258.993257 191.849639 
L 259.088914 191.671283 
L 259.184571 191.824337 
L 259.375886 191.450351 
L 259.471543 191.421853 
L 259.5672 191.538216 
L 259.662857 191.063604 
L 259.854171 191.2036 
L 259.949829 191.165922 
L 260.045486 190.919215 
L 260.141143 191.016602 
L 260.332457 190.992848 
L 260.428114 190.687609 
L 260.619429 190.770082 
L 260.715086 190.691617 
L 260.810743 190.437256 
L 260.9064 190.644318 
L 261.193371 190.301301 
L 261.384686 190.340792 
L 261.480343 190.27601 
L 261.576 190.03038 
L 261.767314 190.160317 
L 261.958629 189.849169 
L 262.054286 190.105364 
L 262.2456 189.84929 
L 262.341257 189.77626 
L 262.436914 189.883004 
L 262.723886 189.567134 
L 262.819543 189.835947 
L 263.010857 189.626842 
L 263.106514 189.6266 
L 263.202171 189.775876 
L 263.297829 189.543666 
L 263.393486 189.656416 
L 263.489143 189.564531 
L 263.5848 189.706515 
L 263.871771 189.510303 
L 263.967429 189.787023 
L 264.063086 189.540832 
L 264.158743 189.585506 
L 264.2544 189.613751 
L 264.350057 189.767398 
L 264.445714 189.512993 
L 264.541371 189.684332 
L 264.637029 189.560929 
L 264.732686 189.76899 
L 264.924 189.586033 
L 265.019657 189.619133 
L 265.115314 189.844161 
L 265.210971 189.525205 
L 265.497943 189.742975 
L 265.689257 189.742371 
L 266.071886 189.698432 
L 266.167543 189.877875 
L 266.358857 189.728149 
L 266.550171 189.923878 
L 266.645829 189.767255 
L 266.9328 189.952431 
L 267.219771 189.855824 
L 267.315429 190.110756 
L 267.411086 189.864862 
L 267.698057 190.069771 
L 267.793714 189.907779 
L 267.889371 190.06316 
L 267.985029 189.984728 
L 268.080686 190.135531 
L 268.272 189.990164 
L 268.463314 190.135893 
L 268.558971 189.97748 
L 268.750286 190.199533 
L 268.845943 190.071562 
L 269.132914 190.164775 
L 269.324229 190.176592 
L 269.419886 190.079622 
L 269.515543 190.317214 
L 269.706857 190.107274 
L 269.898171 190.261953 
L 269.993829 190.080534 
L 270.089486 190.24648 
L 270.185143 190.087309 
L 270.2808 190.279711 
L 270.472114 190.127613 
L 270.567771 190.142866 
L 270.663429 190.417862 
L 270.759086 190.027898 
L 270.9504 190.22333 
L 271.333029 190.113128 
L 271.428686 190.2806 
L 271.62 190.104452 
L 271.811314 190.241099 
L 271.906971 190.083334 
L 272.098286 190.216994 
L 272.385257 190.169245 
L 272.480914 190.13888 
L 272.576571 190.238804 
L 272.767886 190.129578 
L 272.863543 190.265764 
L 273.054857 190.079414 
L 273.246171 190.207912 
L 273.533143 190.137112 
L 273.724457 190.212096 
L 273.820114 190.042394 
L 274.011429 190.252201 
L 274.202743 190.141812 
L 274.2984 190.315874 
L 274.394057 190.161755 
L 274.489714 190.282929 
L 274.585371 190.178371 
L 274.776686 190.291439 
L 274.872343 190.28473 
L 274.968 190.150038 
L 275.063657 190.424396 
L 275.254971 190.29122 
L 275.350629 190.312503 
L 275.446286 190.477142 
L 275.541943 190.275955 
L 275.6376 190.475989 
L 275.733257 190.326274 
L 275.828914 190.555058 
L 276.020229 190.446975 
L 276.115886 190.452477 
L 276.211543 190.770576 
L 276.3072 190.44737 
L 276.594171 190.758892 
L 276.689829 190.638201 
L 276.9768 190.946307 
L 277.168114 190.869654 
L 277.359429 191.102864 
L 277.455086 190.958925 
L 277.6464 191.275158 
L 277.837714 191.296759 
L 278.124686 191.541621 
L 278.316 191.595816 
L 278.411657 191.868747 
L 278.507314 191.694784 
L 278.602971 191.760917 
L 278.794286 192.040569 
L 278.889943 191.920329 
L 279.176914 192.289856 
L 279.368229 192.146532 
L 279.559543 192.49056 
L 279.6552 192.053835 
L 279.846514 192.361798 
L 280.229143 192.159128 
L 280.3248 192.214103 
L 280.420457 191.936725 
L 280.516114 191.985813 
L 280.611771 192.056514 
L 280.803086 191.660257 
L 280.9944 191.757787 
L 281.185714 191.470129 
L 281.377029 191.441554 
L 281.568343 191.10483 
L 281.759657 191.283943 
L 281.950971 190.874728 
L 282.142286 190.974366 
L 282.237943 190.672596 
L 282.3336 190.719159 
L 282.620571 190.513722 
L 282.716229 190.401258 
L 282.811886 190.542616 
L 282.907543 190.477054 
L 283.0032 190.145293 
L 283.194514 190.325659 
L 283.385829 190.066938 
L 283.577143 190.049587 
L 283.6728 190.054891 
L 283.768457 189.810645 
L 283.959771 189.985244 
L 284.151086 189.635452 
L 284.246743 189.84627 
L 284.629371 189.693128 
L 284.820686 189.644709 
L 284.916343 189.45121 
L 285.107657 189.722428 
L 285.298971 189.517364 
L 285.394629 189.710787 
L 285.585943 189.511302 
L 285.6816 189.486736 
L 285.777257 189.649882 
L 286.064229 189.455536 
L 286.159886 189.735814 
L 286.3512 189.513718 
L 286.446857 189.509995 
L 286.542514 189.696873 
L 286.638171 189.42426 
L 286.733829 189.609842 
L 286.829486 189.52638 
L 286.925143 189.717068 
L 287.0208 189.5426 
L 287.116457 189.650585 
L 287.212114 189.531047 
L 287.307771 189.829994 
L 287.403429 189.544204 
L 287.6904 189.774624 
L 287.786057 189.560578 
L 287.881714 189.765191 
L 287.977371 189.659513 
L 288.073029 189.886869 
L 288.264343 189.711984 
L 288.455657 189.915751 
L 288.551314 189.670868 
L 288.742629 189.89661 
L 288.933943 189.819705 
L 289.220914 189.976865 
L 289.412229 189.923109 
L 289.507886 190.058427 
L 289.6992 189.891471 
L 289.890514 190.096962 
L 289.986171 189.968871 
L 290.273143 190.12691 
L 290.560114 190.104002 
L 290.655771 190.295876 
L 290.751429 190.026218 
L 291.0384 190.218762 
L 291.134057 190.084586 
L 291.229714 190.247051 
L 291.325371 190.143284 
L 291.421029 190.291923 
L 291.612343 190.142768 
L 291.803657 190.299533 
L 291.899314 190.131994 
L 292.090629 190.346777 
L 292.186286 190.220211 
L 292.473257 190.322145 
L 292.760229 190.193789 
L 292.855886 190.444087 
L 292.951543 190.221441 
L 293.0472 190.267598 
L 293.238514 190.382105 
L 293.334171 190.243669 
L 293.429829 190.385674 
L 293.525486 190.242428 
L 293.621143 190.431238 
L 293.812457 190.206319 
L 294.003771 190.480085 
L 294.099429 190.19973 
L 294.290743 190.412141 
L 294.482057 190.331765 
L 294.769029 190.459966 
L 294.960343 190.314798 
L 295.151657 190.406858 
L 295.247314 190.240286 
L 295.438629 190.396788 
L 295.629943 190.375275 
L 296.108229 190.421827 
L 296.203886 190.565041 
L 296.3952 190.356452 
L 296.490857 190.567424 
L 296.682171 190.423781 
L 297.0648 190.524045 
L 297.160457 190.405035 
L 297.351771 190.621882 
L 297.447429 190.513525 
L 297.638743 190.755004 
L 297.7344 190.554553 
L 297.830057 190.711703 
L 297.925714 190.614162 
L 298.021371 190.791354 
L 298.117029 190.711373 
L 298.212686 190.777659 
L 298.308343 190.694395 
L 298.404 191.009541 
L 298.499657 190.789739 
L 298.786629 191.078946 
L 298.882286 190.881712 
L 298.977943 191.098164 
L 299.0736 191.034458 
L 299.169257 191.254819 
L 299.360571 191.157048 
L 299.456229 191.260212 
L 299.551886 191.552383 
L 299.647543 191.165768 
L 299.838857 191.573644 
L 299.934514 191.574072 
L 300.030171 191.452009 
L 300.317143 191.878246 
L 300.4128 191.79104 
L 300.508457 191.8812 
L 300.604114 192.142183 
L 300.795429 192.003033 
L 300.986743 192.402958 
L 301.0824 192.240778 
L 301.369371 192.571342 
L 301.560686 192.48866 
L 301.656343 192.531566 
L 301.752 192.79055 
L 301.847657 192.477458 
L 301.943314 192.535091 
L 302.134629 192.704496 
L 302.230286 192.431741 
L 302.325943 192.581083 
L 302.4216 192.512172 
L 302.517257 192.614006 
L 302.708571 192.272527 
L 302.899886 192.373559 
L 302.995543 191.927785 
L 303.186857 192.117167 
L 303.378171 191.763838 
L 303.473829 191.822096 
L 303.665143 191.702307 
L 303.7608 191.42708 
L 303.952114 191.549934 
L 304.143429 191.142827 
L 304.239086 191.348396 
L 304.908686 190.658188 
L 305.1 190.846428 
L 305.291314 190.456496 
L 305.386971 190.596844 
L 305.482629 190.526132 
L 305.578286 190.231127 
L 305.673943 190.393362 
L 306.056571 190.092603 
L 306.152229 190.238749 
L 306.247886 190.180051 
L 306.343543 189.922626 
L 306.534857 190.12635 
L 306.726171 189.917783 
L 307.013143 189.916345 
L 307.204457 189.879808 
L 307.300114 190.059767 
L 307.491429 189.789812 
L 307.682743 189.964643 
L 307.874057 189.855461 
L 308.065371 189.95164 
L 308.256686 189.7852 
L 308.448 190.02445 
L 308.639314 189.860963 
L 308.734971 190.119629 
L 308.830629 189.90242 
L 309.1176 190.055473 
L 309.404571 189.930412 
L 309.500229 190.20565 
L 309.691543 190.066246 
L 309.7872 190.064643 
L 309.882857 190.285213 
L 309.978514 189.969409 
L 310.074171 190.207253 
L 310.169829 190.122858 
L 310.265486 190.286618 
L 310.361143 190.116807 
L 310.4568 190.213996 
L 310.552457 190.119651 
L 310.648114 190.452642 
L 310.743771 190.091768 
L 311.030743 190.44289 
L 311.1264 190.146128 
L 311.222057 190.448908 
L 311.317714 190.315775 
L 311.413371 190.514744 
L 311.604686 190.384609 
L 311.796 190.5534 
L 311.891657 190.270552 
L 312.082971 190.561515 
L 312.274286 190.457331 
L 312.4656 190.540156 
L 312.943886 190.562559 
L 313.039543 190.468258 
L 313.230857 190.66872 
L 313.326514 190.491473 
L 313.517829 190.622289 
L 313.709143 190.647887 
L 313.8048 190.538157 
L 313.996114 190.82453 
L 314.091771 190.478196 
L 314.283086 190.75418 
L 314.4744 190.582326 
L 314.570057 190.683831 
L 314.665714 190.620971 
L 314.761371 190.717402 
L 314.952686 190.543187 
L 315.048343 190.740706 
L 315.239657 190.517918 
L 315.335314 190.675935 
L 315.430971 190.735237 
L 315.526629 190.54926 
L 315.717943 190.637466 
L 315.909257 190.688267 
L 316.100571 190.591847 
L 316.196229 190.781338 
L 316.387543 190.550281 
L 316.578857 190.661285 
L 316.674514 190.506848 
L 316.770171 190.669939 
L 316.865829 190.534204 
L 316.961486 190.716963 
L 317.1528 190.491331 
L 317.344114 190.759759 
L 317.439771 190.444295 
L 317.631086 190.679866 
L 317.8224 190.575506 
L 318.300686 190.55038 
L 318.396343 190.745658 
L 318.587657 190.476538 
L 318.778971 190.679438 
L 318.874629 190.545317 
L 319.065943 190.619214 
L 319.257257 190.692133 
L 319.352914 190.548985 
L 319.544229 190.830877 
L 319.735543 190.636378 
L 319.8312 190.927737 
L 320.022514 190.751523 
L 320.405143 190.88303 
L 320.5008 190.747745 
L 320.596457 191.078814 
L 320.787771 190.899821 
L 320.979086 191.215592 
L 321.074743 190.93974 
L 321.1704 191.173883 
L 321.266057 191.101634 
L 321.361714 191.337765 
L 321.457371 191.20539 
L 321.553029 191.310464 
L 321.648686 191.245705 
L 321.744343 191.602636 
L 321.84 191.305369 
L 322.126971 191.704964 
L 322.222629 191.485174 
L 322.5096 191.923063 
L 322.700914 191.865782 
L 322.892229 192.274415 
L 322.987886 191.92705 
L 323.1792 192.420309 
L 323.370514 192.290174 
L 323.657486 192.554496 
L 323.8488 192.512468 
L 323.944457 192.747875 
L 324.135771 192.418618 
L 324.327086 192.707879 
L 324.5184 192.482104 
L 324.614057 192.578183 
L 324.996686 192.29639 
L 325.092343 192.329599 
L 325.283657 191.936779 
L 325.379314 192.12917 
L 325.474971 192.006283 
L 325.570629 191.689689 
L 325.666286 191.74507 
L 325.8576 191.708676 
L 326.048914 191.307862 
L 326.240229 191.412299 
L 326.335886 191.0215 
L 326.431543 191.095056 
L 326.5272 191.198735 
L 326.718514 190.87218 
L 326.909829 190.881273 
L 327.101143 190.538047 
L 327.1968 190.613997 
L 327.292457 190.726155 
L 327.483771 190.294295 
L 327.675086 190.43652 
L 327.770743 190.16539 
L 327.8664 190.19984 
L 328.057714 190.21628 
L 328.249029 189.913357 
L 328.440343 190.139264 
L 328.536 189.760018 
L 328.631657 189.82021 
L 328.727314 190.001827 
L 328.918629 189.725162 
L 329.2056 189.804934 
L 329.396914 189.642107 
L 329.492571 189.828182 
L 329.683886 189.544226 
L 329.8752 189.73442 
L 330.066514 189.600936 
L 330.257829 189.69382 
L 330.5448 189.695324 
L 330.640457 189.828677 
L 330.831771 189.601057 
L 331.023086 189.736166 
L 331.2144 189.677391 
L 331.405714 189.80903 
L 331.597029 189.624305 
L 331.788343 189.849015 
L 331.979657 189.707492 
L 332.075314 189.96461 
L 332.170971 189.761852 
L 332.457943 189.977656 
L 332.744914 189.834135 
L 332.840571 190.155891 
L 332.936229 189.890153 
L 333.2232 190.190231 
L 333.318857 189.879841 
L 333.414514 190.129567 
L 333.510171 189.976975 
L 333.605829 190.231622 
L 333.701486 190.018563 
L 333.797143 190.151235 
L 333.8928 190.061272 
L 333.988457 190.388233 
L 334.084114 189.986496 
L 334.275429 190.228206 
L 334.371086 190.338936 
L 334.466743 190.043185 
L 334.5624 190.341846 
L 334.658057 190.170563 
L 334.753714 190.408352 
L 334.849371 190.186849 
L 335.136343 190.471223 
L 335.232 190.203794 
L 335.423314 190.430403 
L 335.614629 190.335466 
L 335.710286 190.456815 
L 335.805943 190.391824 
L 335.9016 190.507693 
L 336.092914 190.408506 
L 336.188571 190.564865 
L 336.379886 190.381633 
L 336.5712 190.52063 
L 336.666857 190.426121 
L 336.858171 190.47567 
L 336.953829 190.553795 
L 336.953829 190.553795 
" style="fill:none;stroke:#001c7f;stroke-linecap:round;stroke-width:1.5;"/>
   </g>
   <g id="patch_8">
    <path d="M 54 252 
L 54 153.163636 
" style="fill:none;stroke:#ffffff;stroke-linecap:square;stroke-linejoin:miter;stroke-width:1.25;"/>
   </g>
   <g id="patch_9">
    <path d="M 388.8 252 
L 388.8 153.163636 
" style="fill:none;stroke:#ffffff;stroke-linecap:square;stroke-linejoin:miter;stroke-width:1.25;"/>
   </g>
   <g id="patch_10">
    <path d="M 54 252 
L 388.8 252 
" style="fill:none;stroke:#ffffff;stroke-linecap:square;stroke-linejoin:miter;stroke-width:1.25;"/>
   </g>
   <g id="patch_11">
    <path d="M 54 153.163636 
L 388.8 153.163636 
" style="fill:none;stroke:#ffffff;stroke-linecap:square;stroke-linejoin:miter;stroke-width:1.25;"/>
   </g>
   <g id="text_19">
    <!-- Torque vs Time for u=9[m/s] -->
    <g style="fill:#262626;" transform="translate(134.570625 147.163636)scale(0.12 -0.12)">
     <use xlink:href="#DejaVuSans-84"/>
     <use x="60.818359" xlink:href="#DejaVuSans-111"/>
     <use x="122" xlink:href="#DejaVuSans-114"/>
     <use x="163.097656" xlink:href="#DejaVuSans-113"/>
     <use x="226.574219" xlink:href="#DejaVuSans-117"/>
     <use x="289.953125" xlink:href="#DejaVuSans-101"/>
     <use x="351.476562" xlink:href="#DejaVuSans-32"/>
     <use x="383.263672" xlink:href="#DejaVuSans-118"/>
     <use x="442.443359" xlink:href="#DejaVuSans-115"/>
     <use x="494.542969" xlink:href="#DejaVuSans-32"/>
     <use x="526.330078" xlink:href="#DejaVuSans-84"/>
     <use x="587.367188" xlink:href="#DejaVuSans-105"/>
     <use x="615.150391" xlink:href="#DejaVuSans-109"/>
     <use x="712.5625" xlink:href="#DejaVuSans-101"/>
     <use x="774.085938" xlink:href="#DejaVuSans-32"/>
     <use x="805.873047" xlink:href="#DejaVuSans-102"/>
     <use x="841.078125" xlink:href="#DejaVuSans-111"/>
     <use x="902.259766" xlink:href="#DejaVuSans-114"/>
     <use x="943.373047" xlink:href="#DejaVuSans-32"/>
     <use x="975.160156" xlink:href="#DejaVuSans-117"/>
     <use x="1038.539062" xlink:href="#DejaVuSans-61"/>
     <use x="1122.328125" xlink:href="#DejaVuSans-57"/>
     <use x="1185.951172" xlink:href="#DejaVuSans-91"/>
     <use x="1224.964844" xlink:href="#DejaVuSans-109"/>
     <use x="1322.376953" xlink:href="#DejaVuSans-47"/>
     <use x="1356.068359" xlink:href="#DejaVuSans-115"/>
     <use x="1408.167969" xlink:href="#DejaVuSans-93"/>
    </g>
   </g>
  </g>
 </g>
 <defs>
  <clipPath id="pf6d2123a19">
   <rect height="98.836364" width="334.8" x="54" y="34.56"/>
  </clipPath>
  <clipPath id="p0a48c601d8">
   <rect height="98.836364" width="334.8" x="54" y="153.163636"/>
  </clipPath>
 </defs>
</svg>
